traceroute to 93.88.214.122 (93.88.214.122), 40 hops max, 60 byte packets
 1  192.168.1.1 (192.168.1.1)  0.717 ms  0.854 ms  1.032 ms
 2  10.168.64.1 (10.168.64.1)  18.464 ms  21.676 ms  21.940 ms
 3  10.254.246.45 (10.254.246.45)  27.827 ms  30.927 ms  36.471 ms
 4  ss-crs-1-be12-51.msk.stream-internet.net (212.188.1.5)  39.403 ms  42.439 ms  42.690 ms
 5  m9-crs-1-be9.msk.stream-internet.net (195.34.59.250)  48.298 ms  51.607 ms  54.837 ms
 6  m9-cr05-ae0.77.msk.stream-internet.net (212.188.42.58)  54.504 ms  43.395 ms  19.338 ms
 7  Rostelecom-m9.msk.stream-internet.net (212.188.22.70)  19.611 ms  22.652 ms  25.804 ms
 8  95.167.93.2 (95.167.93.2)  145.832 ms 95.167.92.1 (95.167.92.1)  151.833 ms 95.167.93.2 (95.167.93.2)  146.063 ms
 9  188.254.47.82 (188.254.47.82)  151.560 ms  154.891 ms  157.832 ms
10  * * *
11  * * *
12  * * *
13  * * *
14  * * *
15  * * *
16  * * *
17  * * *
18  * * *
19  * * *
20  * * *
21  * * *
22  * * *
23  * * *
24  * * *
25  * * *
26  * * *
27  * * *
28  * * *
29  * * *
30  * * *
31  * * *
32  * * *
33  * * *
34  * * *
35  * * *
36  * * *
37  * * *
38  * * *
39  * * *
40  * * *
