traceroute to 31.43.133.126 (31.43.133.126), 40 hops max, 60 byte packets
 1  192.168.1.1 (192.168.1.1)  12.413 ms  12.547 ms  12.727 ms
 2  * * 10.168.64.1 (10.168.64.1)  74.471 ms
 3  * * *
 4  * * *
 5  a197-crs-1-be5.msk.stream-internet.net (195.34.59.106)  102.305 ms  105.741 ms  106.419 ms
 6  212.188.2.37 (212.188.2.37)  107.083 ms  77.400 ms  61.064 ms
 7  212.188.2.93 (212.188.2.93)  64.555 ms *  68.201 ms
 8  10gigabitethernet1-2.core1.sto1.he.net (194.68.123.187)  71.304 ms  71.870 ms  72.380 ms
 9  10gigabitethernet3-1.core1.cph1.he.net (184.105.223.206)  79.891 ms  81.702 ms  83.369 ms
10  10gigabitethernet16-1.core1.fra1.he.net (184.105.223.201)  108.943 ms  109.540 ms  110.017 ms
11  * * *
12  v95.BR01.KBP.L9.top.net.ua (88.81.245.81)  159.957 ms  173.493 ms  121.325 ms
13  77.88.212.109 (77.88.212.109)  120.832 ms  124.433 ms  124.752 ms
14  gw-ext-in2.corbinatele.com (91.210.248.19)  127.862 ms  128.266 ms  128.801 ms
15  * * *
16  * * *
17  * * *
18  * * *
19  * * *
20  * * *
21  * * *
22  * * *
23  * * *
24  * * *
25  * * *
26  * * *
27  * * *
28  * * *
29  * * *
30  * * *
31  * * *
32  * * *
33  * * *
34  * * *
35  * * *
36  * * *
37  * * *
38  * * *
39  * * *
40  * * *
