traceroute to 37.147.226.216 (37.147.226.216), 40 hops max, 60 byte packets
 1  192.168.1.1 (192.168.1.1)  0.683 ms  0.819 ms  0.997 ms
 2  10.168.64.1 (10.168.64.1)  102.193 ms  103.413 ms  105.087 ms
 3  10.254.246.45 (10.254.246.45)  108.071 ms  112.190 ms  112.569 ms
 4  ss-crs-1-be12-51.msk.stream-internet.net (212.188.1.5)  115.885 ms  116.360 ms  116.759 ms
 5  m9-crs-1-be9.msk.stream-internet.net (195.34.59.250)  117.764 ms  121.703 ms  122.211 ms
 6  * GoldenTelecom-m9.msk.stream-internet.net (195.34.36.18)  106.781 ms  61.526 ms
 7  p4.Moscow.gldn.net (79.104.225.73)  114.001 ms  69.372 ms  65.965 ms
 8  p2.Rostov.gldn.net (79.104.227.182)  98.199 ms  98.516 ms  98.816 ms
 9  p2.Stavropol.gldn.net (79.104.227.246)  96.027 ms  97.576 ms  99.861 ms
10  79.104.232.86 (79.104.232.86)  104.207 ms  105.715 ms  106.536 ms
11  195.218.175.214 (195.218.175.214)  108.492 ms  110.033 ms  88.168 ms
12  * 10.2.246.33 (10.2.246.33)  91.198 ms  94.595 ms
13  * * *
14  * * *
15  * * *
16  * * *
17  * * *
18  * * *
19  * * *
20  * * *
21  * * *
22  * * *
23  * * *
24  * * *
25  * * *
26  * * *
27  * * *
28  * * *
29  * * *
30  * * *
31  * * *
32  * * *
33  * * *
34  * * *
35  * * *
36  * * *
37  * * *
38  * * *
39  * * *
40  * * *
