traceroute to 31.200.231.170 (31.200.231.170), 40 hops max, 60 byte packets
 1  192.168.1.1 (192.168.1.1)  32.364 ms  32.502 ms  32.680 ms
 2  10.168.64.1 (10.168.64.1)  51.508 ms  51.905 ms  55.173 ms
 3  10.254.246.45 (10.254.246.45)  58.281 ms  66.622 ms  67.013 ms
 4  ss-crs-1-be12-51.msk.stream-internet.net (212.188.1.5)  70.190 ms  70.601 ms  73.776 ms
 5  m9-crs-1-be9.msk.stream-internet.net (195.34.59.250)  87.426 ms  91.547 ms  95.369 ms
 6  195.34.53.17 (195.34.53.17)  98.334 ms *  123.639 ms
 7  bor-cr01-po21.spb.stream-internet.net (212.188.1.238)  126.688 ms  127.080 ms  127.534 ms
 8  TTK-bor.spb.stream-internet.net (195.34.38.6)  133.412 ms  136.659 ms  137.027 ms
 9  IP-Kozitskiy-gw.transtelecom.net (217.150.59.101)  244.140 ms  246.585 ms  247.736 ms
10  IP-Kozitskiy-gw.transtelecom.net (217.150.59.101)  249.950 ms  252.156 ms *
11  * * *
12  * * *
13  * * *
14  * * *
15  * * *
16  * * *
17  * * *
18  * * *
19  * * *
20  * * *
21  * * *
22  * * *
23  * * *
24  * * *
25  * * *
26  * * *
27  * * *
28  * * *
29  * * *
30  * * *
31  * * *
32  * * *
33  * * *
34  * * *
35  * * *
36  * * *
37  * * *
38  * * *
39  * * *
40  * * *
