traceroute to 109.61.198.147 (109.61.198.147), 40 hops max, 60 byte packets
 1  192.168.1.1 (192.168.1.1)  29.926 ms  30.100 ms  30.374 ms
 2  10.168.64.1 (10.168.64.1)  119.738 ms  121.525 ms  122.761 ms
 3  10.254.246.45 (10.254.246.45)  129.709 ms  129.891 ms  130.132 ms
 4  * * *
 5  * a197-crs-1-be5.msk.stream-internet.net (195.34.59.106)  132.090 ms *
 6  * 212.188.2.61 (212.188.2.61)  19.828 ms  62.657 ms
 7  Rostelecom-m9.msk.stream-internet.net (212.188.22.70)  64.525 ms  66.040 ms  67.684 ms
 8  95.167.90.161 (95.167.90.161)  69.963 ms  71.973 ms  73.330 ms
 9  customer-AS44237.ae-16.626.m10-cr1-a.msk.ip.rostelecom.ru (188.254.36.126)  76.046 ms  77.756 ms  79.012 ms
10  77.51.252.244 (77.51.252.244)  88.896 ms  89.137 ms  89.359 ms
11  77.51.252.249 (77.51.252.249)  96.215 ms *  53.303 ms
12  77.51.254.42 (77.51.254.42)  36.102 ms  36.618 ms  41.271 ms
13  95-107-47-86.net.orel.ru (95.107.47.86)  37.187 ms  40.636 ms  41.797 ms
14  * * *
15  * * *
16  * * *
17  * * *
18  * * *
19  * * *
20  * * *
21  * * *
22  * * *
23  * * *
24  * * *
25  * * *
26  * * *
27  * * *
28  * * *
29  * * *
30  * * *
31  * * *
32  * * *
33  * * *
34  * * *
35  * * *
36  * * *
37  * * *
38  * * *
39  * * *
40  * * *
