traceroute to 195.70.199.98 (195.70.199.98), 40 hops max, 60 byte packets
 1  192.168.1.1 (192.168.1.1)  0.694 ms  0.856 ms  1.029 ms
 2  10.168.64.1 (10.168.64.1)  25.229 ms  28.358 ms  28.605 ms
 3  10.254.246.45 (10.254.246.45)  31.569 ms  37.087 ms  37.349 ms
 4  ss-crs-1-be12-51.msk.stream-internet.net (212.188.1.5)  37.665 ms  38.112 ms  41.258 ms
 5  m9-crs-1-be9.msk.stream-internet.net (195.34.59.250)  46.745 ms  46.967 ms  50.138 ms
 6  195.34.53.185 (195.34.53.185)  50.350 ms  16.995 ms  19.814 ms
 7  Megafon-m9.msk.stream-internet.net (212.188.16.134)  24.897 ms * *
 8  * * *
 9  * 78.25.71.174 (78.25.71.174)  140.121 ms *
10  * * *
11  zxy.spb.ru (195.70.199.98)  141.611 ms *  45.742 ms
