traceroute to 213.148.166.69 (213.148.166.69), 40 hops max, 60 byte packets
 1  192.168.1.1 (192.168.1.1)  0.701 ms  0.879 ms  1.057 ms
 2  10.168.64.1 (10.168.64.1)  17.255 ms  20.096 ms  23.042 ms
 3  10.254.246.45 (10.254.246.45)  28.547 ms  31.443 ms  31.910 ms
 4  ss-crs-1-be12-51.msk.stream-internet.net (212.188.1.5)  37.337 ms  40.237 ms  40.404 ms
 5  a197-crs-1-be5.msk.stream-internet.net (195.34.59.106)  44.791 ms  48.887 ms  52.802 ms
 6  212.188.2.61 (212.188.2.61)  51.283 ms  31.853 ms  19.060 ms
 7  Rostelecom-m9.msk.stream-internet.net (212.188.22.70)  22.123 ms  25.269 ms  25.565 ms
 8  95.167.95.221 (95.167.95.221)  28.623 ms * ae-0.m7-ar4.msk.ip.rostelecom.ru (87.226.139.102)  39.720 ms
 9  95.167.13.62 (95.167.13.62)  61.273 ms 95.167.13.2 (95.167.13.2)  61.976 ms 95.167.13.54 (95.167.13.54)  61.595 ms
10  ae2-30g.T1600-2-MMT.nwtelecom.ru (212.48.194.94)  68.655 ms  69.021 ms  77.245 ms
11  212.48.195.7 (212.48.195.7)  78.933 ms  80.923 ms  83.770 ms
12  as16301-datacom.gateway.nwtelecom.ru (212.48.214.54)  68.108 ms  37.025 ms  39.897 ms
13  TTS-SwitchCore-TGE1-1.natm.ru (78.81.0.253)  40.022 ms  43.036 ms  45.905 ms
14  * * *
15  * * *
16  * * *
17  * * *
18  * * *
19  * * *
20  * * *
21  * * *
22  * * *
23  * * *
24  * * *
25  * * *
26  * * *
27  * * *
28  * * *
29  * * *
30  * * *
31  * * *
32  * * *
33  * * *
34  * * *
35  * * *
36  * * *
37  * * *
38  * * *
39  * * *
40  * * *
