traceroute to 89.208.196.126 (89.208.196.126), 40 hops max, 60 byte packets
 1  192.168.1.1 (192.168.1.1)  1.577 ms  1.717 ms  1.895 ms
 2  10.168.64.1 (10.168.64.1)  53.229 ms  54.783 ms  56.255 ms
 3  10.254.246.45 (10.254.246.45)  62.223 ms  62.751 ms  66.083 ms
 4  ss-crs-1-be12-51.msk.stream-internet.net (212.188.1.5)  64.138 ms  68.381 ms  68.936 ms
 5  m9-crs-1-be9.msk.stream-internet.net (195.34.59.250)  72.296 ms  72.846 ms  76.172 ms
 6  212.188.12.231 (212.188.12.231)  73.881 ms  17.905 ms  65.372 ms
 7  p4.Moscow.gldn.net (79.104.225.73)  68.761 ms  69.409 ms p3.Moscow.gldn.net (79.104.225.69)  72.809 ms
 8  cat08.Moscow.gldn.net (79.104.225.46)  73.424 ms  73.565 ms cat08.Moscow.gldn.net (79.104.225.14)  74.567 ms
 9  dinet-gw.Moscow.gldn.net (195.239.9.126)  76.548 ms  77.937 ms  80.083 ms
10  vl-711.br1.msk1.ip.di-net.ru (213.248.3.137)  82.384 ms  83.071 ms  85.528 ms
11  213.219.200.226 (213.219.200.226)  86.599 ms  88.332 ms *
12  * * *
13  * * *
14  * * *
15  * * *
16  * * *
17  * * *
18  * * *
19  * * *
20  * * *
21  * * *
22  * * *
23  * * *
24  * * *
25  * * *
26  * * *
27  * * *
28  * * *
29  * * *
30  * * *
31  * * *
32  * * *
33  * * *
34  * * *
35  * * *
36  * * *
37  * * *
38  * * *
39  * * *
40  * * *
