traceroute to 31.8.147.89 (31.8.147.89), 40 hops max, 60 byte packets
 1  192.168.1.1 (192.168.1.1)  0.695 ms  0.830 ms  1.022 ms
 2  10.168.64.1 (10.168.64.1)  75.034 ms  77.293 ms  78.700 ms
 3  10.254.246.45 (10.254.246.45)  81.790 ms  85.877 ms  86.547 ms
 4  * ss-crs-1-be12-51.msk.stream-internet.net (212.188.1.5)  91.859 ms  92.476 ms
 5  a197-crs-1-be5.msk.stream-internet.net (195.34.59.106)  98.432 ms  99.069 ms  99.763 ms
 6  212.188.2.54 (212.188.2.54)  100.384 ms  31.423 ms *
 7  * * *
 8  95.167.92.118 (95.167.92.118)  127.307 ms * *
 9  * * *
10  ufa-c2-g4-31.ufamts.ru (83.174.194.10)  128.566 ms  130.564 ms  131.321 ms
11  ufa-c2-g4-2-900.ufamts.ru (83.174.194.230)  127.891 ms h83-174-194-238.static.bashtel.ru (83.174.194.238)  129.236 ms ufa-c2-g4-2-900.ufamts.ru (83.174.194.230)  129.851 ms
12  ufa-c1-g4-35-918.ufamts.ru (83.174.194.212)  56.017 ms ufa-c1-g4-23-917.ufamts.ru (83.174.194.116)  65.553 ms ufa-c1-g4-35-918.ufamts.ru (83.174.194.212)  58.102 ms
13  h83-174-194-117.static.bashtel.ru (83.174.194.117)  63.336 ms h83-174-194-213.static.bashtel.ru (83.174.194.213)  66.425 ms h83-174-194-117.static.bashtel.ru (83.174.194.117)  66.336 ms
14  * * *
15  * * *
16  * * *
17  * * *
18  * * *
19  * * *
20  * * *
21  * * *
22  * * *
23  * * *
24  * * *
25  * * *
26  * * *
27  * * *
28  * * *
29  * * *
30  * * *
31  * * *
32  * * *
33  * * *
34  * * *
35  * * *
36  * * *
37  * * *
38  * * *
39  * * *
40  * * *
