traceroute to 188.17.239.42 (188.17.239.42), 40 hops max, 60 byte packets
 1  192.168.1.1 (192.168.1.1)  0.688 ms  0.865 ms  1.136 ms
 2  10.168.64.1 (10.168.64.1)  19.996 ms  20.628 ms  23.988 ms
 3  10.254.246.45 (10.254.246.45)  30.169 ms  30.780 ms  33.827 ms
 4  ss-crs-1-be12-51.msk.stream-internet.net (212.188.1.5)  36.668 ms  42.875 ms  44.316 ms
 5  a197-crs-1-be5.msk.stream-internet.net (195.34.59.106)  48.381 ms  54.399 ms  57.393 ms
 6  212.188.2.61 (212.188.2.61)  54.526 ms  23.186 ms  24.602 ms
 7  Rostelecom-m9.msk.stream-internet.net (212.188.22.70)  24.950 ms  36.241 ms  30.504 ms
 8  95.167.90.53 (95.167.90.53)  55.212 ms  77.782 ms  58.563 ms
 9  188.128.90.138 (188.128.90.138)  61.010 ms  66.668 ms  67.549 ms
10  90.150.2.73 (90.150.2.73)  69.588 ms  73.097 ms  75.771 ms
11  212.57.168.174 (212.57.168.174)  78.640 ms  80.882 ms  83.599 ms
12  188.17.239.42 (188.17.239.42)  148.889 ms  94.683 ms  116.284 ms
