traceroute to 5.167.47.239 (5.167.47.239), 40 hops max, 60 byte packets
 1  192.168.1.1 (192.168.1.1)  282.636 ms  282.780 ms  283.041 ms
 2  10.168.64.1 (10.168.64.1)  324.600 ms  324.822 ms  326.621 ms
 3  10.254.246.45 (10.254.246.45)  332.348 ms  332.576 ms  336.172 ms
 4  ss-crs-1-be12-51.msk.stream-internet.net (212.188.1.5)  334.335 ms  338.326 ms  338.556 ms
 5  a197-crs-1-be5.msk.stream-internet.net (195.34.59.106)  344.649 ms  344.896 ms  345.133 ms
 6  212.188.2.54 (212.188.2.54)  345.131 ms  166.848 ms  99.387 ms
 7  TTK-m9.msk.stream-internet.net (195.34.36.46)  99.757 ms  100.103 ms  103.193 ms
 8  kzn01.nch25.transtelecom.net (217.150.63.194)  114.748 ms  115.070 ms  115.523 ms
 9  * * *
10  * * *
11  * * *
12  * * *
13  * * *
14  * * *
15  * * *
16  * * *
17  * * *
18  * * *
19  * * *
20  * * *
21  * * *
22  * * *
23  * * *
24  * * *
25  * * *
26  * * *
27  * * *
28  * * *
29  * * *
30  * * *
31  * * *
32  * * *
33  * * *
34  * * *
35  * * *
36  * * *
37  * * *
38  * * *
39  * * *
40  * * *
