traceroute to 46.72.226.56 (46.72.226.56), 40 hops max, 60 byte packets
 1  192.168.1.1 (192.168.1.1)  0.721 ms  0.865 ms  1.035 ms
 2  10.168.64.1 (10.168.64.1)  59.979 ms  61.467 ms *
 3  10.254.246.45 (10.254.246.45)  66.283 ms  72.938 ms  73.149 ms
 4  ss-crs-1-be12-51.msk.stream-internet.net (212.188.1.5)  73.346 ms  73.543 ms  76.585 ms
 5  a197-crs-1-be5.msk.stream-internet.net (195.34.59.106)  77.775 ms  81.736 ms  82.246 ms
 6  * 212.188.2.54 (212.188.2.54)  43.020 ms *
 7  * Megafon-m9.msk.stream-internet.net (212.188.16.134)  78.292 ms  78.423 ms
 8  78.25.83.162 (78.25.83.162)  76.901 ms  78.551 ms  79.980 ms
 9  212.1.253.246 (212.1.253.246)  92.598 ms  93.728 ms  95.447 ms
10  212.1.240.242 (212.1.240.242)  96.915 ms  98.921 ms  100.430 ms
11  * * *
12  * * *
13  * * *
14  * * *
15  * * *
16  * * *
17  * * *
18  * * *
19  * * *
20  * * *
21  * * *
22  * * *
23  * * *
24  * * *
25  * * *
26  * * *
27  * * *
28  * * *
29  * * *
30  * * *
31  * * *
32  * * *
33  * * *
34  * * *
35  * * *
36  * * *
37  * * *
38  * * *
39  * * *
40  * * *
