traceroute to 46.158.26.135 (46.158.26.135), 40 hops max, 60 byte packets
 1  192.168.1.1 (192.168.1.1)  0.692 ms  0.873 ms  1.048 ms
 2  10.168.64.1 (10.168.64.1)  56.943 ms  59.882 ms  62.888 ms
 3  10.254.246.45 (10.254.246.45)  68.646 ms  68.921 ms  69.176 ms
 4  ss-crs-1-be12-51.msk.stream-internet.net (212.188.1.5)  72.224 ms  72.467 ms  75.799 ms
 5  * m10-cr01-po7.msk.stream-internet.net (195.34.59.206)  75.376 ms *
 6  Rostelecom-m10.msk.stream-internet.net (212.188.41.58)  78.696 ms  116.009 ms  63.636 ms
 7  95.167.90.47 (95.167.90.47)  83.120 ms  83.738 ms  84.309 ms
 8  customer-AS25490.ae-6.krdr-cr1-a.ug.ip.rostelecom.ru (188.254.36.250)  88.228 ms  88.906 ms  90.243 ms
 9  85.175.1.74 (85.175.1.74)  95.088 ms 85.175.1.76 (85.175.1.76)  95.651 ms 85.175.1.92 (85.175.1.92)  96.308 ms
10  * * *
11  * * *
12  * * *
13  * * *
14  * * *
15  * * *
16  * * *
17  * * *
18  * * *
19  * * *
20  * * *
21  * * *
22  * * *
23  * * *
24  * * *
25  * * *
26  * * *
27  * * *
28  * * *
29  * * *
30  * * *
31  * * *
32  * * *
33  * * *
34  * * *
35  * * *
36  * * *
37  * * *
38  * * *
39  * * *
40  * * *
