traceroute to 95.24.102.230 (95.24.102.230), 40 hops max, 60 byte packets
 1  192.168.1.1 (192.168.1.1)  0.708 ms  0.912 ms  1.090 ms
 2  10.168.64.1 (10.168.64.1)  41.718 ms  42.019 ms  43.170 ms
 3  10.254.246.45 (10.254.246.45)  50.464 ms  50.965 ms  51.309 ms
 4  ss-crs-1-be12-51.msk.stream-internet.net (212.188.1.5)  52.926 ms *  56.771 ms
 5  m9-crs-1-be9.msk.stream-internet.net (195.34.59.250)  57.997 ms  58.347 ms  61.881 ms
 6  212.188.12.126 (212.188.12.126)  61.146 ms  124.973 ms  40.218 ms
 7  m9-crs-2-be4.corbina.net (195.14.62.48)  40.538 ms m9-crs-be4.corbina.net (78.107.184.42)  41.948 ms  45.977 ms
 8  rti-bb-be2.corbina.net (195.14.54.53)  45.620 ms  49.052 ms  49.330 ms
 9  varsh172-bb-be2.corbina.net (195.14.54.111)  49.991 ms  52.544 ms  54.103 ms
10  10.2.251.119 (10.2.251.119)  54.446 ms  56.189 ms  57.707 ms
11  * * *
12  * * *
13  * * *
14  * * *
15  * * *
16  * * *
17  * * *
18  * * *
19  * * *
20  * * *
21  * * *
22  * * *
23  * * *
24  * * *
25  * * *
26  * * *
27  * * *
28  * * *
29  * * *
30  * * *
31  * * *
32  * * *
33  * * *
34  * * *
35  * * *
36  * * *
37  * * *
38  * * *
39  * * *
40  * * *
