traceroute to 5.167.47.115 (5.167.47.115), 40 hops max, 60 byte packets
 1  192.168.1.1 (192.168.1.1)  396.483 ms  397.026 ms  397.454 ms
 2  10.168.64.1 (10.168.64.1)  432.139 ms  434.299 ms  435.950 ms
 3  10.254.246.45 (10.254.246.45)  440.577 ms  440.841 ms  443.946 ms
 4  ss-crs-1-be12-51.msk.stream-internet.net (212.188.1.5)  447.028 ms  447.254 ms  447.492 ms
 5  a197-crs-1-be5.msk.stream-internet.net (195.34.59.106)  453.481 ms  453.824 ms  454.132 ms
 6  212.188.2.61 (212.188.2.61)  454.337 ms  109.856 ms  111.603 ms
 7  TTK-m9.msk.stream-internet.net (195.34.36.46)  112.165 ms  117.447 ms  118.029 ms
 8  kzn01.nch25.transtelecom.net (217.150.63.194)  129.888 ms  135.606 ms  140.973 ms
 9  ERTelecom-nch-gw.transtelecom.net (217.150.63.193)  153.366 ms  153.907 ms  154.517 ms
10  5x167x47x115.dynamic.chelny.ertelecom.ru (5.167.47.115)  159.751 ms  160.933 ms  163.894 ms
