traceroute to 46.188.49.217 (46.188.49.217), 40 hops max, 60 byte packets
 1  192.168.1.1 (192.168.1.1)  0.685 ms  0.820 ms  0.999 ms
 2  10.168.64.1 (10.168.64.1)  76.452 ms  78.739 ms  80.297 ms
 3  10.254.246.45 (10.254.246.45)  85.064 ms  85.566 ms  89.379 ms
 4  ss-crs-1-be12-51.msk.stream-internet.net (212.188.1.5)  88.172 ms  92.076 ms  92.691 ms
 5  m9-crs-1-be9.msk.stream-internet.net (195.34.59.250)  93.237 ms  97.030 ms  97.626 ms
 6  212.188.42.106 (212.188.42.106)  98.113 ms  116.024 ms  90.447 ms
 7  212.188.23.138 (212.188.23.138)  93.967 ms  94.594 ms 212.188.22.110 (212.188.22.110)  95.159 ms
 8  setel-gw.fiord.ru (62.140.245.2)  98.440 ms  98.952 ms  100.595 ms
 9  c76-vl-165-m10.setel.ru (80.253.16.169)  102.769 ms  104.222 ms  105.735 ms
10  gw-volokol-gt1-m10.2kom.ru (80.253.16.170)  108.594 ms  109.446 ms  111.353 ms
11  * 172.31.244.13 (172.31.244.13)  112.247 ms *
12  * * *
13  * * *
14  * * *
15  * * *
16  * * *
17  * * *
18  * * *
19  * * *
20  * * *
21  * * *
22  * * *
23  * * *
24  * * *
25  * * *
26  * * *
27  * * *
28  * * *
29  * * *
30  * * *
31  * * *
32  * * *
33  * * *
34  * * *
35  * * *
36  * * *
37  * * *
38  * * *
39  * * *
40  * * *
