traceroute to 46.159.12.253 (46.159.12.253), 40 hops max, 60 byte packets
 1  192.168.1.1 (192.168.1.1)  0.680 ms  0.837 ms  0.993 ms
 2  10.168.64.1 (10.168.64.1)  19.909 ms  20.164 ms  23.410 ms
 3  10.254.246.45 (10.254.246.45)  29.487 ms  29.852 ms  32.998 ms
 4  ss-crs-1-be12-51.msk.stream-internet.net (212.188.1.5)  36.108 ms  41.660 ms  43.842 ms
 5  m10-cr01-po7.msk.stream-internet.net (195.34.59.206)  43.425 ms * *
 6  Rostelecom-m10.msk.stream-internet.net (212.188.41.58)  53.617 ms  117.741 ms  29.048 ms
 7  ae-0.krdr-cr1-b.ug.ip.rostelecom.ru (87.226.133.129)  47.687 ms  51.433 ms 95.167.91.118 (95.167.91.118)  53.763 ms
 8  customer-AS25490.ae-5.krdr-cr1-b.ug.ip.rostelecom.ru (188.254.36.170)  53.942 ms  54.404 ms *
 9  * * *
10  * * *
11  * * *
12  * * *
13  * * *
14  * * *
15  * * *
16  * * *
17  * * *
18  * * *
19  * * *
20  * * *
21  * * *
22  * * *
23  * * *
24  * * *
25  * * *
26  * * *
27  * * *
28  * * *
29  * * *
30  * * *
31  * * *
32  * * *
33  * * *
34  * * *
35  * * *
36  * * *
37  * * *
38  * * *
39  * * *
40  * * *
