traceroute to 86.111.79.35 (86.111.79.35), 40 hops max, 60 byte packets
 1  192.168.1.1 (192.168.1.1)  0.693 ms  0.846 ms  1.025 ms
 2  * 10.168.64.1 (10.168.64.1)  97.030 ms  98.518 ms
 3  10.254.246.45 (10.254.246.45)  103.749 ms  104.216 ms  107.863 ms
 4  ss-crs-1-be12-51.msk.stream-internet.net (212.188.1.5)  109.140 ms  109.703 ms  110.302 ms
 5  m9-crs-1-be9.msk.stream-internet.net (195.34.59.250)  133.411 ms  132.741 ms  137.403 ms
 6  pbd-cr01-be15.kiev.stream-internet.net (212.188.54.202)  134.954 ms  86.735 ms  65.698 ms
 7  212.188.41.154 (212.188.41.154)  68.922 ms  69.322 ms  72.156 ms
 8  itsystems-gw.comstar-ua.net (212.40.44.22)  72.453 ms  74.007 ms  75.413 ms
 9  lanet.itsinternet.net (213.133.166.118)  77.598 ms  79.132 ms  80.820 ms
10  194.33.189.181 (194.33.189.181)  82.252 ms  83.436 ms  85.034 ms
11  * 172.31.255.18 (172.31.255.18)  90.165 ms  91.382 ms
12  172.31.255.18 (172.31.255.18)  2088.964 ms !H  2096.160 ms !H  2087.069 ms !H
