traceroute to 176.121.216.57 (176.121.216.57), 40 hops max, 60 byte packets
 1  192.168.1.1 (192.168.1.1)  0.837 ms  0.986 ms  1.162 ms
 2  10.168.64.1 (10.168.64.1)  59.513 ms  60.899 ms  62.899 ms
 3  10.254.246.45 (10.254.246.45)  70.006 ms  70.185 ms  70.346 ms
 4  ss-crs-1-be12-51.msk.stream-internet.net (212.188.1.5)  73.396 ms  73.897 ms  74.521 ms
 5  * a197-crs-1-be5.msk.stream-internet.net (195.34.59.106)  78.062 ms  81.547 ms
 6  212.188.2.54 (212.188.2.54)  80.587 ms  22.976 ms *
 7  Rostelecom-m9.msk.stream-internet.net (212.188.22.70)  81.936 ms  85.628 ms  86.196 ms
 8  95.167.92.174 (95.167.92.174)  134.168 ms  137.747 ms  138.346 ms
 9  188.254.106.30 (188.254.106.30)  148.661 ms  145.158 ms  148.843 ms
10  * * *
11  176.121.216.57 (176.121.216.57)  179.144 ms  149.387 ms  147.275 ms
