traceroute to 5.167.219.181 (5.167.219.181), 40 hops max, 60 byte packets
 1  192.168.1.1 (192.168.1.1)  66.687 ms  66.875 ms  67.063 ms
 2  * * *
 3  10.254.246.45 (10.254.246.45)  278.830 ms * *
 4  * * *
 5  * * *
 6  * 212.188.2.54 (212.188.2.54)  69.676 ms  63.211 ms
 7  Rostelecom-m9.msk.stream-internet.net (212.188.22.70)  65.188 ms  67.175 ms *
 8  * * 46.61.227.202 (46.61.227.202)  69.238 ms
 9  lag-2-435.bgw01.ekat.ertelecom.ru (109.195.104.18)  118.196 ms *  118.555 ms
10  lag-1-435.bsr01.ekat.ertelecom.ru (109.195.104.17)  2228.566 ms  2228.964 ms  2229.263 ms
11  * * *
12  * * *
13  * * *
14  * * *
15  * * *
16  * * *
17  * * *
18  * * *
19  * * *
20  * * *
21  * * *
22  * * *
23  * * *
24  * * *
25  * * *
26  * * *
27  * * *
28  * * *
29  * * *
30  * * *
31  * * *
32  * * *
33  * * *
34  * * *
35  * * *
36  * * *
37  * * *
38  * * *
39  * * *
40  * * *
