traceroute to 93.181.205.58 (93.181.205.58), 40 hops max, 60 byte packets
 1  192.168.1.1 (192.168.1.1)  0.711 ms  0.850 ms  1.037 ms
 2  10.168.64.1 (10.168.64.1)  55.312 ms  55.519 ms  58.479 ms
 3  10.254.246.45 (10.254.246.45)  64.038 ms  64.232 ms  67.141 ms
 4  ss-crs-1-be12-51.msk.stream-internet.net (212.188.1.5)  67.309 ms  67.584 ms  70.471 ms
 5  a197-crs-1-be5.msk.stream-internet.net (195.34.59.106)  70.707 ms  76.442 ms  76.739 ms
 6  212.188.2.54 (212.188.2.54)  76.177 ms  57.990 ms  68.400 ms
 7  Rostelecom-m9.msk.stream-internet.net (212.188.22.70)  71.909 ms  72.370 ms  75.544 ms
 8  95.167.95.158 (95.167.95.158)  75.969 ms 95.167.95.165 (95.167.95.165)  81.551 ms 95.167.95.158 (95.167.95.158)  150.499 ms
 9  customer-AS44237.ae-16.626.m10-cr2-b.msk.ip.rostelecom.ru (188.254.36.130)  82.075 ms  82.520 ms *
10  77.51.255.4 (77.51.255.4)  84.607 ms  96.768 ms  97.461 ms
11  77.51.254.249 (77.51.254.249)  99.886 ms  112.308 ms  111.711 ms
12  77.51.254.126 (77.51.254.126)  54.449 ms  80.389 ms  67.403 ms
13  172.31.184.198 (172.31.184.198)  70.427 ms  71.173 ms  72.098 ms
14  172.31.184.210 (172.31.184.210)  72.787 ms  78.494 ms  75.659 ms
15  * * *
16  * * *
17  * * *
18  * * *
19  * * *
20  * * *
21  * * *
22  * * *
23  * * *
24  * * *
25  * * *
26  * * *
27  * * *
28  * * *
29  * * *
30  * * *
31  * * *
32  * * *
33  * * *
34  * * *
35  * * *
36  * * *
37  * * *
38  * * *
39  * * *
40  * * *
