traceroute to 95.86.247.55 (95.86.247.55), 40 hops max, 60 byte packets
 1  192.168.1.1 (192.168.1.1)  4.410 ms  4.560 ms  4.796 ms
 2  10.168.64.1 (10.168.64.1)  34.104 ms  34.726 ms  34.970 ms
 3  10.254.246.45 (10.254.246.45)  40.816 ms  44.103 ms  44.610 ms
 4  ss-crs-1-be12-51.msk.stream-internet.net (212.188.1.5)  45.096 ms  48.049 ms  48.310 ms
 5  a197-crs-1-be5.msk.stream-internet.net (195.34.59.106)  52.460 ms  56.281 ms  60.006 ms
 6  212.188.2.61 (212.188.2.61)  60.593 ms  21.140 ms  18.260 ms
 7  Rostelecom-m9.msk.stream-internet.net (212.188.22.70)  21.711 ms  25.087 ms  27.879 ms
 8  95.167.95.158 (95.167.95.158)  30.754 ms  33.721 ms 95.167.95.165 (95.167.95.165)  56.465 ms
 9  customer-AS44237.ae-16.626.m10-cr2-b.msk.ip.rostelecom.ru (188.254.36.130)  53.933 ms  55.949 ms  56.662 ms
10  77.51.255.4 (77.51.255.4)  67.813 ms  68.202 ms  68.415 ms
11  JAR-CRS2-MSK-CRS1.ip.center.rt.ru (77.51.253.59)  74.085 ms  74.339 ms  78.007 ms
12  77.51.254.118 (77.51.254.118)  58.242 ms  26.052 ms  27.475 ms
13  172.31.184.249 (172.31.184.249)  32.880 ms  33.023 ms *
14  f515.yartelecom.ru (217.15.135.10)  36.260 ms  37.397 ms  40.648 ms
15  * * *
16  * * *
17  * * *
18  * * *
19  * * *
20  * * *
21  * * *
22  * * *
23  * * *
24  * * *
25  * * *
26  * * *
27  * * *
28  * * *
29  * * *
30  * * *
31  * * *
32  * * *
33  * * *
34  * * *
35  * * *
36  * * *
37  * * *
38  * * *
39  * * *
40  * * *
