traceroute to 91.79.175.61 (91.79.175.61), 40 hops max, 60 byte packets
 1  192.168.1.1 (192.168.1.1)  2.105 ms  2.276 ms  2.854 ms
 2  10.168.64.1 (10.168.64.1)  36.976 ms  37.363 ms  37.777 ms
 3  10.243.31.63 (10.243.31.63)  41.919 ms 91.79.128.1 (91.79.128.1)  42.249 ms 10.114.208.1 (10.114.208.1)  43.637 ms
 4  ppp91-79-175-61.pppoe.mtu-net.ru (91.79.175.61)  47.648 ms  48.272 ms  50.270 ms
