traceroute to 95.30.115.229 (95.30.115.229), 40 hops max, 60 byte packets
 1  192.168.1.1 (192.168.1.1)  0.697 ms  0.920 ms  1.153 ms
 2  10.168.64.1 (10.168.64.1)  19.428 ms  19.600 ms  22.599 ms
 3  10.254.246.45 (10.254.246.45)  28.101 ms  31.365 ms  34.351 ms
 4  ss-crs-1-be12-51.msk.stream-internet.net (212.188.1.5)  37.400 ms  40.291 ms  40.475 ms
 5  m9-crs-1-be9.msk.stream-internet.net (195.34.59.250)  48.284 ms  48.528 ms  48.834 ms
 6  212.188.12.229 (212.188.12.229)  51.630 ms  40.729 ms  42.116 ms
 7  p4.Moscow.gldn.net (79.104.225.73)  71.514 ms  73.719 ms  75.358 ms
 8  cat24.Moscow.gldn.net (79.104.225.22)  77.045 ms * *
 9  * * *
10  * * *
11  * * *
12  * * *
13  * * *
14  * * *
15  * * *
16  * * *
17  * * *
18  * * *
19  * * *
20  * * *
21  * * *
22  * * *
23  * * *
24  * * *
25  * * *
26  * * *
27  * * *
28  * * *
29  * * *
30  * * *
31  * * *
32  * * *
33  * * *
34  * * *
35  * * *
36  * * *
37  * * *
38  * * *
39  * * *
40  * * *
