traceroute to 188.126.61.15 (188.126.61.15), 40 hops max, 60 byte packets
 1  192.168.1.1 (192.168.1.1)  0.712 ms  0.844 ms  1.020 ms
 2  10.168.64.1 (10.168.64.1)  17.479 ms  20.473 ms  23.711 ms
 3  10.254.246.45 (10.254.246.45)  32.101 ms  32.577 ms  35.623 ms
 4  ss-crs-1-be12-51.msk.stream-internet.net (212.188.1.5)  35.946 ms  39.020 ms  42.153 ms
 5  m9-crs-1-be9.msk.stream-internet.net (195.34.59.250)  47.532 ms  47.929 ms  51.301 ms
 6  212.188.42.106 (212.188.42.106)  52.511 ms  54.941 ms  18.923 ms
 7  212.188.23.138 (212.188.23.138)  24.483 ms  27.662 ms  30.602 ms
 8  domolan-gw.fiord.ru (93.191.9.206)  33.650 ms  36.570 ms  39.595 ms
 9  * * *
10  * * *
11  * * *
12  * * *
13  * * *
14  * * *
15  * * *
16  * * *
17  * * *
18  * * *
19  * * *
20  * * *
21  * * *
22  * * *
23  * * *
24  * * *
25  * * *
26  * * *
27  * * *
28  * * *
29  * * *
30  * * *
31  * * *
32  * * *
33  * * *
34  * * *
35  * * *
36  * * *
37  * * *
38  * * *
39  * * *
40  * * *
