traceroute to 31.180.211.201 (31.180.211.201), 40 hops max, 60 byte packets
 1  192.168.1.1 (192.168.1.1)  0.694 ms  0.877 ms  1.058 ms
 2  10.168.64.1 (10.168.64.1)  97.251 ms  100.473 ms  100.824 ms
 3  10.254.246.45 (10.254.246.45)  103.969 ms  107.219 ms  107.711 ms
 4  ss-crs-1-be12-51.msk.stream-internet.net (212.188.1.5)  110.752 ms  111.118 ms  114.996 ms
 5  m9-crs-1-be9.msk.stream-internet.net (195.34.59.250)  115.402 ms  115.768 ms  119.359 ms
 6  195.34.53.185 (195.34.53.185)  118.934 ms  93.463 ms  37.526 ms
 7  Rostelecom-m9.msk.stream-internet.net (212.188.22.70)  38.117 ms  41.517 ms  42.083 ms
 8  95.167.37.178 (95.167.37.178)  63.794 ms  64.473 ms  65.126 ms
 9  94.25.12.79 (94.25.12.79)  68.502 ms  69.123 ms  69.732 ms
10  94.255.29.140 (94.255.29.140)  73.028 ms *  76.891 ms
11  host-94-255-5-17.stv.ru (94.255.5.17)  84.835 ms  86.127 ms host-94-255-5-1.stv.ru (94.255.5.1)  83.526 ms
12  * * *
13  * * *
14  * * *
15  * * *
16  * * *
17  * * *
18  * * *
19  * * *
20  * * *
21  * * *
22  * * *
23  * * *
24  * * *
25  * * *
26  * * *
27  * * *
28  * * *
29  * * *
30  * * *
31  * * *
32  * * *
33  * * *
34  * * *
35  * * *
36  * * *
37  * * *
38  * * *
39  * * *
40  * * *
