traceroute to 178.167.105.61 (178.167.105.61), 40 hops max, 60 byte packets
 1  192.168.1.1 (192.168.1.1)  0.681 ms  0.866 ms  1.026 ms
 2  10.168.64.1 (10.168.64.1)  63.677 ms  65.344 ms  66.807 ms
 3  10.254.246.45 (10.254.246.45)  71.236 ms  74.715 ms  75.446 ms
 4  * ss-crs-1-be12-51.msk.stream-internet.net (212.188.1.5)  78.580 ms  79.285 ms
 5  m9-crs-1-be9.msk.stream-internet.net (195.34.59.250)  83.540 ms  83.942 ms  84.193 ms
 6  m9-cr05-ae0.77.msk.stream-internet.net (212.188.42.58)  84.710 ms *  19.765 ms
 7  m9-cr01-po5-77.msk.stream-internet.net (195.34.53.85)  20.410 ms  23.787 ms  27.323 ms
 8  Filanco-m9.msk.stream-internet.net (195.34.38.134)  27.959 ms  30.788 ms  36.110 ms
 9  89.188.100.6 (89.188.100.6)  39.769 ms  43.137 ms  46.620 ms
10  94.253.0.70 (94.253.0.70)  49.469 ms  52.764 ms  55.649 ms
11  * * *
12  * * *
13  * * *
14  * * *
15  * * *
16  * * *
17  * * *
18  * * *
19  * * *
20  * * *
21  * * *
22  * * *
23  * * *
24  * * *
25  * * *
26  * * *
27  * * *
28  * * *
29  * * *
30  * * *
31  * * *
32  * * *
33  * * *
34  * * *
35  * * *
36  * * *
37  * * *
38  * * *
39  * * *
40  * * *
