traceroute to 178.90.167.218 (178.90.167.218), 40 hops max, 60 byte packets
 1  192.168.1.1 (192.168.1.1)  0.800 ms  0.983 ms  1.164 ms
 2  10.168.64.1 (10.168.64.1)  63.352 ms  65.148 ms  66.812 ms
 3  10.254.246.45 (10.254.246.45)  73.360 ms  73.943 ms  74.592 ms
 4  ss-crs-1-be12-51.msk.stream-internet.net (212.188.1.5)  77.241 ms  77.812 ms  78.469 ms
 5  a197-crs-1-be5.msk.stream-internet.net (195.34.59.106)  82.469 ms  83.073 ms  85.691 ms
 6  212.188.2.54 (212.188.2.54)  83.382 ms  17.009 ms  19.310 ms
 7  Megafon-m9.msk.stream-internet.net (212.188.16.134)  27.876 ms  27.997 ms  36.188 ms
 8  10.222.163.9 (10.222.163.9)  49.463 ms  49.640 ms  63.522 ms
 9  78.25.80.194 (78.25.80.194)  69.545 ms  71.233 ms  74.407 ms
10  akta-agr-1.online.kz (92.47.151.58)  94.350 ms  98.366 ms  101.334 ms
11  92.47.144.161 (92.47.144.161)  102.196 ms  105.774 ms  106.165 ms
12  kost-mx-1.online.kz (95.59.170.71)  112.414 ms  63.290 ms  140.613 ms
13  88.204.216.178 (88.204.216.178)  144.482 ms  145.247 ms *
14  178.90.136.127 (178.90.136.127)  190.772 ms  191.355 ms  192.034 ms
15  178.90.140.1.megaline.telecom.kz (178.90.140.1)  155.961 ms  156.587 ms  159.961 ms
16  * * *
17  * * *
18  * * *
19  * * *
20  * * *
21  * * *
22  * * *
23  * * *
24  * * *
25  * * *
26  * * *
27  * * *
28  * * *
29  * * *
30  * * *
31  * * *
32  * * *
33  * * *
34  * * *
35  * * *
36  * * *
37  * * *
38  * * *
39  * * *
40  * * *
