traceroute to 85.141.141.97 (85.141.141.97), 40 hops max, 60 byte packets
 1  192.168.1.1 (192.168.1.1)  0.680 ms  0.818 ms  1.025 ms
 2  10.168.64.1 (10.168.64.1)  40.333 ms  42.153 ms  43.752 ms
 3  10.254.246.45 (10.254.246.45)  47.200 ms  50.710 ms  50.899 ms
 4  ss-crs-1-be12-51.msk.stream-internet.net (212.188.1.5)  53.391 ms  53.613 ms  57.652 ms
 5  a197-crs-1-be5.msk.stream-internet.net (195.34.59.106)  56.497 ms  60.443 ms  60.630 ms
 6  mpts-a197-53.msk.stream-internet.net (212.188.1.114)  63.402 ms  54.775 ms  33.967 ms
 7  10.240.96.31 (10.240.96.31)  34.614 ms  37.643 ms  40.675 ms
 8  ppp85-141-141-97.pppoe.mtu-net.ru (85.141.141.97)  54.403 ms  59.511 ms  61.557 ms
