traceroute to 95.78.247.26 (95.78.247.26), 40 hops max, 60 byte packets
 1  192.168.1.1 (192.168.1.1)  0.721 ms  0.851 ms  1.030 ms
 2  10.168.64.1 (10.168.64.1)  17.158 ms  20.901 ms  23.725 ms
 3  10.254.246.45 (10.254.246.45)  29.247 ms  32.293 ms  32.509 ms
 4  * ss-crs-1-be12-51.msk.stream-internet.net (212.188.1.5)  35.952 ms  39.197 ms
 5  m9-crs-1-be9.msk.stream-internet.net (195.34.59.250)  42.174 ms  46.586 ms  50.064 ms
 6  m9-cr05-ae0.77.msk.stream-internet.net (212.188.42.58)  49.030 ms  17.753 ms  86.996 ms
 7  Rostelecom-m9.msk.stream-internet.net (212.188.22.70)  90.775 ms  90.955 ms  91.163 ms
 8  46.61.227.202 (46.61.227.202)  94.244 ms  94.866 ms  96.316 ms
 9  91x144x137x206.static-business.oren.ertelecom.ru (91.144.137.206)  141.312 ms *  144.170 ms
10  91x144x137x205.static-business.oren.ertelecom.ru (91.144.137.205)  170.080 ms  170.440 ms  171.007 ms
11  * * *
12  * * *
13  * * *
14  * * *
15  * * *
16  * * *
17  * * *
18  * * *
19  * * *
20  * * *
21  * * *
22  * * *
23  * * *
24  * * *
25  * * *
26  * * *
27  * * *
28  * * *
29  * * *
30  * * *
31  * * *
32  * * *
33  * * *
34  * * *
35  * * *
36  * * *
37  * * *
38  * * *
39  * * *
40  * * *
