traceroute to 91.244.131.34 (91.244.131.34), 40 hops max, 60 byte packets
 1  192.168.1.1 (192.168.1.1)  0.877 ms  1.089 ms  1.256 ms
 2  10.168.64.1 (10.168.64.1)  34.851 ms  35.453 ms  38.819 ms
 3  * 10.254.246.45 (10.254.246.45)  42.723 ms  45.635 ms
 4  ss-crs-1-be12-51.msk.stream-internet.net (212.188.1.5)  46.348 ms  47.012 ms  50.108 ms
 5  m9-crs-1-be9.msk.stream-internet.net (195.34.59.250)  69.131 ms  73.273 ms  73.961 ms
 6  pbd-cr01-be15.kiev.stream-internet.net (212.188.54.202)  72.520 ms  75.656 ms  37.349 ms
 7  212.188.41.154 (212.188.41.154)  40.578 ms  46.445 ms  49.681 ms
 8  * * 212.40.44.82 (212.40.44.82)  88.613 ms
 9  ae20-454.m25.kharkov.datagroup.ua (80.91.160.130)  99.762 ms  110.351 ms  110.873 ms
10  77.222.135.138 (77.222.135.138)  111.442 ms  112.600 ms  117.271 ms
11  * * *
12  lugalink.net (194.79.63.253)  98.741 ms  151.334 ms  130.141 ms
13  91.244.118.65 (91.244.118.65)  130.571 ms  130.978 ms  135.257 ms
14  91.244.118.11 (91.244.118.11)  136.727 ms  137.127 ms  140.269 ms
15  * * *
16  * * *
17  * * *
18  * * *
19  * * *
20  * * *
21  * * *
22  * * *
23  * * *
24  * * *
25  * * *
26  * * *
27  * * *
28  * * *
29  * * *
30  * * *
31  * * *
32  * * *
33  * * *
34  * * *
35  * * *
36  * * *
37  * * *
38  * * *
39  * * *
40  * * *
