traceroute to 109.194.116.107 (109.194.116.107), 40 hops max, 60 byte packets
 1  192.168.1.1 (192.168.1.1)  0.681 ms  0.820 ms  0.998 ms
 2  10.168.64.1 (10.168.64.1)  22.540 ms  22.846 ms  28.991 ms
 3  10.254.246.45 (10.254.246.45)  29.398 ms  32.455 ms  32.706 ms
 4  ss-crs-1-be12-51.msk.stream-internet.net (212.188.1.5)  38.239 ms  38.471 ms  41.456 ms
 5  a197-crs-1-be5.msk.stream-internet.net (195.34.59.106)  48.785 ms  52.672 ms  52.929 ms
 6  212.188.2.54 (212.188.2.54)  55.048 ms  54.420 ms  41.175 ms
 7  Rostelecom-m9.msk.stream-internet.net (212.188.22.70)  25.313 ms  25.458 ms  28.488 ms
 8  46.61.227.202 (46.61.227.202)  28.958 ms  31.924 ms  35.044 ms
 9  lag-2-436.bgw01.omsk.ertelecom.ru (109.194.120.22)  82.055 ms  85.003 ms  88.074 ms
10  lag-2-438.bsr02.omsk.ertelecom.ru (109.194.120.29)  93.760 ms lag-1-436.bsr02.omsk.ertelecom.ru (109.194.120.21)  93.964 ms  96.888 ms
11  109x194x112x102.dynamic.omsk.ertelecom.ru (109.194.112.102)  105.006 ms  128.105 ms  128.741 ms
12  * * *
13  * * *
14  * * *
15  * * *
16  * * *
17  * * *
18  * * *
19  * * *
20  * * *
21  * * *
22  * * *
23  * * *
24  * * *
25  * * *
26  * * *
27  * * *
28  * * *
29  * * *
30  * * *
31  * * *
32  * * *
33  * * *
34  * * *
35  * * *
36  * * *
37  * * *
38  * * *
39  * * *
40  * * *
