traceroute to 95.25.186.22 (95.25.186.22), 40 hops max, 60 byte packets
 1  192.168.1.1 (192.168.1.1)  0.725 ms  0.907 ms  1.086 ms
 2  10.168.64.1 (10.168.64.1)  18.675 ms *  22.544 ms
 3  10.254.246.45 (10.254.246.45)  27.986 ms  28.391 ms  31.357 ms
 4  ss-crs-1-be12-51.msk.stream-internet.net (212.188.1.5)  34.390 ms  37.903 ms  41.412 ms
 5  m9-crs-1-be9.msk.stream-internet.net (195.34.59.250)  42.464 ms  46.278 ms  50.284 ms
 6  m9-bb-teng3-1.msk.corbina.net (195.14.32.29)  52.319 ms  80.827 ms  65.642 ms
 7  m9-crs-be6.corbina.net (195.14.54.78)  74.173 ms  70.801 ms  74.682 ms
 8  rti-bb-be2.corbina.net (195.14.54.53)  74.370 ms  77.631 ms  77.826 ms
 9  mitin-bb-be4.corbina.net (195.14.54.148)  78.339 ms  79.554 ms  80.921 ms
10  10.2.250.216 (10.2.250.216)  82.406 ms  83.892 ms  85.844 ms
11  * * *
12  * * *
13  * * *
14  * * *
15  * * *
16  * * *
17  * * *
18  * * *
19  * * *
20  * * *
21  * * *
22  * * *
23  * * *
24  * * *
25  * * *
26  * * *
27  * * *
28  * * *
29  * * *
30  * * *
31  * * *
32  * * *
33  * * *
34  * * *
35  * * *
36  * * *
37  * * *
38  * * *
39  * * *
40  * * *
