traceroute to 188.232.49.142 (188.232.49.142), 40 hops max, 60 byte packets
 1  192.168.1.1 (192.168.1.1)  0.739 ms  0.846 ms  1.022 ms
 2  10.168.64.1 (10.168.64.1)  17.463 ms  20.506 ms  23.683 ms
 3  * 10.254.246.45 (10.254.246.45)  29.750 ms  32.762 ms
 4  ss-crs-1-be12-51.msk.stream-internet.net (212.188.1.5)  33.255 ms  38.803 ms  40.848 ms
 5  a197-crs-1-be5.msk.stream-internet.net (195.34.59.106)  43.891 ms  47.916 ms  48.327 ms
 6  212.188.2.61 (212.188.2.61)  50.185 ms  31.718 ms  59.573 ms
 7  Rostelecom-m9.msk.stream-internet.net (212.188.22.70)  63.170 ms  63.718 ms  67.059 ms
 8  46.61.227.202 (46.61.227.202)  68.022 ms  68.539 ms  69.851 ms
 9  lag-4-437.bbr01.samara.ertelecom.ru (109.195.24.26)  80.459 ms  81.881 ms  120.808 ms
10  * * *
11  * * *
12  * * *
13  * * *
14  * * *
15  * * *
16  * * *
17  * * *
18  * * *
19  * * *
20  * * *
21  * * *
22  * * *
23  * * *
24  * * *
25  * * *
26  * * *
27  * * *
28  * * *
29  * * *
30  * * *
31  * * *
32  * * *
33  * * *
34  * * *
35  * * *
36  * * *
37  * * *
38  * * *
39  * * *
40  * * *
