traceroute to 5.187.72.239 (5.187.72.239), 40 hops max, 60 byte packets
 1  192.168.1.1 (192.168.1.1)  305.480 ms  305.638 ms  305.815 ms
 2  10.168.64.1 (10.168.64.1)  323.569 ms  326.420 ms  329.322 ms
 3  10.254.246.45 (10.254.246.45)  332.387 ms  335.263 ms  341.544 ms
 4  ss-crs-1-be12-51.msk.stream-internet.net (212.188.1.5)  342.591 ms  348.069 ms  348.251 ms
 5  m9-crs-1-be9.msk.stream-internet.net (195.34.59.250)  351.313 ms *  356.995 ms
 6  212.188.42.106 (212.188.42.106)  369.932 ms  177.110 ms  112.697 ms
 7  212.188.23.138 (212.188.23.138)  116.007 ms  122.004 ms  125.164 ms
 8  kvant-telecom-gw.fiord.ru (80.77.167.6)  131.924 ms  137.028 ms  146.349 ms
 9  * * *
10  * * *
11  * * *
12  * * *
13  * * *
14  * * *
15  * * *
16  * * *
17  * * *
18  * * *
19  * * *
20  * * *
21  * * *
22  * * *
23  * * *
24  * * *
25  * * *
26  * * *
27  * * *
28  * * *
29  * * *
30  * * *
31  * * *
32  * * *
33  * * *
34  * * *
35  * * *
36  * * *
37  * * *
38  * * *
39  * * *
40  * * *
