traceroute to 87.97.235.234 (87.97.235.234), 40 hops max, 60 byte packets
 1  192.168.1.1 (192.168.1.1)  0.765 ms  1.763 ms  1.941 ms
 2  10.168.64.1 (10.168.64.1)  66.613 ms  67.892 ms  69.606 ms
 3  10.254.246.45 (10.254.246.45)  72.840 ms  76.861 ms  77.334 ms
 4  ss-crs-1-be12-51.msk.stream-internet.net (212.188.1.5)  77.792 ms  80.638 ms  81.103 ms
 5  m9-crs-1-be9.msk.stream-internet.net (195.34.59.250)  122.717 ms  124.377 ms  124.899 ms
 6  195.34.53.17 (195.34.53.17)  125.967 ms  136.032 ms  76.887 ms
 7  bor-cr02-ae4.78.spb.stream-internet.net (212.188.42.90)  47.756 ms *  51.360 ms
 8  tct-cr02-xe-0-1-0.100.ams.stream-internet.net (212.188.42.22)  85.611 ms kivi-cr01-xe-1-0-0.135.hel.stream-internet.net (212.188.29.58)  82.375 ms  85.443 ms
 9  amsix.as6663.net (195.69.144.121)  112.762 ms tct-cr02-xe-0-3-0.131.ams.stream-internet.net (212.188.42.26)  91.026 ms amsix.as6663.net (195.69.144.121)  116.383 ms
10  amsix.as6663.net (195.69.144.121)  117.237 ms 31.210.12.233 (31.210.12.233)  125.758 ms amsix.as6663.net (195.69.144.121)  120.443 ms
11  31.210.12.234 (31.210.12.234)  135.246 ms  135.419 ms 31.210.12.233 (31.210.12.233)  131.960 ms
12  31.210.12.234 (31.210.12.234)  149.069 ms  145.601 ms rtr-bg.sdngroup.com (217.9.226.114)  136.032 ms
13  rtr-bg.sdngroup.com (217.9.226.114)  139.089 ms p1.pl.Evrocom.Net (217.10.240.161)  139.282 ms rtr-bg.sdngroup.com (217.9.226.114)  141.356 ms
14  p1.pl.Evrocom.Net (217.10.240.161)  144.298 ms  144.467 ms  147.500 ms
15  * * *
16  * * *
17  * * *
18  * * *
19  * * *
20  * * *
21  * * *
22  * * *
23  * * *
24  * * *
25  * * *
26  * * *
27  * * *
28  * * *
29  * * *
30  * * *
31  * * *
32  * * *
33  * * *
34  * * *
35  * * *
36  * * *
37  * * *
38  * * *
39  * * *
40  * * *
