traceroute to 176.215.248.72 (176.215.248.72), 40 hops max, 60 byte packets
 1  192.168.1.1 (192.168.1.1)  0.852 ms  1.021 ms  1.257 ms
 2  10.168.64.1 (10.168.64.1)  19.730 ms  20.010 ms  22.964 ms
 3  10.254.246.45 (10.254.246.45)  31.028 ms  31.285 ms  34.378 ms
 4  ss-crs-1-be12-51.msk.stream-internet.net (212.188.1.5)  37.536 ms  40.617 ms  42.869 ms
 5  m9-crs-1-be9.msk.stream-internet.net (195.34.59.250)  44.045 ms  48.151 ms  52.189 ms
 6  m9-cr05-ae0.77.msk.stream-internet.net (212.188.42.58)  51.843 ms  37.145 ms  61.449 ms
 7  TTK-m9.msk.stream-internet.net (195.34.36.46)  76.496 ms  77.005 ms  77.413 ms
 8  ER-Telecom-gw.transtelecom.net (188.43.4.105)  139.345 ms  139.911 ms  142.966 ms
 9  ER-Telecom-gw.transtelecom.net (188.43.4.105)  143.167 ms  147.137 ms  146.906 ms
10  * * *
11  * * *
12  * * *
13  * * *
14  * * *
15  * * *
16  * * *
17  * * *
18  * * *
19  * * *
20  * * *
21  * * *
22  * * *
23  * * *
24  * * *
25  * * *
26  * * *
27  * * *
28  * * *
29  * * *
30  * * *
31  * * *
32  * * *
33  * * *
34  * * *
35  * * *
36  * * *
37  * * *
38  * * *
39  * * *
40  * * *
