traceroute to 79.105.232.212 (79.105.232.212), 40 hops max, 60 byte packets
 1  192.168.1.1 (192.168.1.1)  0.682 ms  0.907 ms  1.090 ms
 2  10.168.64.1 (10.168.64.1)  52.736 ms  53.993 ms  55.928 ms
 3  10.254.246.45 (10.254.246.45)  65.254 ms  65.888 ms  66.538 ms
 4  * * ss-crs-1-be12-51.msk.stream-internet.net (212.188.1.5)  67.871 ms
 5  a197-crs-1-be5.msk.stream-internet.net (195.34.59.106)  73.763 ms  74.385 ms  76.067 ms
 6  212.188.2.54 (212.188.2.54)  75.089 ms  61.213 ms  19.477 ms
 7  Rostelecom-m9.msk.stream-internet.net (212.188.22.70)  22.811 ms  23.569 ms  26.864 ms
 8  95.167.91.155 (95.167.91.155)  135.959 ms  132.674 ms  145.909 ms
 9  94.25.61.121 (94.25.61.121)  165.950 ms  159.484 ms  165.354 ms
10  * * *
11  * * *
12  * * *
13  * * *
14  * * *
15  * * *
16  * * *
17  * * *
18  * * *
19  * * *
20  * * *
21  * * *
22  * * *
23  * * *
24  * * *
25  * * *
26  * * *
27  * * *
28  * * *
29  * * *
30  * * *
31  * * *
32  * * *
33  * * *
34  * * *
35  * * *
36  * * *
37  * * *
38  * * *
39  * * *
40  * * *
