traceroute to 92.46.3.209 (92.46.3.209), 40 hops max, 60 byte packets
 1  192.168.1.1 (192.168.1.1)  0.684 ms  0.864 ms  1.046 ms
 2  10.168.64.1 (10.168.64.1)  17.481 ms  23.371 ms  23.958 ms
 3  10.254.246.45 (10.254.246.45)  28.296 ms  31.524 ms  34.848 ms
 4  ss-crs-1-be12-51.msk.stream-internet.net (212.188.1.5)  35.275 ms  41.221 ms  44.653 ms
 5  m9-crs-1-be9.msk.stream-internet.net (195.34.59.250)  83.206 ms  87.092 ms  91.192 ms
 6  195.34.53.17 (195.34.53.17)  95.782 ms  127.495 ms  139.319 ms
 7  anc-cr01-be3.ff.stream-internet.net (195.34.53.102)  132.199 ms  138.761 ms  139.767 ms
 8  frt01.transtelecom.net (80.81.194.117)  140.244 ms  144.021 ms  149.798 ms
 9  217.150.44.14 (217.150.44.14)  177.326 ms  173.915 ms  177.967 ms
10  217.150.44.13 (217.150.44.13)  217.086 ms  220.929 ms  225.916 ms
11  alma-core-l2-1.online.kz (92.47.151.153)  235.836 ms * *
12  95.59.170.133 (95.59.170.133)  134.879 ms 95.59.170.135 (95.59.170.135)  132.522 ms 95.59.170.133 (95.59.170.133)  149.434 ms
13  82.200.244.255 (82.200.244.255)  142.531 ms  143.371 ms 82.200.240.253 (82.200.240.253)  146.328 ms
14  82.200.244.211 (82.200.244.211)  149.756 ms 88.204.136.98 (88.204.136.98)  152.898 ms 82.200.244.211 (82.200.244.211)  150.418 ms
15  * * *
16  * * *
17  * * *
18  * * *
19  * * *
20  * * *
21  * * *
22  * * *
23  * * *
24  * * *
25  * * *
26  * * *
27  * * *
28  * * *
29  * * *
30  * * *
31  * * *
32  * * *
33  * * *
34  * * *
35  * * *
36  * * *
37  * * *
38  * * *
39  * * *
40  * * *
