traceroute to 79.176.106.46 (79.176.106.46), 40 hops max, 60 byte packets
 1  192.168.1.1 (192.168.1.1)  0.672 ms  0.816 ms  1.171 ms
 2  10.168.64.1 (10.168.64.1)  76.252 ms  78.149 ms  79.621 ms
 3  10.254.246.45 (10.254.246.45)  86.486 ms  86.964 ms  87.401 ms
 4  ss-crs-1-be12-51.msk.stream-internet.net (212.188.1.5)  89.461 ms  90.033 ms  93.598 ms
 5  a197-crs-1-be5.msk.stream-internet.net (195.34.59.106)  118.387 ms  118.869 ms  122.418 ms
 6  212.188.2.37 (212.188.2.37)  121.669 ms  66.535 ms  62.529 ms
 7  212.188.2.93 (212.188.2.93)  63.416 ms  66.629 ms  67.167 ms
 8  s-ljh-i1-link.telia.net (213.248.72.237)  70.470 ms  70.928 ms  71.758 ms
 9  s-b2-link.telia.net (80.91.252.182)  73.184 ms  74.725 ms  76.627 ms
10  s-bb2-link.telia.net (213.155.133.142)  78.216 ms s-bb3-link.telia.net (80.91.246.148)  80.957 ms s-bb2-link.telia.net (213.155.133.136)  81.684 ms
11  ffm-bb2-link.telia.net (80.91.248.57)  123.824 ms  124.306 ms ffm-bb1-link.telia.net (80.91.248.53)  105.631 ms
12  ffm-b2-link.telia.net (80.91.252.168)  86.982 ms ffm-b2-link.telia.net (80.91.246.225)  66.298 ms ffm-b2-link.telia.net (80.91.252.168)  170.958 ms
13  bezeq-ic-151311-ffm-b2.c.telia.net (80.239.128.150)  171.356 ms  175.366 ms  177.522 ms
14  bzq-219-189-129.cablep.bezeqint.net (62.219.189.129)  227.831 ms bzq-219-189-125.cablep.bezeqint.net (62.219.189.125)  228.424 ms bzq-179-161-218.static.bezeqint.net (212.179.161.218)  234.333 ms
15  bzq-179-124-129.static.bezeqint.net (212.179.124.129)  263.283 ms bzq-219-189-250.cablep.bezeqint.net (62.219.189.250)  231.256 ms bzq-219-189-202.cablep.bezeqint.net (62.219.189.202)  237.987 ms
16  * * *
17  * bzq-218-227-45.red.bezeqint.net (81.218.227.45)  238.218 ms  161.328 ms
18  * bzq-179-160-182.static.bezeqint.net (212.179.160.182)  111.646 ms bzq-219-189-250.cablep.bezeqint.net (62.219.189.250)  139.818 ms
19  * * bzq-218-227-45.red.bezeqint.net (81.218.227.45)  124.373 ms
20  bzq-218-227-45.red.bezeqint.net (81.218.227.45)  158.581 ms * *
21  * * *
22  * * *
23  * * *
24  * * *
25  * * *
26  * * *
27  * * *
28  * * *
29  * * *
30  * * *
31  * * *
32  * * *
33  * * *
34  * * *
35  * * *
36  * * *
37  * * *
38  * * *
39  * * *
40  * * *
