traceroute to 37.112.9.107 (37.112.9.107), 40 hops max, 60 byte packets
 1  192.168.1.1 (192.168.1.1)  0.685 ms  0.822 ms  1.000 ms
 2  10.168.64.1 (10.168.64.1)  24.474 ms  27.753 ms  28.272 ms
 3  10.254.246.45 (10.254.246.45)  31.556 ms  34.946 ms  35.468 ms
 4  ss-crs-1-be12-51.msk.stream-internet.net (212.188.1.5)  41.249 ms  41.916 ms  45.070 ms
 5  a197-crs-1-be5.msk.stream-internet.net (195.34.59.106)  46.690 ms  50.825 ms  54.378 ms
 6  212.188.2.61 (212.188.2.61)  55.130 ms  17.425 ms  203.575 ms
 7  Rostelecom-m9.msk.stream-internet.net (212.188.22.70)  207.526 ms  208.218 ms  208.781 ms
 8  46.61.227.202 (46.61.227.202)  211.721 ms  212.057 ms  213.541 ms
 9  lag-0-435.bbr01.perm.ertelecom.ru (212.33.233.105)  232.058 ms  234.216 ms  235.472 ms
10  lag-9-435.bsr01.perm.ertelecom.ru (212.33.233.104)  253.450 ms *  243.062 ms
11  * * *
12  * * *
13  * * *
14  * * *
15  * * *
16  * * *
17  * * *
18  * * *
19  * * *
20  * * *
21  * * *
22  * * *
23  * * *
24  * * *
25  * * *
26  * * *
27  * * *
28  * * *
29  * * *
30  * * *
31  * * *
32  * * *
33  * * *
34  * * *
35  * * *
36  * * *
37  * * *
38  * * *
39  * * *
40  * * *
