traceroute to 46.147.58.150 (46.147.58.150), 40 hops max, 60 byte packets
 1  192.168.1.1 (192.168.1.1)  0.677 ms  0.818 ms  0.998 ms
 2  10.168.64.1 (10.168.64.1)  48.264 ms  49.847 ms  51.529 ms
 3  10.254.246.45 (10.254.246.45)  54.516 ms  58.738 ms  59.033 ms
 4  ss-crs-1-be12-51.msk.stream-internet.net (212.188.1.5)  61.353 ms  61.638 ms  65.366 ms
 5  a197-crs-1-be5.msk.stream-internet.net (195.34.59.106)  69.873 ms  70.168 ms  70.464 ms
 6  212.188.2.54 (212.188.2.54)  70.759 ms  114.256 ms  31.709 ms
 7  Rostelecom-m9.msk.stream-internet.net (212.188.22.70)  32.170 ms  35.099 ms  35.268 ms
 8  46.61.227.202 (46.61.227.202)  38.197 ms  41.209 ms  41.387 ms
 9  lag-0-435.bbr01.perm.ertelecom.ru (212.33.233.105)  58.893 ms  60.196 ms  61.933 ms
10  lag-9-435.bsr01.perm.ertelecom.ru (212.33.233.104)  13153.766 ms * *
11  net234-107.perm.ertelecom.ru (212.33.234.107)  76.932 ms  86.504 ms  87.175 ms
12  * * *
13  * * *
14  * * *
15  * * *
16  * * *
17  * * *
18  * * *
19  * * *
20  * * *
21  * * *
22  * * *
23  * * *
24  * * *
25  * * *
26  * * *
27  * * *
28  * * *
29  * * *
30  * * *
31  * * *
32  * * *
33  * * *
34  * * *
35  * * *
36  * * *
37  * * *
38  * * *
39  * * *
40  * * *
