traceroute to 95.37.119.215 (95.37.119.215), 40 hops max, 60 byte packets
 1  192.168.1.1 (192.168.1.1)  0.700 ms  1.129 ms  1.314 ms
 2  10.168.64.1 (10.168.64.1)  17.557 ms  23.718 ms  24.431 ms
 3  10.254.246.45 (10.254.246.45)  29.972 ms  30.498 ms  33.653 ms
 4  ss-crs-1-be12-51.msk.stream-internet.net (212.188.1.5)  36.847 ms  48.712 ms  50.457 ms
 5  * * *
 6  Rostelecom-m10.msk.stream-internet.net (212.188.41.58)  59.747 ms  17.755 ms  51.855 ms
 7  95.167.91.83 (95.167.91.83)  63.099 ms  63.106 ms  66.294 ms
 8  188.254.78.10 (188.254.78.10)  66.526 ms  69.339 ms  69.479 ms
 9  ae0.nnov.dr2.vt.ru (79.126.126.5)  71.379 ms  73.042 ms  74.809 ms
10  79.126.125.14 (79.126.125.14)  77.713 ms  78.648 ms  80.427 ms
11  95-37-119-215.dynamic.mts-nn.ru (95.37.119.215)  97.208 ms  99.732 ms  100.405 ms
