traceroute to 95.221.26.135 (95.221.26.135), 40 hops max, 60 byte packets
 1  192.168.1.1 (192.168.1.1)  0.747 ms  0.901 ms  1.095 ms
 2  10.168.64.1 (10.168.64.1)  48.768 ms  49.217 ms  52.469 ms
 3  10.254.246.45 (10.254.246.45)  55.767 ms  56.304 ms  60.176 ms
 4  ss-crs-1-be12-51.msk.stream-internet.net (212.188.1.5)  59.608 ms  63.599 ms  64.143 ms
 5  a197-crs-1-be5.msk.stream-internet.net (195.34.59.106)  67.449 ms  68.009 ms *
 6  * 212.188.2.61 (212.188.2.61)  35.445 ms  58.813 ms
 7  Megafon-m9.msk.stream-internet.net (212.188.16.134)  57.041 ms  57.600 ms  60.723 ms
 8  85.26.162.65 (85.26.162.65)  58.224 ms  59.339 ms  60.020 ms
 9  212.1.253.58 (212.1.253.58)  64.222 ms  64.537 ms 212.1.253.50 (212.1.253.50)  64.977 ms
10  212.1.252.194 (212.1.252.194)  68.191 ms  68.627 ms  71.810 ms
11  * * *
12  * * *
13  * * *
14  * * *
15  * * *
16  * * *
17  * * *
18  * * *
19  * * *
20  * * *
21  * * *
22  * * *
23  * * *
24  * * *
25  * * *
26  * * *
27  * * *
28  * * *
29  * * *
30  * * *
31  * * *
32  * * *
33  * * *
34  * * *
35  * * *
36  * * *
37  * * *
38  * * *
39  * * *
40  * * *
