traceroute to 109.184.46.82 (109.184.46.82), 40 hops max, 60 byte packets
 1  192.168.1.1 (192.168.1.1)  0.695 ms  0.836 ms  1.014 ms
 2  10.168.64.1 (10.168.64.1)  19.643 ms  19.869 ms  22.822 ms
 3  10.254.246.45 (10.254.246.45)  28.200 ms  31.978 ms  32.211 ms
 4  ss-crs-1-be12-51.msk.stream-internet.net (212.188.1.5)  36.951 ms  38.294 ms  42.646 ms
 5  * * *
 6  * Rostelecom-m10.msk.stream-internet.net (212.188.41.58)  63.318 ms  58.038 ms
 7  95.167.91.83 (95.167.91.83)  69.929 ms  73.038 ms  76.320 ms
 8  188.254.78.10 (188.254.78.10)  87.010 ms  87.434 ms  87.748 ms
 9  ae0.nnov.dr2.vt.ru (79.126.126.5)  87.987 ms  91.001 ms  97.006 ms
10  79.126.125.14 (79.126.125.14)  97.334 ms  100.909 ms  106.419 ms
11  * * *
12  * * *
13  * * *
14  * * *
15  * * *
16  * * *
17  * * *
18  * * *
19  * * *
20  * * *
21  * * *
22  * * *
23  * * *
24  * * *
25  * * *
26  * * *
27  * * *
28  * * *
29  * * *
30  * * *
31  * * *
32  * * *
33  * * *
34  * * *
35  * * *
36  * * *
37  * * *
38  * * *
39  * * *
40  * * *
