traceroute to 178.18.100.108 (178.18.100.108), 40 hops max, 60 byte packets
 1  192.168.1.1 (192.168.1.1)  0.716 ms  0.861 ms  1.039 ms
 2  10.168.64.1 (10.168.64.1)  54.642 ms  56.312 ms  58.454 ms
 3  10.254.246.45 (10.254.246.45)  61.615 ms  65.187 ms  65.354 ms
 4  ss-crs-1-be12-51.msk.stream-internet.net (212.188.1.5)  66.124 ms *  70.502 ms
 5  m9-crs-1-be9.msk.stream-internet.net (195.34.59.250)  73.261 ms  73.681 ms  77.395 ms
 6  195.34.53.185 (195.34.53.185)  75.398 ms  31.889 ms  62.799 ms
 7  Megafon-m9.msk.stream-internet.net (212.188.16.134)  66.254 ms  74.848 ms  75.344 ms
 8  * * *
 9  * * *
10  * * *
11  * * *
12  * * *
13  * * *
14  * * *
15  * * *
16  * * *
17  * * *
18  * * *
19  * * *
20  * * *
21  * * *
22  * * *
23  * * *
24  * * *
25  * * *
26  * * *
27  * * *
28  * * *
29  * * *
30  * * *
31  * * *
32  * * *
33  * * *
34  * * *
35  * * *
36  * * *
37  * * *
38  * * *
39  * * *
40  * * *
