traceroute to 109.195.103.144 (109.195.103.144), 40 hops max, 60 byte packets
 1  192.168.1.1 (192.168.1.1)  0.762 ms  0.895 ms  1.070 ms
 2  10.168.64.1 (10.168.64.1)  38.396 ms  38.804 ms  40.160 ms
 3  10.254.246.45 (10.254.246.45)  43.814 ms  47.408 ms  47.816 ms
 4  ss-crs-1-be12-51.msk.stream-internet.net (212.188.1.5)  49.935 ms  50.320 ms  53.901 ms
 5  m9-crs-1-be9.msk.stream-internet.net (195.34.59.250)  56.753 ms  57.208 ms  57.613 ms
 6  m9-cr05-ae0.77.msk.stream-internet.net (212.188.42.58)  58.018 ms  33.199 ms  52.628 ms
 7  Rostelecom-m9.msk.stream-internet.net (212.188.22.70)  56.315 ms  56.813 ms  60.099 ms
 8  46.61.227.202 (46.61.227.202)  60.718 ms  61.241 ms  62.659 ms
 9  lag-2-436.bgw01.ekat.ertelecom.ru (109.195.104.22)  111.417 ms  113.868 ms  115.305 ms
10  lag-1-436.bsr02.ekat.ertelecom.ru (109.195.104.21)  117.770 ms lag-3-448.bsr02.ekat.ertelecom.ru (109.195.104.29)  122.698 ms lag-1-436.bsr02.ekat.ertelecom.ru (109.195.104.21)  121.424 ms
11  net96.195.109-110.ekat.ertelecom.ru (109.195.96.110)  124.669 ms  125.214 ms  126.085 ms
12  * * *
13  * * *
14  * * *
15  * * *
16  * * *
17  * * *
18  * * *
19  * * *
20  * * *
21  * * *
22  * * *
23  * * *
24  * * *
25  * * *
26  * * *
27  * * *
28  * * *
29  * * *
30  * * *
31  * * *
32  * * *
33  * * *
34  * * *
35  * * *
36  * * *
37  * * *
38  * * *
39  * * *
40  * * *
