traceroute to 79.105.232.185 (79.105.232.185), 40 hops max, 60 byte packets
 1  192.168.1.1 (192.168.1.1)  0.677 ms  0.818 ms  0.995 ms
 2  10.168.64.1 (10.168.64.1)  36.421 ms  37.046 ms  38.011 ms
 3  10.254.246.45 (10.254.246.45)  41.403 ms  45.017 ms  45.724 ms
 4  ss-crs-1-be12-51.msk.stream-internet.net (212.188.1.5)  48.563 ms  49.207 ms  51.827 ms
 5  m9-crs-1-be9.msk.stream-internet.net (195.34.59.250)  52.609 ms  56.189 ms  56.628 ms
 6  195.34.53.185 (195.34.53.185)  54.706 ms  72.334 ms  41.838 ms
 7  Rostelecom-m9.msk.stream-internet.net (212.188.22.70)  42.448 ms  45.797 ms  46.491 ms
 8  95.167.91.155 (95.167.91.155)  146.021 ms  149.839 ms  150.634 ms
 9  94.25.61.121 (94.25.61.121)  171.396 ms  176.787 ms  178.657 ms
10  blag-co0-1-rtr11.wan.amur.ru (85.88.160.49)  190.546 ms  197.349 ms  201.541 ms
11  blag-co0-1-rtr11.wan.amur.ru (85.88.160.49)  211.617 ms  210.118 ms  216.986 ms
12  blag-co0-1-rtr11.wan.amur.ru (85.88.160.49)  190.362 ms  212.805 ms  218.630 ms
13  blag-co0-1-rtr11.wan.amur.ru (85.88.160.49)  227.281 ms  274.813 ms  177.428 ms
14  blag-co0-1-rtr11.wan.amur.ru (85.88.160.49)  190.252 ms  193.811 ms  194.795 ms
15  blag-co0-1-rtr11.wan.amur.ru (85.88.160.49)  212.189 ms  218.941 ms  217.260 ms
16  blag-co0-1-rtr11.wan.amur.ru (85.88.160.49)  226.625 ms  228.775 ms  231.288 ms
17  blag-co0-1-rtr11.wan.amur.ru (85.88.160.49)  247.754 ms  249.686 ms  257.620 ms
18  blag-co0-1-rtr11.wan.amur.ru (85.88.160.49)  272.891 ms  273.722 ms  273.252 ms
19  blag-co0-1-rtr11.wan.amur.ru (85.88.160.49)  263.780 ms  273.021 ms  278.353 ms
20  blag-co0-1-rtr11.wan.amur.ru (85.88.160.49)  291.278 ms  299.922 ms  301.123 ms
21  blag-co0-1-rtr11.wan.amur.ru (85.88.160.49)  305.070 ms  307.072 ms  308.556 ms
22  blag-co0-1-rtr11.wan.amur.ru (85.88.160.49)  328.157 ms  321.920 ms  327.580 ms
23  blag-co0-1-rtr11.wan.amur.ru (85.88.160.49)  340.164 ms  333.115 ms  335.311 ms
24  blag-co0-1-rtr11.wan.amur.ru (85.88.160.49)  338.537 ms  339.638 ms  341.983 ms
25  blag-co0-1-rtr11.wan.amur.ru (85.88.160.49)  332.755 ms  311.767 ms  368.405 ms
26  blag-co0-1-rtr11.wan.amur.ru (85.88.160.49)  379.541 ms * *
27  * blag-co0-1-rtr11.wan.amur.ru (85.88.160.49)  398.967 ms  400.983 ms
28  blag-co0-1-rtr11.wan.amur.ru (85.88.160.49)  413.331 ms  412.859 ms  347.238 ms
29  blag-co0-1-rtr11.wan.amur.ru (85.88.160.49)  354.341 ms  360.413 ms  363.633 ms
30  blag-co0-1-rtr11.wan.amur.ru (85.88.160.49)  376.342 ms  377.102 ms  372.754 ms
31  * blag-co0-1-rtr11.wan.amur.ru (85.88.160.49)  360.724 ms  367.415 ms
32  blag-co0-1-rtr11.wan.amur.ru (85.88.160.49)  382.593 ms  379.121 ms  386.980 ms
33  blag-co0-1-rtr11.wan.amur.ru (85.88.160.49)  384.398 ms  380.980 ms  421.462 ms
34  blag-co0-1-rtr11.wan.amur.ru (85.88.160.49)  429.948 ms  414.621 ms  416.453 ms
35  blag-co0-1-rtr11.wan.amur.ru (85.88.160.49)  475.362 ms *  421.385 ms
36  blag-co0-1-rtr11.wan.amur.ru (85.88.160.49)  414.822 ms  419.936 ms  427.713 ms
37  blag-co0-1-rtr11.wan.amur.ru (85.88.160.49)  454.005 ms  447.166 ms  461.988 ms
38  blag-co0-1-rtr11.wan.amur.ru (85.88.160.49)  464.829 ms  464.800 ms  461.572 ms
39  blag-co0-1-rtr11.wan.amur.ru (85.88.160.49)  499.614 ms  447.567 ms  446.627 ms
40  * blag-co0-1-rtr11.wan.amur.ru (85.88.160.49)  475.871 ms  466.823 ms
