traceroute to 109.194.45.142 (109.194.45.142), 40 hops max, 60 byte packets
 1  192.168.1.1 (192.168.1.1)  0.700 ms  0.841 ms  1.008 ms
 2  10.168.64.1 (10.168.64.1)  35.280 ms  38.291 ms  38.497 ms
 3  10.254.246.45 (10.254.246.45)  44.571 ms  44.775 ms  47.950 ms
 4  ss-crs-1-be12-51.msk.stream-internet.net (212.188.1.5)  46.434 ms  50.376 ms  50.606 ms
 5  m9-crs-1-be9.msk.stream-internet.net (195.34.59.250)  54.115 ms  54.431 ms  58.041 ms
 6  m9-cr05-ae0.77.msk.stream-internet.net (212.188.42.58)  56.010 ms  84.661 ms  63.521 ms
 7  Rostelecom-m9.msk.stream-internet.net (212.188.22.70)  63.982 ms  67.067 ms  67.412 ms
 8  46.61.227.202 (46.61.227.202)  70.735 ms  71.376 ms  71.786 ms
 9  lag-2-436.bgw01.tomsk.ertelecom.ru (109.194.40.22)  134.792 ms  137.977 ms  138.375 ms
10  lag-0-436.bsr02.tomsk.ertelecom.ru (109.194.40.21)  142.292 ms  142.702 ms  143.218 ms
11  dynamicip-109-194-32-110.pppoe.tomsk.ertelecom.ru (109.194.32.110)  146.431 ms  147.016 ms *
12  * * *
13  * * *
14  * * *
15  * * *
16  * * *
17  * * *
18  * * *
19  * * *
20  * * *
21  * * *
22  * * *
23  * * *
24  * * *
25  * * *
26  * * *
27  * * *
28  * * *
29  * * *
30  * * *
31  * * *
32  * * *
33  * * *
34  * * *
35  * * *
36  * * *
37  * * *
38  * * *
39  * * *
40  * * *
