traceroute to 89.235.224.143 (89.235.224.143), 40 hops max, 60 byte packets
 1  192.168.1.1 (192.168.1.1)  0.759 ms  0.906 ms  1.083 ms
 2  10.168.64.1 (10.168.64.1)  43.365 ms  43.493 ms  44.929 ms
 3  10.254.246.45 (10.254.246.45)  48.722 ms  52.600 ms  52.768 ms
 4  ss-crs-1-be12-51.msk.stream-internet.net (212.188.1.5)  54.710 ms  55.288 ms  58.781 ms
 5  a197-crs-1-be5.msk.stream-internet.net (195.34.59.106)  85.278 ms  85.583 ms  88.475 ms
 6  212.188.2.37 (212.188.2.37)  86.462 ms  129.451 ms *
 7  * * 212.188.2.93 (212.188.2.93)  72.599 ms
 8  netnod-ix-ge-b-sth-1500.linxtelecom.net (194.68.128.164)  76.238 ms netnod-ix-ge-a-sth-1500.linxtelecom.net (194.68.123.164)  76.862 ms  77.428 ms
 9  r9-ae5-0-Tln-TIX-EE.linxtelecom.net (212.47.201.121)  86.557 ms  89.266 ms  89.949 ms
10  212.47.216.7 (212.47.216.7)  93.392 ms  94.111 ms  94.825 ms
11  k18-29-28.infonet.ee (212.7.29.28)  98.176 ms  98.846 ms  99.564 ms
12  * * *
13  * * *
14  * * *
15  * * *
16  * * *
17  * * *
18  * * *
19  * * *
20  * * *
21  * * *
22  * * *
23  * * *
24  * * *
25  * * *
26  * * *
27  * * *
28  * * *
29  * * *
30  * * *
31  * * *
32  * * *
33  * * *
34  * * *
35  * * *
36  * * *
37  * * *
38  * * *
39  * * *
40  * * *
