traceroute to 79.105.233.19 (79.105.233.19), 40 hops max, 60 byte packets
 1  192.168.1.1 (192.168.1.1)  0.671 ms  0.809 ms  1.065 ms
 2  10.168.64.1 (10.168.64.1)  70.600 ms  71.053 ms  71.399 ms
 3  10.254.246.45 (10.254.246.45)  77.668 ms  84.489 ms  85.121 ms
 4  ss-crs-1-be12-51.msk.stream-internet.net (212.188.1.5)  81.012 ms *  85.737 ms
 5  a197-crs-1-be5.msk.stream-internet.net (195.34.59.106)  86.528 ms  89.916 ms  90.549 ms
 6  212.188.2.61 (212.188.2.61)  90.891 ms  59.866 ms  80.509 ms
 7  Rostelecom-m9.msk.stream-internet.net (212.188.22.70)  95.860 ms  83.235 ms  86.664 ms
 8  95.167.91.155 (95.167.91.155)  189.319 ms  190.692 ms  188.905 ms
 9  94.25.61.121 (94.25.61.121)  215.234 ms  212.540 ms  214.075 ms
10  * * *
11  * * *
12  * * *
13  * * *
14  * * *
15  * * *
16  * * *
17  * * *
18  * * *
19  * * *
20  * * *
21  * * *
22  * * *
23  * * *
24  * * *
25  * * *
26  * * *
27  * * *
28  * * *
29  * * *
30  * * *
31  * * *
32  * * *
33  * * *
34  * * *
35  * * *
36  * * *
37  * * *
38  * * *
39  * * *
40  * * *
