traceroute to 92.47.205.91 (92.47.205.91), 40 hops max, 60 byte packets
 1  192.168.1.1 (192.168.1.1)  0.777 ms  0.920 ms  1.097 ms
 2  10.168.64.1 (10.168.64.1)  115.647 ms  117.504 ms  119.138 ms
 3  10.254.246.45 (10.254.246.45)  125.347 ms  125.698 ms *
 4  * ss-crs-1-be12-51.msk.stream-internet.net (212.188.1.5)  128.216 ms *
 5  * * *
 6  * 195.34.53.17 (195.34.53.17)  106.001 ms  61.590 ms
 7  anc-cr01-be3.ff.stream-internet.net (195.34.53.102)  57.164 ms  59.933 ms  61.903 ms
 8  frt01.transtelecom.net (80.81.194.117)  66.460 ms  68.573 ms  70.719 ms
 9  217.150.44.14 (217.150.44.14)  140.748 ms  140.345 ms  141.089 ms
10  217.150.44.13 (217.150.44.13)  155.757 ms  161.151 ms *
11  alma-core-l2-6.online.kz (92.47.151.157)  164.992 ms alma-core-l2-1.online.kz (92.47.151.153)  171.506 ms alma-core-l2-6.online.kz (92.47.151.157)  151.451 ms
12  95.59.170.133 (95.59.170.133)  128.094 ms 95.59.170.135 (95.59.170.135)  154.090 ms 95.59.170.139 (95.59.170.139)  131.322 ms
13  82.200.244.255 (82.200.244.255)  135.820 ms 82.200.240.253 (82.200.240.253)  141.108 ms 82.200.244.255 (82.200.244.255)  143.285 ms
14  82.200.244.211 (82.200.244.211)  143.934 ms 88.204.136.98 (88.204.136.98)  151.348 ms 82.200.244.211 (82.200.244.211)  150.921 ms
15  92.47.205.91.megaline.telecom.kz (92.47.205.91)  158.073 ms  162.649 ms  163.075 ms
