traceroute to 46.72.24.53 (46.72.24.53), 40 hops max, 60 byte packets
 1  192.168.1.1 (192.168.1.1)  0.728 ms  0.864 ms  1.080 ms
 2  10.168.64.1 (10.168.64.1)  50.223 ms  51.884 ms  53.389 ms
 3  10.254.246.45 (10.254.246.45)  59.278 ms  60.151 ms  62.698 ms
 4  ss-crs-1-be12-51.msk.stream-internet.net (212.188.1.5)  63.334 ms  63.436 ms  66.530 ms
 5  a197-crs-1-be5.msk.stream-internet.net (195.34.59.106)  69.571 ms  69.742 ms  70.223 ms
 6  212.188.2.61 (212.188.2.61)  70.657 ms  102.670 ms  185.373 ms
 7  Megafon-m9.msk.stream-internet.net (212.188.16.134)  190.833 ms  194.472 ms  194.986 ms
 8  78.25.83.162 (78.25.83.162)  195.599 ms  196.131 ms  197.005 ms
 9  * * *
10  * blg-b3-bh137-i-te0-2-0.ti.ru (212.1.239.122)  211.391 ms *
11  ip-46-72-24-53.bb.netbynet.ru (46.72.24.53)  121.108 ms  46.085 ms *
