traceroute to 212.152.47.33 (212.152.47.33), 40 hops max, 60 byte packets
 1  192.168.1.1 (192.168.1.1)  0.836 ms  1.057 ms  1.233 ms
 2  10.168.64.1 (10.168.64.1)  20.227 ms  20.359 ms  23.145 ms
 3  10.254.246.45 (10.254.246.45)  28.811 ms  31.720 ms  31.890 ms
 4  ss-crs-1-be12-51.msk.stream-internet.net (212.188.1.5)  37.418 ms  37.423 ms  40.689 ms
 5  m9-crs-1-be9.msk.stream-internet.net (195.34.59.250)  46.171 ms  48.623 ms  52.750 ms
 6  212.188.42.106 (212.188.42.106)  52.019 ms  30.738 ms  87.014 ms
 7  212.188.22.110 (212.188.22.110)  83.640 ms  87.450 ms 212.188.23.138 (212.188.23.138)  88.030 ms
 8  cifra1-gw.fiord.ru (62.140.245.118)  88.521 ms  91.669 ms  92.199 ms
 9  212.34.35.50 (212.34.35.50)  94.516 ms  95.926 ms  97.784 ms
10  mt-4.pdlsk.cifra1.ru (212.152.40.229)  99.258 ms !H  100.431 ms !H  102.426 ms !H
