traceroute to 95.24.113.187 (95.24.113.187), 40 hops max, 60 byte packets
 1  192.168.1.1 (192.168.1.1)  31.864 ms  32.005 ms  32.203 ms
 2  10.168.64.1 (10.168.64.1)  63.980 ms  64.817 ms  68.023 ms
 3  10.254.246.45 (10.254.246.45)  74.014 ms  74.484 ms  74.924 ms
 4  ss-crs-1-be12-51.msk.stream-internet.net (212.188.1.5)  75.389 ms  78.687 ms  79.205 ms
 5  m9-crs-1-be9.msk.stream-internet.net (195.34.59.250)  82.957 ms  88.459 ms  90.204 ms
 6  212.188.12.126 (212.188.12.126)  92.857 ms  71.770 ms  20.058 ms
 7  m9-crs-be4.corbina.net (78.107.184.42)  23.185 ms  28.889 ms m9-crs-2-be4.corbina.net (195.14.62.48)  29.223 ms
 8  rti-bb-be2.corbina.net (195.14.54.53)  32.323 ms rti-bb-be8.corbina.net (195.14.62.87)  37.781 ms rti-bb-be2.corbina.net (195.14.54.53)  40.820 ms
 9  mitin-bb-be4.corbina.net (195.14.54.148)  43.978 ms  44.350 ms  47.377 ms
10  10.2.250.212 (10.2.250.212)  50.251 ms 10.2.250.216 (10.2.250.216)  53.315 ms 10.2.250.212 (10.2.250.212)  56.275 ms
11  * * *
12  * * *
13  * * *
14  * * *
15  * * *
16  * * *
17  * * *
18  * * *
19  * * *
20  * * *
21  * * *
22  * * *
23  * * *
24  * * *
25  * * *
26  * * *
27  * * *
28  * * *
29  * * *
30  * * *
31  * * *
32  * * *
33  * * *
34  * * *
35  * * *
36  * * *
37  * * *
38  * * *
39  * * *
40  * * *
