traceroute to 178.45.81.26 (178.45.81.26), 40 hops max, 60 byte packets
 1  192.168.1.1 (192.168.1.1)  38.640 ms  38.797 ms  38.952 ms
 2  * * 10.168.64.1 (10.168.64.1)  87.610 ms
 3  10.254.246.45 (10.254.246.45)  93.522 ms  94.299 ms  95.628 ms
 4  ss-crs-1-be12-51.msk.stream-internet.net (212.188.1.5)  94.934 ms  98.888 ms  99.603 ms
 5  * * m10-cr01-po7.msk.stream-internet.net (195.34.59.206)  102.899 ms
 6  Rostelecom-m10.msk.stream-internet.net (212.188.41.58)  103.043 ms  69.896 ms  54.450 ms
 7  95.167.91.43 (95.167.91.43)  52.775 ms  53.288 ms  53.804 ms
 8  customer-AS43975.ae-2.701.smra-cr1-b.pv.ip.rostelecom.ru (188.128.93.170)  46.365 ms  50.581 ms  49.835 ms
 9  ae0.samara.dr2.vt.ru (79.126.126.114)  55.598 ms  54.995 ms  60.076 ms
10  79.126.125.78 (79.126.125.78)  60.665 ms  64.017 ms  67.435 ms
11  * * *
12  * * *
13  * * *
14  * * *
15  * * *
16  * * *
17  * * *
18  * * *
19  * * *
20  * * *
21  * * *
22  * * *
23  * * *
24  * * *
25  * * *
26  * * *
27  * * *
28  * * *
29  * * *
30  * * *
31  * * *
32  * * *
33  * * *
34  * * *
35  * * *
36  * * *
37  * * *
38  * * *
39  * * *
40  * * *
