traceroute to 31.181.22.120 (31.181.22.120), 40 hops max, 60 byte packets
 1  192.168.1.1 (192.168.1.1)  103.269 ms  103.688 ms  103.848 ms
 2  10.168.64.1 (10.168.64.1)  127.609 ms  130.599 ms  130.825 ms
 3  10.254.246.45 (10.254.246.45)  136.246 ms  136.432 ms  139.505 ms
 4  ss-crs-1-be12-51.msk.stream-internet.net (212.188.1.5)  139.297 ms  143.273 ms  143.478 ms
 5  * * m10-cr01-po7.msk.stream-internet.net (195.34.59.206)  152.451 ms
 6  Rostelecom-m10.msk.stream-internet.net (212.188.41.58)  248.161 ms  64.080 ms  27.642 ms
 7  95.167.90.47 (95.167.90.47)  44.007 ms  45.024 ms  48.357 ms
 8  87.226.233.174 (87.226.233.174)  49.208 ms  49.795 ms  51.516 ms
 9  85.175.1.103 (85.175.1.103)  54.041 ms 85.175.1.223 (85.175.1.223)  55.658 ms *
10  * * *
11  * * *
12  * * *
13  * * *
14  * * *
15  * * *
16  * * *
17  * * *
18  * * *
19  * * *
20  * * *
21  * * *
22  * * *
23  * * *
24  * * *
25  * * *
26  * * *
27  * * *
28  * * *
29  * * *
30  * * *
31  * * *
32  * * *
33  * * *
34  * * *
35  * * *
36  * * *
37  * * *
38  * * *
39  * * *
40  * * *
