traceroute to 2.92.75.181 (2.92.75.181), 40 hops max, 60 byte packets
 1  192.168.1.1 (192.168.1.1)  134.352 ms  134.490 ms  134.686 ms
 2  10.168.64.1 (10.168.64.1)  174.175 ms  175.642 ms  177.147 ms
 3  10.254.246.45 (10.254.246.45)  182.649 ms  184.386 ms *
 4  ss-crs-1-be12-51.msk.stream-internet.net (212.188.1.5)  184.214 ms  188.223 ms  188.351 ms
 5  a621-cr01-po6.msk.stream-internet.net (195.34.53.202)  188.452 ms  189.982 ms  191.486 ms
 6  GoldenTelecom-a621.msk.stream-internet.net (195.34.38.142)  192.969 ms  44.510 ms  125.837 ms
 7  195.239.162.178 (195.239.162.178)  183.666 ms  183.172 ms  184.099 ms
 8  bras-gi0-0.omsk.corbina.net (85.21.59.52)  188.648 ms  191.762 ms  189.184 ms
 9  * * *
10  * * *
11  * * *
12  * * *
13  * * *
14  * * *
15  * * *
16  * * *
17  * * *
18  * * *
19  * * *
20  * * *
21  * * *
22  * * *
23  * * *
24  * * *
25  * * *
26  * * *
27  * * *
28  * * *
29  * * *
30  * * *
31  * * *
32  * * *
33  * * *
34  * * *
35  * * *
36  * * *
37  * * *
38  * * *
39  * * *
40  * * *
