traceroute to 176.49.130.223 (176.49.130.223), 40 hops max, 60 byte packets
 1  192.168.1.1 (192.168.1.1)  0.715 ms  0.941 ms  1.132 ms
 2  10.168.64.1 (10.168.64.1)  19.505 ms  20.246 ms  24.586 ms
 3  10.254.246.45 (10.254.246.45)  27.742 ms  30.788 ms  33.889 ms
 4  ss-crs-1-be12-51.msk.stream-internet.net (212.188.1.5)  39.864 ms *  42.976 ms
 5  a197-crs-1-be5.msk.stream-internet.net (195.34.59.106)  43.312 ms  46.994 ms  50.860 ms
 6  212.188.2.54 (212.188.2.54)  53.840 ms  65.696 ms  53.596 ms
 7  Rostelecom-m9.msk.stream-internet.net (212.188.22.70)  54.236 ms  57.530 ms  58.067 ms
 8  95.167.93.14 (95.167.93.14)  120.315 ms 95.167.92.14 (95.167.92.14)  126.770 ms 95.167.93.14 (95.167.93.14)  123.498 ms
 9  customer-AS41440.xe-1-2-0.798.krsn-rgr4.sib.ip.rostelecom.ru (87.226.171.114)  176.378 ms 95.167.15.222 (95.167.15.222)  177.483 ms customer-AS41440.xe-1-2-0.798.krsn-rgr4.sib.ip.rostelecom.ru (87.226.171.114)  176.920 ms
10  xe-8-2-0.ksk-dr2.ncc.sibirtelecom.ru (213.228.105.21)  130.101 ms  135.358 ms  133.385 ms
11  xe-0-1-0.ksk-bbar3.ncc.sibirtelecom.ru (213.228.119.146)  141.278 ms xe-0-0-0.ksk-bbar3.ncc.sibirtelecom.ru (213.228.117.150)  141.864 ms  145.212 ms
12  * * *
13  * * *
14  * * *
15  * * *
16  * * *
17  * * *
18  * * *
19  * * *
20  * * *
21  * * *
22  * * *
23  * * *
24  * * *
25  * * *
26  * * *
27  * * *
28  * * *
29  * * *
30  * * *
31  * * *
32  * * *
33  * * *
34  * * *
35  * * *
36  * * *
37  * * *
38  * * *
39  * * *
40  * * *
