traceroute to 95.104.180.236 (95.104.180.236), 40 hops max, 60 byte packets
 1  192.168.1.1 (192.168.1.1)  0.708 ms  0.847 ms  1.043 ms
 2  10.168.64.1 (10.168.64.1)  17.664 ms  20.955 ms  24.299 ms
 3  10.254.246.45 (10.254.246.45)  30.295 ms  30.942 ms  34.373 ms
 4  ss-crs-1-be12-51.msk.stream-internet.net (212.188.1.5)  35.010 ms  40.925 ms  44.282 ms
 5  pob-cr01-ae1.16.kaz.stream-internet.net (212.188.55.142)  76.274 ms  80.182 ms  84.296 ms
 6  cur-cr02-ae16.302.ufa.stream-internet.net (212.188.42.218)  75.003 ms  50.866 ms  94.486 ms
 7  mos-cr01-xe-0-0-1.64.srt.stream-internet.net (212.188.28.166)  102.548 ms  102.711 ms  105.743 ms
 8  212.188.22.26 (212.188.22.26)  106.003 ms  109.349 ms  109.692 ms
 9  cn3-pe1-Po2.Saratov.comstar.ru (80.92.216.129)  112.907 ms  113.342 ms  113.738 ms
10  * an1-inet1-Vl58.Saratov.comstar.ru (80.92.216.122)  119.362 ms *
11  * * *
12  * * *
13  * * *
14  * * *
15  * * *
16  * * *
17  * * *
18  * * *
19  * * *
20  * * *
21  * * *
22  * * *
23  * * *
24  * * *
25  * * *
26  * * *
27  * * *
28  * * *
29  * * *
30  * * *
31  * * *
32  * * *
33  * * *
34  * * *
35  * * *
36  * * *
37  * * *
38  * * *
39  * * *
40  * * *
