traceroute to 109.120.63.107 (109.120.63.107), 40 hops max, 60 byte packets
 1  192.168.1.1 (192.168.1.1)  29.205 ms  29.655 ms  29.835 ms
 2  10.168.64.1 (10.168.64.1)  79.161 ms  81.697 ms *
 3  10.254.246.45 (10.254.246.45)  85.733 ms  89.046 ms  89.594 ms
 4  * ss-crs-1-be12-51.msk.stream-internet.net (212.188.1.5)  93.404 ms  93.868 ms
 5  m9-crs-1-be9.msk.stream-internet.net (195.34.59.250)  103.489 ms  107.457 ms *
 6  195.34.53.17 (195.34.53.17)  108.204 ms  61.445 ms  32.230 ms
 7  bor-cr01-po21.spb.stream-internet.net (212.188.1.238)  32.672 ms  35.712 ms  38.761 ms
 8  TTK-bor.spb.stream-internet.net (195.34.38.6)  44.434 ms  47.558 ms  50.597 ms
 9  omk02.transtelecom.net (188.43.2.66)  83.996 ms  85.816 ms  89.007 ms
10  Zap-Sib-gw.transtelecom.net (188.43.2.65)  100.137 ms  103.804 ms  106.676 ms
11  mx480.omkc.ru (217.25.208.158)  109.431 ms  111.839 ms  115.046 ms
12  * * *
13  * * *
14  * * *
15  * * *
16  * * *
17  * * *
18  * * *
19  * * *
20  * * *
21  * * *
22  * * *
23  * * *
24  * * *
25  * * *
26  * * *
27  * * *
28  * * *
29  * * *
30  * * *
31  * * *
32  * * *
33  * * *
34  * * *
35  * * *
36  * * *
37  * * *
38  * * *
39  * * *
40  * * *
