traceroute to 95.52.194.74 (95.52.194.74), 40 hops max, 60 byte packets
 1  192.168.1.1 (192.168.1.1)  0.710 ms  0.846 ms  1.106 ms
 2  10.168.64.1 (10.168.64.1)  19.037 ms  22.425 ms  25.762 ms
 3  10.254.246.45 (10.254.246.45)  29.339 ms  35.184 ms *
 4  ss-crs-1-be12-51.msk.stream-internet.net (212.188.1.5)  38.789 ms  39.354 ms  42.666 ms
 5  a197-crs-1-be5.msk.stream-internet.net (195.34.59.106)  46.944 ms  50.826 ms  51.442 ms
 6  212.188.2.61 (212.188.2.61)  53.075 ms  17.927 ms  53.367 ms
 7  Rostelecom-m9.msk.stream-internet.net (212.188.22.70)  22.278 ms  25.658 ms  26.299 ms
 8  95.167.93.33 (95.167.93.33)  82.068 ms *  130.046 ms
 9  188.128.6.162 (188.128.6.162)  76.137 ms  58.048 ms *
10  * * *
11  * * *
12  * * *
13  * * *
14  * * *
15  * * *
16  * * *
17  * * *
18  * * *
19  * * *
20  * * *
21  * * *
22  * * *
23  * * *
24  * * *
25  * * *
26  * * *
27  * * *
28  * * *
29  * * *
30  * * *
31  * * *
32  * * *
33  * * *
34  * * *
35  * * *
36  * * *
37  * * *
38  * * *
39  * * *
40  * * *
