traceroute to 2.92.168.216 (2.92.168.216), 40 hops max, 60 byte packets
 1  192.168.1.1 (192.168.1.1)  530.065 ms  530.226 ms  530.404 ms
 2  10.168.64.1 (10.168.64.1)  570.136 ms  571.695 ms  573.400 ms
 3  10.254.246.45 (10.254.246.45)  578.613 ms *  578.732 ms
 4  ss-crs-1-be12-51.msk.stream-internet.net (212.188.1.5)  581.455 ms  581.597 ms  585.365 ms
 5  a621-cr01-po6.msk.stream-internet.net (195.34.53.202)  583.593 ms  585.177 ms *
 6  GoldenTelecom-a621.msk.stream-internet.net (195.34.38.142)  587.098 ms  60.575 ms *
 7  195.218.139.26 (195.218.139.26)  131.781 ms  132.824 ms  133.333 ms
 8  bras10-gi0-0q2013.ivn.corbina.net (213.234.199.217)  135.737 ms  138.158 ms  138.577 ms
 9  * * *
10  * * *
11  * * *
12  * * *
13  * * *
14  * * *
15  * * *
16  * * *
17  * * *
18  * * *
19  * * *
20  * * *
21  * * *
22  * * *
23  * * *
24  * * *
25  * * *
26  * * *
27  * * *
28  * * *
29  * * *
30  * * *
31  * * *
32  * * *
33  * * *
34  * * *
35  * * *
36  * * *
37  * * *
38  * * *
39  * * *
40  * * *
