traceroute to 84.230.50.79 (84.230.50.79), 40 hops max, 60 byte packets
 1  192.168.1.1 (192.168.1.1)  0.692 ms  0.833 ms  1.009 ms
 2  10.168.64.1 (10.168.64.1)  63.449 ms  65.136 ms  66.567 ms
 3  10.254.246.45 (10.254.246.45)  69.296 ms  74.820 ms  75.333 ms
 4  ss-crs-1-be12-51.msk.stream-internet.net (212.188.1.5)  79.354 ms  79.800 ms  80.304 ms
 5  a197-crs-1-be5.msk.stream-internet.net (195.34.59.106)  106.659 ms  106.791 ms  111.215 ms
 6  * 212.188.2.37 (212.188.2.37)  45.611 ms  54.629 ms
 7  212.188.2.93 (212.188.2.93)  56.204 ms  57.571 ms  59.523 ms
 8  netnod-ix-ge-b-sth.eunetip.net (194.68.128.136)  60.630 ms  62.909 ms  64.610 ms
 9  so7-0-0-0.bbr2.hel1.fi.eunetip.net (213.192.191.209)  73.286 ms  74.935 ms  76.496 ms
10  213.192.184.110 (213.192.184.110)  77.864 ms  79.337 ms ae0-10.helpa-gw1.fi.elisa.net (213.192.191.54)  81.051 ms
11  139.97.49.130 (139.97.49.130)  83.017 ms  84.972 ms  106.146 ms
12  * * *
13  * * *
14  * * *
15  * * *
16  * * *
17  * * *
18  * * *
19  * * *
20  * * *
21  * * *
22  * * *
23  * * *
24  * * *
25  * * *
26  * * *
27  * * *
28  * * *
29  * * *
30  * * *
31  * * *
32  * * *
33  * * *
34  * * *
35  * * *
36  * * *
37  * * *
38  * * *
39  * * *
40  * * *
