traceroute to 95.57.13.141 (95.57.13.141), 40 hops max, 60 byte packets
 1  192.168.1.1 (192.168.1.1)  0.671 ms  0.893 ms  1.079 ms
 2  10.168.64.1 (10.168.64.1)  35.759 ms  39.078 ms  39.601 ms
 3  10.254.246.45 (10.254.246.45)  43.358 ms  43.958 ms  46.458 ms
 4  ss-crs-1-be12-51.msk.stream-internet.net (212.188.1.5)  45.656 ms  49.595 ms  50.187 ms
 5  a197-crs-1-be5.msk.stream-internet.net (195.34.59.106)  51.546 ms  56.001 ms  56.536 ms
 6  212.188.2.54 (212.188.2.54)  55.310 ms  20.062 ms  22.140 ms
 7  Megafon-m9.msk.stream-internet.net (212.188.16.134)  25.165 ms  28.282 ms  32.862 ms
 8  10.222.163.13 (10.222.163.13)  51.863 ms  62.396 ms  63.040 ms
 9  78.25.80.194 (78.25.80.194)  78.092 ms *  83.010 ms
10  92.47.151.56 (92.47.151.56)  107.902 ms  108.369 ms  111.462 ms
11  asta-core-l2-1.online.kz (92.47.145.53)  112.007 ms  115.671 ms  116.216 ms
12  kara-core-l2-1.online.kz (92.47.145.221)  114.127 ms  118.953 ms  102.198 ms
13  kara-mx-1.online.kz (95.59.170.95)  117.822 ms  119.560 ms  121.008 ms
14  82.200.249.51 (82.200.249.51)  107.812 ms  108.968 ms  110.912 ms
15  92.46.142.1 (92.46.142.1)  129.691 ms  131.101 ms *
16  95.57.13.141.megaline.telecom.kz (95.57.13.141)  135.579 ms  136.946 ms  138.396 ms
