traceroute to 178.125.139.231 (178.125.139.231), 40 hops max, 60 byte packets
 1  192.168.1.1 (192.168.1.1)  0.664 ms  0.803 ms  0.995 ms
 2  10.168.64.1 (10.168.64.1)  60.837 ms  61.988 ms  64.660 ms
 3  10.254.246.45 (10.254.246.45)  70.749 ms  71.059 ms  71.330 ms
 4  ss-crs-1-be12-51.msk.stream-internet.net (212.188.1.5)  71.608 ms  74.720 ms  75.021 ms
 5  * a197-crs-1-be5.msk.stream-internet.net (195.34.59.106)  79.299 ms  82.777 ms
 6  Beltelecom.stream-internet.net (195.34.36.14)  93.196 ms  55.710 ms  36.428 ms
 7  ie2.net.belpak.by (93.85.80.105)  42.308 ms  42.887 ms  49.240 ms
 8  core1.net.belpak.by (93.85.80.41)  48.614 ms  52.441 ms  53.076 ms
 9  100ge.core.belpak.by (93.85.81.50)  53.657 ms  57.029 ms  58.178 ms
10  * * *
11  * * *
12  * * *
13  * * *
14  * * *
15  * * *
16  * * *
17  * * *
18  * * *
19  * * *
20  * * *
21  * * *
22  * * *
23  * * *
24  * * *
25  * * *
26  * * *
27  * * *
28  * * *
29  * * *
30  * * *
31  * * *
32  * * *
33  * * *
34  * * *
35  * * *
36  * * *
37  * * *
38  * * *
39  * * *
40  * * *
