traceroute to 178.64.249.160 (178.64.249.160), 40 hops max, 60 byte packets
 1  192.168.1.1 (192.168.1.1)  0.677 ms  0.819 ms  0.994 ms
 2  10.168.64.1 (10.168.64.1)  33.699 ms  34.321 ms  37.541 ms
 3  10.254.246.45 (10.254.246.45)  41.079 ms  43.514 ms *
 4  ss-crs-1-be12-51.msk.stream-internet.net (212.188.1.5)  46.807 ms  47.425 ms  50.525 ms
 5  m9-crs-1-be9.msk.stream-internet.net (195.34.59.250)  51.206 ms  52.072 ms  55.536 ms
 6  m9-cr05-ae0.77.msk.stream-internet.net (212.188.42.58)  54.906 ms  34.207 ms  34.056 ms
 7  Rostelecom-m9.msk.stream-internet.net (212.188.22.70)  34.282 ms  37.326 ms  37.548 ms
 8  95.167.93.33 (95.167.93.33)  58.691 ms  64.220 ms  60.860 ms
 9  188.128.6.162 (188.128.6.162)  62.390 ms  68.499 ms  65.801 ms
10  212.48.195.179 (212.48.195.179)  74.099 ms  71.232 ms  73.595 ms
11  * * *
12  * * *
13  * * *
14  * * *
15  * * *
16  * * *
17  * * *
18  * * *
19  * * *
20  * * *
21  * * *
22  * * *
23  * * *
24  * * *
25  * * *
26  * * *
27  * * *
28  * * *
29  * * *
30  * * *
31  * * *
32  * * *
33  * * *
34  * * *
35  * * *
36  * * *
37  * * *
38  * * *
39  * * *
40  * * *
