traceroute to 87.69.32.51 (87.69.32.51), 40 hops max, 60 byte packets
 1  192.168.1.1 (192.168.1.1)  0.712 ms  0.864 ms  1.019 ms
 2  10.168.64.1 (10.168.64.1)  42.118 ms  42.414 ms  45.360 ms
 3  10.254.246.45 (10.254.246.45)  49.247 ms  49.561 ms  53.276 ms
 4  ss-crs-1-be12-51.msk.stream-internet.net (212.188.1.5)  52.569 ms  56.211 ms  56.491 ms
 5  m9-crs-1-be9.msk.stream-internet.net (195.34.59.250)  95.495 ms  95.819 ms *
 6  a197-crs-1-be4.msk.stream-internet.net (195.34.59.50)  96.063 ms  91.328 ms  57.617 ms
 7  EDGE.FRA-02.012.net.il (80.81.194.65)  60.903 ms  64.150 ms  69.604 ms
 8  EDGE-FRA-01-ae3-51.ip4.012.net.il (80.179.166.163)  65.634 ms 80.179.166.57.static.012.net.il (80.179.166.57)  73.733 ms EDGE-FRA-01-ae3-51.ip4.012.net.il (80.179.166.163)  69.324 ms
 9  80.179.166.54.static.012.net.il (80.179.166.54)  72.768 ms EDGE-FRA-01-ae3-100.ip4.012.net.il (80.179.166.69)  75.013 ms EDGE-FRA-01-ae0-0.ip4.012.net.il (80.179.166.81)  77.425 ms
10  BRDR-CORE-MR-ae1-3024.ip4.012.net.il (212.199.5.106)  132.427 ms  135.318 ms EDGE-FRA-01-ae3-42.ip4.012.net.il (80.179.166.50)  85.825 ms
11  BRDR-CORE-MR-ae1-3024.ip4.012.net.il (212.199.5.106)  139.053 ms BRDR-CORE-MR-so-9-1-3-0.ip4.012.net.il (80.179.166.102)  147.541 ms ACCESS-MR-01-vl3011.ip4.012.net.il (212.199.5.61)  152.942 ms
12  ACCESS-MR-01-vl3011.ip4.012.net.il (212.199.5.61)  146.980 ms 212.199.24.218 (212.199.24.218)  121.330 ms ACCESS-MR-01-vl3011.ip4.012.net.il (212.199.5.61)  157.664 ms
13  172.17.1.158 (172.17.1.158)  166.766 ms 212.199.24.218 (212.199.24.218)  156.660 ms ACCESS-MR-01-vl3011.ip4.012.net.il (212.199.5.61)  167.165 ms
14  172.17.1.158 (172.17.1.158)  177.028 ms 172.17.1.250 (172.17.1.250)  166.947 ms 172.17.1.198 (172.17.1.198)  174.973 ms
15  172.17.1.194 (172.17.1.194)  174.011 ms 10.243.64.1 (10.243.64.1)  172.044 ms 172.17.1.250 (172.17.1.250)  174.534 ms
16  10.243.64.1 (10.243.64.1)  176.441 ms * 172.17.1.250 (172.17.1.250)  179.578 ms
17  10.243.64.1 (10.243.64.1)  179.759 ms * *
18  * * *
19  * * *
20  * * *
21  * * *
22  * * *
23  * * *
24  * * *
25  * * *
26  * * *
27  * * *
28  * * *
29  * * *
30  * * *
31  * * *
32  * * *
33  * * *
34  * * *
35  * * *
36  * * *
37  * * *
38  * * *
39  * * *
40  * * *
