traceroute to 178.45.142.191 (178.45.142.191), 40 hops max, 60 byte packets
 1  192.168.1.1 (192.168.1.1)  31.828 ms  31.980 ms  32.138 ms
 2  10.168.64.1 (10.168.64.1)  89.935 ms * *
 3  * * *
 4  * ss-crs-1-be12-51.msk.stream-internet.net (212.188.1.5)  93.332 ms  93.757 ms
 5  * * *
 6  Rostelecom-m10.msk.stream-internet.net (212.188.41.58)  99.517 ms  17.483 ms  18.578 ms
 7  95.167.91.59 (95.167.91.59)  42.178 ms  45.118 ms  48.655 ms
 8  188.254.78.10 (188.254.78.10)  49.913 ms  52.088 ms  54.291 ms
 9  ae0.saratov.dr1.vt.ru (79.126.126.31)  69.068 ms  71.550 ms  74.226 ms
10  79.126.125.54 (79.126.125.54)  77.713 ms  80.386 ms  82.871 ms
11  * * *
12  * * *
13  * * *
14  * * *
15  * * *
16  * * *
17  * * *
18  * * *
19  * * *
20  * * *
21  * * *
22  * * *
23  * * *
24  * * *
25  * * *
26  * * *
27  * * *
28  * * *
29  * * *
30  * * *
31  * * *
32  * * *
33  * * *
34  * * *
35  * * *
36  * * *
37  * * *
38  * * *
39  * * *
40  * * *
