traceroute to 178.17.194.109 (178.17.194.109), 40 hops max, 60 byte packets
 1  192.168.1.1 (192.168.1.1)  0.679 ms  0.821 ms  1.014 ms
 2  10.168.64.1 (10.168.64.1)  19.955 ms  20.451 ms  23.728 ms
 3  10.254.246.45 (10.254.246.45)  29.448 ms  30.028 ms  33.227 ms
 4  ss-crs-1-be12-51.msk.stream-internet.net (212.188.1.5)  36.417 ms  42.167 ms  45.621 ms
 5  a197-crs-1-be5.msk.stream-internet.net (195.34.59.106)  46.989 ms  50.656 ms  54.827 ms
 6  212.188.2.61 (212.188.2.61)  53.641 ms  45.650 ms  17.798 ms
 7  Rostelecom-m9.msk.stream-internet.net (212.188.22.70)  23.390 ms *  24.414 ms
 8  95.167.95.158 (95.167.95.158)  93.077 ms  29.780 ms  32.723 ms
 9  customer-AS25515.ae-12.134.m10-cr2-b.msk.ip.rostelecom.ru (188.254.36.202)  186.933 ms  187.260 ms  187.531 ms
10  213.140.254.86 (213.140.254.86)  46.670 ms  48.768 ms *
11  * * *
12  * * *
13  * * *
14  * * *
15  * * *
16  * * *
17  * * *
18  * * *
19  * * *
20  * * *
21  * * *
22  * * *
23  * * *
24  * * *
25  * * *
26  * * *
27  * * *
28  * * *
29  * * *
30  * * *
31  * * *
32  * * *
33  * * *
34  * * *
35  * * *
36  * * *
37  * * *
38  * * *
39  * * *
40  * * *
