traceroute to 109.165.62.163 (109.165.62.163), 40 hops max, 60 byte packets
 1  192.168.1.1 (192.168.1.1)  0.674 ms  0.833 ms  0.988 ms
 2  10.168.64.1 (10.168.64.1)  18.669 ms  21.741 ms  22.112 ms
 3  10.254.246.45 (10.254.246.45)  27.672 ms  36.239 ms *
 4  ss-crs-1-be12-51.msk.stream-internet.net (212.188.1.5)  36.958 ms  37.153 ms  42.642 ms
 5  m9-crs-1-be9.msk.stream-internet.net (195.34.59.250)  45.718 ms  48.419 ms  56.426 ms
 6  195.34.53.185 (195.34.53.185)  56.007 ms  61.789 ms  63.519 ms
 7  Rostelecom-m9.msk.stream-internet.net (212.188.22.70)  65.042 ms  19.184 ms  22.038 ms
 8  95.167.37.162 (95.167.37.162)  68.611 ms  68.842 ms  69.079 ms
 9  87.226.216.254 (87.226.216.254)  48.165 ms customer-AS21479.xe-1-3-3.rndn-rgr1.ug.ip.rostelecom.ru (188.128.0.238)  60.464 ms 87.226.216.254 (87.226.216.254)  53.755 ms
10  216.214.221.83.static.donpac.ru (83.221.214.216)  57.199 ms  58.720 ms 218.214.221.83.static.donpac.ru (83.221.214.218)  61.657 ms
11  * * *
12  * * *
13  * * *
14  * * *
15  * * *
16  * * *
17  * * *
18  * * *
19  * * *
20  * * *
21  * * *
22  * * *
23  * * *
24  * * *
25  * * *
26  * * *
27  * * *
28  * * *
29  * * *
30  * * *
31  * * *
32  * * *
33  * * *
34  * * *
35  * * *
36  * * *
37  * * *
38  * * *
39  * * *
40  * * *
