traceroute to 85.174.21.241 (85.174.21.241), 40 hops max, 60 byte packets
 1  192.168.1.1 (192.168.1.1)  0.951 ms  1.129 ms  1.311 ms
 2  10.168.64.1 (10.168.64.1)  39.056 ms  42.661 ms  43.219 ms
 3  10.254.246.45 (10.254.246.45)  47.769 ms  48.340 ms  50.932 ms
 4  ss-crs-1-be12-51.msk.stream-internet.net (212.188.1.5)  52.126 ms  52.771 ms  55.636 ms
 5  m9-crs-1-be9.msk.stream-internet.net (195.34.59.250)  59.286 ms  59.590 ms  60.262 ms
 6  195.34.53.185 (195.34.53.185)  58.967 ms  49.329 ms  79.033 ms
 7  Rostelecom-m9.msk.stream-internet.net (212.188.22.70)  79.264 ms  82.313 ms  82.599 ms
 8  95.167.92.155 (95.167.92.155)  106.603 ms  106.851 ms  107.095 ms
 9  94.25.4.18 (94.25.4.18)  108.483 ms  109.845 ms customer-AS33934.ae-1.500.vgrd-rgr2.ug.ip.rostelecom.ru (87.226.141.126)  111.013 ms
10  83.239.129.83 (83.239.129.83)  115.026 ms  116.711 ms  118.416 ms
11  * * *
12  * * *
13  * * *
14  * * *
15  * * *
16  * * *
17  * * *
18  * * *
19  * * *
20  * * *
21  * * *
22  * * *
23  * * *
24  * * *
25  * * *
26  * * *
27  * * *
28  * * *
29  * * *
30  * * *
31  * * *
32  * * *
33  * * *
34  * * *
35  * * *
36  * * *
37  * * *
38  * * *
39  * * *
40  * * *
