traceroute to 46.180.164.163 (46.180.164.163), 40 hops max, 60 byte packets
 1  192.168.1.1 (192.168.1.1)  0.697 ms  0.833 ms  1.011 ms
 2  10.168.64.1 (10.168.64.1)  39.826 ms  40.367 ms *
 3  10.254.246.45 (10.254.246.45)  49.327 ms  49.869 ms  50.456 ms
 4  ss-crs-1-be12-51.msk.stream-internet.net (212.188.1.5)  50.949 ms  54.169 ms  54.666 ms
 5  212.188.1.202 (212.188.1.202)  105.711 ms  106.262 ms  108.049 ms
 6  212.188.2.102 (212.188.2.102)  94.881 ms  54.464 ms  74.030 ms
 7  212.188.2.97 (212.188.2.97)  74.288 ms  77.384 ms  80.657 ms
 8  pstav-cr01-ae5.255.omsk.stream-internet.net (212.188.28.174)  89.470 ms pstav-cr01-ae5.55.omsk.stream-internet.net (212.188.28.162)  90.215 ms pstav-cr01-ae5.155.omsk.stream-internet.net (212.188.55.174)  90.851 ms
 9  psvost-cr01-ae6.254.nsk.stream-internet.net (212.188.55.186)  102.160 ms psvost-cr01-ae6.354.nsk.stream-internet.net (212.188.28.130)  102.440 ms a0b-ix.novotelecom.ru (193.232.87.50)  105.542 ms
10  a0b-ix.novotelecom.ru (193.232.87.50)  106.799 ms  107.928 ms  109.620 ms
11  l49-128-42.cn.ru (178.49.128.42)  121.233 ms  122.823 ms 10.100.102.45 (10.100.102.45)  125.972 ms
12  * 10.100.102.45 (10.100.102.45)  90.778 ms 172.16.16.74 (172.16.16.74)  94.583 ms
13  172.16.16.74 (172.16.16.74)  94.913 ms * *
14  172.16.16.70 (172.16.16.70)  102.055 ms 10.100.5.170 (10.100.5.170)  107.855 ms 172.16.16.70 (172.16.16.70)  109.382 ms
15  * * *
16  * * *
17  * * *
18  * * *
19  * * *
20  * * *
21  * * *
22  * * *
23  * * *
24  * * *
25  * * *
26  * * *
27  * * *
28  * * *
29  * * *
30  * * *
31  * * *
32  * * *
33  * * *
34  * * *
35  * * *
36  * * *
37  * * *
38  * * *
39  * * *
40  * * *
