traceroute to 109.111.141.29 (109.111.141.29), 40 hops max, 60 byte packets
 1  192.168.1.1 (192.168.1.1)  0.741 ms  0.890 ms  1.108 ms
 2  10.168.64.1 (10.168.64.1)  42.761 ms  44.677 ms  46.120 ms
 3  10.254.246.45 (10.254.246.45)  52.179 ms  52.555 ms  55.107 ms
 4  ss-crs-1-be12-51.msk.stream-internet.net (212.188.1.5)  54.391 ms  58.292 ms  58.693 ms
 5  m9-crs-1-be9.msk.stream-internet.net (195.34.59.250)  96.820 ms  100.950 ms  101.370 ms
 6  195.34.53.17 (195.34.53.17)  108.775 ms  62.895 ms  64.777 ms
 7  anc-cr01-be3.ff.stream-internet.net (195.34.53.102)  57.742 ms  61.048 ms  61.675 ms
 8  frt01.transtelecom.net (80.81.194.117)  65.003 ms  68.110 ms  71.156 ms
 9  kgd01.kgd27.transtelecom.net (217.150.40.222)  81.453 ms  82.537 ms  84.515 ms
10  TISDialog-gw.transtelecom.net (217.150.61.13)  87.378 ms  90.538 ms TIS-Dialog-gw.transtelecom.net (217.150.40.221)  100.495 ms
11  83.219.128.89 (83.219.128.89)  103.946 ms  106.616 ms  107.439 ms
12  * * *
13  * * *
14  * * *
15  * * *
16  * * *
17  * * *
18  * * *
19  * * *
20  * * *
21  * * *
22  * * *
23  * * *
24  * * *
25  * * *
26  * * *
27  * * *
28  * * *
29  * * *
30  * * *
31  * * *
32  * * *
33  * * *
34  * * *
35  * * *
36  * * *
37  * * *
38  * * *
39  * * *
40  * * *
