traceroute to 2.60.5.10 (2.60.5.10), 40 hops max, 60 byte packets
 1  192.168.1.1 (192.168.1.1)  379.169 ms  379.310 ms  379.480 ms
 2  10.168.64.1 (10.168.64.1)  419.279 ms  420.849 ms  422.221 ms
 3  10.254.246.45 (10.254.246.45)  426.255 ms  430.402 ms  430.536 ms
 4  * ss-crs-1-be12-51.msk.stream-internet.net (212.188.1.5)  430.206 ms  433.142 ms
 5  m9-crs-1-be9.msk.stream-internet.net (195.34.59.250)  434.772 ms  434.933 ms  438.860 ms
 6  195.34.53.185 (195.34.53.185)  437.048 ms  22.919 ms  73.973 ms
 7  Rostelecom-m9.msk.stream-internet.net (212.188.22.70)  74.585 ms  76.101 ms  78.907 ms
 8  95.167.93.18 (95.167.93.18)  125.083 ms  125.969 ms  129.852 ms
 9  ae-0.401.omsk-br2.sib.ip.rostelecom.ru (87.226.171.122)  132.389 ms  134.300 ms  138.781 ms
10  xe-1-3-0.osk-dr1.ncc.sibirtelecom.ru (213.228.119.5)  141.999 ms  143.952 ms xe-7-3-0.osk-dr1.ncc.sibirtelecom.ru (213.228.118.33)  147.854 ms
11  * * *
12  * * *
13  * * *
14  * * *
15  * * *
16  * * *
17  * * *
18  * * *
19  * * *
20  * * *
21  * * *
22  * * *
23  * * *
24  * * *
25  * * *
26  * * *
27  * * *
28  * * *
29  * * *
30  * * *
31  * * *
32  * * *
33  * * *
34  * * *
35  * * *
36  * * *
37  * * *
38  * * *
39  * * *
40  * * *
