traceroute to 95.79.176.207 (95.79.176.207), 40 hops max, 60 byte packets
 1  192.168.1.1 (192.168.1.1)  0.743 ms  0.885 ms  1.063 ms
 2  10.168.64.1 (10.168.64.1)  46.190 ms  47.835 ms  49.869 ms
 3  10.254.246.45 (10.254.246.45)  55.339 ms  55.729 ms  59.640 ms
 4  ss-crs-1-be12-51.msk.stream-internet.net (212.188.1.5)  58.707 ms  59.177 ms  62.613 ms
 5  m9-crs-1-be9.msk.stream-internet.net (195.34.59.250)  64.180 ms  70.188 ms  70.822 ms
 6  m9-cr05-ae0.77.msk.stream-internet.net (212.188.42.58)  69.422 ms  114.355 ms  40.905 ms
 7  Rostelecom-m9.msk.stream-internet.net (212.188.22.70)  44.244 ms  47.606 ms  50.936 ms
 8  46.61.227.202 (46.61.227.202)  51.576 ms  54.952 ms  60.849 ms
 9  lag-2-435.bgw01.nn.ertelecom.ru (91.144.185.82)  69.217 ms  72.506 ms  75.808 ms
10  lag-100-435.bsr01.nn.ertelecom.ru (91.144.185.81)  79.215 ms  97.458 ms  85.002 ms
11  * * *
12  * * *
13  * * *
14  * * *
15  * * *
16  * * *
17  * * *
18  * * *
19  * * *
20  * * *
21  * * *
22  * * *
23  * * *
24  * * *
25  * * *
26  * * *
27  * * *
28  * * *
29  * * *
30  * * *
31  * * *
32  * * *
33  * * *
34  * * *
35  * * *
36  * * *
37  * * *
38  * * *
39  * * *
40  * * *
