traceroute to 37.110.97.23 (37.110.97.23), 40 hops max, 60 byte packets
 1  192.168.1.1 (192.168.1.1)  0.694 ms  0.829 ms  1.008 ms
 2  10.168.64.1 (10.168.64.1)  27.451 ms  30.603 ms *
 3  spdop-bgw-1-te2-6-300.msk.ip.ncnet.ru (77.37.254.114)  33.753 ms  34.193 ms *
 4  bgw-1-te2-6-300.msk.ip.ncnet.ru (77.37.254.113)  84.582 ms  84.850 ms  85.108 ms
 5  m10-cr01-be2.msk.ip.ncnet.ru (77.37.254.210)  43.775 ms  45.179 ms  47.518 ms
 6  mtk-105-lag-91.msk.ip.ncnet.ru (77.37.254.198)  50.561 ms  30.714 ms  50.093 ms
 7  * * *
 8  * * *
 9  * * *
10  * * *
11  * * *
12  * * *
13  * * *
14  * * *
15  * * *
16  * * *
17  * * *
18  * * *
19  * * *
20  * * *
21  * * *
22  * * *
23  * * *
24  * * *
25  * * *
26  * * *
27  * * *
28  * * *
29  * * *
30  * * *
31  * * *
32  * * *
33  * * *
34  * * *
35  * * *
36  * * *
37  * * *
38  * * *
39  * * *
40  * * *
