traceroute to 83.99.129.134 (83.99.129.134), 40 hops max, 60 byte packets
 1  192.168.1.1 (192.168.1.1)  0.723 ms  0.956 ms  1.129 ms
 2  10.168.64.1 (10.168.64.1)  55.288 ms  56.901 ms  58.364 ms
 3  10.254.246.45 (10.254.246.45)  65.036 ms  65.431 ms  65.780 ms
 4  ss-crs-1-be12-51.msk.stream-internet.net (212.188.1.5)  66.999 ms  70.441 ms  70.873 ms
 5  m9-crs-1-be9.msk.stream-internet.net (195.34.59.250)  110.966 ms  111.390 ms  114.058 ms
 6  a197-crs-1-be4.msk.stream-internet.net (195.34.59.50)  111.737 ms  53.025 ms  103.160 ms
 7  xe-0.de-cix.frnkge03.de.bb.gin.ntt.net (80.81.192.46)  74.752 ms  78.261 ms  136.709 ms
 8  ae-1.r02.frnkge03.de.bb.gin.ntt.net (129.250.4.163)  81.826 ms *  85.371 ms
 9  213.198.77.214 (213.198.77.214)  92.901 ms  96.456 ms  97.062 ms
10  ae2-4.RT.ELN.TLL.EE.retn.net (87.245.233.178)  134.489 ms ae1-7.RT.ELN.TLL.EE.retn.net (87.245.232.178)  135.097 ms  135.813 ms
11  * GW-GlobalComLV.retn.net (87.245.242.78)  147.926 ms  147.206 ms
12  balticom.r29.riga.globalcom.lv (85.254.1.10)  114.535 ms  111.881 ms  108.928 ms
13  r1-64-193.balticom.lv (82.193.64.193)  108.731 ms  107.792 ms  113.356 ms
14  ge-te-s5-69-254.balticom.lv (82.193.69.254)  114.745 ms  122.662 ms  108.982 ms
15  * * *
16  * * *
17  * * *
18  * * *
19  * * *
20  * * *
21  * * *
22  * * *
23  * * *
24  * * *
25  * * *
26  * * *
27  * * *
28  * * *
29  * * *
30  * * *
31  * * *
32  * * *
33  * * *
34  * * *
35  * * *
36  * * *
37  * * *
38  * * *
39  * * *
40  * * *
