traceroute to 5.129.227.39 (5.129.227.39), 40 hops max, 60 byte packets
 1  192.168.1.1 (192.168.1.1)  547.844 ms  548.102 ms  548.305 ms
 2  10.168.64.1 (10.168.64.1)  587.314 ms  590.570 ms  590.691 ms
 3  10.254.246.45 (10.254.246.45)  593.506 ms  598.099 ms  598.254 ms
 4  * ss-crs-1-be12-51.msk.stream-internet.net (212.188.1.5)  601.016 ms  601.160 ms
 5  212.188.1.202 (212.188.1.202)  630.294 ms  631.918 ms  633.156 ms
 6  212.188.2.105 (212.188.2.105)  634.275 ms  72.608 ms  98.735 ms
 7  * * *
 8  st171.metrosg.ru (37.60.16.171)  118.744 ms  120.316 ms  124.606 ms
 9  * * *
10  * * *
11  * * *
12  * * *
13  * * *
14  * * *
15  * * *
16  * * *
17  * * *
18  * * *
19  * * *
20  * * *
21  * * *
22  * * *
23  * * *
24  * * *
25  * * *
26  * * *
27  * * *
28  * * *
29  * * *
30  * * *
31  * * *
32  * * *
33  * * *
34  * * *
35  * * *
36  * * *
37  * * *
38  * * *
39  * * *
40  * * *
