traceroute to 5.104.59.122 (5.104.59.122), 40 hops max, 60 byte packets
 1  192.168.1.1 (192.168.1.1)  360.244 ms  360.384 ms  360.769 ms
 2  10.168.64.1 (10.168.64.1)  399.794 ms  401.156 ms  402.737 ms
 3  10.254.246.45 (10.254.246.45)  406.912 ms  411.024 ms  411.153 ms
 4  ss-crs-1-be12-51.msk.stream-internet.net (212.188.1.5)  410.843 ms  413.974 ms *
 5  m9-crs-1-be9.msk.stream-internet.net (195.34.59.250)  456.053 ms  456.219 ms  456.359 ms
 6  a197-crs-1-be4.msk.stream-internet.net (195.34.59.50)  456.455 ms  58.770 ms  111.829 ms
 7  xe-0.de-cix.frnkge03.de.bb.gin.ntt.net (80.81.192.46)  115.235 ms  117.909 ms  118.347 ms
 8  ae-1.r02.frnkge03.de.bb.gin.ntt.net (129.250.4.163)  121.588 ms  122.031 ms  123.768 ms
 9  213.198.77.214 (213.198.77.214)  157.849 ms  134.829 ms  136.607 ms
10  ae17-3.RT.NTL.KIV.UA.retn.net (87.245.233.197)  172.836 ms  173.211 ms  175.533 ms
11  GW-TrkMetro.retn.net (87.245.247.203)  190.785 ms * *
12  * * *
13  * * *
14  * * *
15  * * *
16  * * *
17  * * *
18  * * *
19  * * *
20  * * *
21  * * *
22  * * *
23  * * *
24  * * *
25  * * *
26  * * *
27  * * *
28  * * *
29  * * *
30  * * *
31  * * *
32  * * *
33  * * *
34  * * *
35  * * *
36  * * *
37  * * *
38  * * *
39  * * *
40  * * *
