traceroute to 46.138.162.217 (46.138.162.217), 40 hops max, 60 byte packets
 1  192.168.1.1 (192.168.1.1)  0.760 ms  0.905 ms  1.082 ms
 2  10.168.64.1 (10.168.64.1)  19.352 ms  19.732 ms  22.616 ms
 3  10.114.148.1 (10.114.148.1)  25.653 ms  28.547 ms  31.577 ms
 4  * * *
 5  * * *
 6  * * *
 7  * * *
 8  * * *
 9  * * *
10  * * *
11  * * *
12  * * *
13  * * *
14  * * *
15  * * *
16  * * *
17  * * *
18  * * *
19  * * *
20  * * *
21  * * *
22  * * *
23  * * *
24  * * *
25  * * *
26  * * *
27  * * *
28  * * *
29  * * *
30  * * *
31  * * *
32  * * *
33  * * *
34  * * *
35  * * *
36  * * *
37  * * *
38  * * *
39  * * *
40  * * *
