traceroute to 178.163.66.68 (178.163.66.68), 40 hops max, 60 byte packets
 1  192.168.1.1 (192.168.1.1)  0.682 ms  0.823 ms  1.001 ms
 2  10.168.64.1 (10.168.64.1)  19.831 ms  20.232 ms  23.339 ms
 3  10.254.246.45 (10.254.246.45)  31.753 ms  32.177 ms  35.193 ms
 4  ss-crs-1-be12-51.msk.stream-internet.net (212.188.1.5)  38.312 ms  41.507 ms  41.936 ms
 5  m9-crs-1-be9.msk.stream-internet.net (195.34.59.250)  47.188 ms  47.601 ms  50.633 ms
 6  212.188.12.231 (212.188.12.231)  52.567 ms  28.315 ms  34.229 ms
 7  p4.Moscow.gldn.net (79.104.225.73)  57.578 ms  57.842 ms p3.Moscow.gldn.net (79.104.225.69)  37.244 ms
 8  p6.Moscow.gldn.net (79.104.231.74)  40.422 ms  40.621 ms  43.590 ms
 9  p2.Samara.gldn.net (79.104.231.142)  61.518 ms * p1.Samara.gldn.net (79.104.230.142)  64.618 ms
10  p1.Togliatti.gldn.net (79.104.230.2)  76.177 ms  77.636 ms  88.257 ms
11  pe-l.Togliatti.gldn.net (79.104.237.2)  72.909 ms  82.664 ms pe-l.Togliatti.gldn.net (79.104.237.6)  92.288 ms
12  212.46.219.2 (212.46.219.2)  51.287 ms  42.890 ms  103.043 ms
13  zz217-113-112-14.tlt.ru (217.113.112.14)  98.430 ms  105.102 ms  48.533 ms
14  * * *
15  * * *
16  * * *
17  * * *
18  * * *
19  * * *
20  * * *
21  * * *
22  * * *
23  * * *
24  * * *
25  * * *
26  * * *
27  * * *
28  * * *
29  * * *
30  * * *
31  * * *
32  * * *
33  * * *
34  * * *
35  * * *
36  * * *
37  * * *
38  * * *
39  * * *
40  * * *
