traceroute to 46.61.30.10 (46.61.30.10), 40 hops max, 60 byte packets
 1  192.168.1.1 (192.168.1.1)  0.678 ms  0.814 ms  0.994 ms
 2  10.168.64.1 (10.168.64.1)  36.613 ms  37.817 ms  39.727 ms
 3  10.254.246.45 (10.254.246.45)  45.010 ms *  47.832 ms
 4  ss-crs-1-be12-51.msk.stream-internet.net (212.188.1.5)  49.094 ms  49.647 ms  52.985 ms
 5  m9-crs-1-be9.msk.stream-internet.net (195.34.59.250)  54.508 ms  55.094 ms  58.372 ms
 6  212.188.12.231 (212.188.12.231)  57.393 ms  63.636 ms  64.415 ms
 7  p4.Moscow.gldn.net (79.104.225.73)  67.626 ms  67.785 ms  68.271 ms
 8  p2.Rostov.gldn.net (79.104.227.182)  91.734 ms  97.364 ms  91.887 ms
 9  pe-r.Rostov.gldn.net (79.104.233.194)  92.543 ms  93.986 ms pe-r.Rostov.gldn.net (79.104.233.210)  96.010 ms
10  212.46.199.190 (212.46.199.190)  98.417 ms 212.46.205.58 (212.46.205.58)  99.658 ms 212.46.199.190 (212.46.199.190)  101.372 ms
11  * * *
12  * * *
13  * * *
14  * * *
15  * * *
16  * * *
17  * * *
18  * * *
19  * * *
20  * * *
21  * * *
22  * * *
23  * * *
24  * * *
25  * * *
26  * * *
27  * * *
28  * * *
29  * * *
30  * * *
31  * * *
32  * * *
33  * * *
34  * * *
35  * * *
36  * * *
37  * * *
38  * * *
39  * * *
40  * * *
