traceroute to 37.153.46.215 (37.153.46.215), 40 hops max, 60 byte packets
 1  192.168.1.1 (192.168.1.1)  21.718 ms  21.881 ms  22.101 ms
 2  10.168.64.1 (10.168.64.1)  38.981 ms *  42.831 ms
 3  10.254.246.45 (10.254.246.45)  49.729 ms  49.967 ms  52.951 ms
 4  ss-crs-1-be12-51.msk.stream-internet.net (212.188.1.5)  56.300 ms  59.798 ms *
 5  m9-crs-1-be9.msk.stream-internet.net (195.34.59.250)  73.893 ms  77.163 ms  76.882 ms
 6  195.34.53.17 (195.34.53.17)  80.013 ms  62.242 ms  55.558 ms
 7  oct-crs-1-be2.spb.stream-internet.net (212.188.1.189)  58.882 ms  62.117 ms  62.285 ms
 8  oct-cr01-po4.spb.stream-internet.net (212.188.1.186)  65.165 ms  68.594 ms  71.381 ms
 9  SkyNet-bor-cr01-te6-1-277.spb.stream-internet.net (212.188.18.42)  77.129 ms  80.051 ms  83.345 ms
10  93.100.194.10 (93.100.194.10)  86.648 ms  89.830 ms  92.716 ms
11  gw-clnt.weba.ru (37.153.0.1)  98.710 ms  101.559 ms  104.916 ms
12  * * *
13  * * *
14  * * *
15  * * *
16  * * *
17  * * *
18  * * *
19  * * *
20  * * *
21  * * *
22  * * *
23  * * *
24  * * *
25  * * *
26  * * *
27  * * *
28  * * *
29  * * *
30  * * *
31  * * *
32  * * *
33  * * *
34  * * *
35  * * *
36  * * *
37  * * *
38  * * *
39  * * *
40  * * *
