traceroute to 79.164.132.187 (79.164.132.187), 40 hops max, 60 byte packets
 1  192.168.1.1 (192.168.1.1)  0.686 ms  0.826 ms  1.045 ms
 2  10.168.64.1 (10.168.64.1)  39.107 ms  39.703 ms  41.673 ms
 3  10.254.246.45 (10.254.246.45)  47.096 ms  47.576 ms  50.155 ms
 4  ss-crs-1-be12-51.msk.stream-internet.net (212.188.1.5)  50.928 ms *  54.930 ms
 5  a197-crs-1-be5.msk.stream-internet.net (195.34.59.106)  55.750 ms  59.717 ms  60.295 ms
 6  212.188.2.54 (212.188.2.54)  64.843 ms  64.764 ms  22.516 ms
 7  Rostelecom-m9.msk.stream-internet.net (212.188.22.70)  25.466 ms  25.750 ms *
 8  ae-8.m7-ar4.msk.ip.rostelecom.ru (87.226.133.178)  31.733 ms ae-0.m7-ar4.msk.ip.rostelecom.ru (87.226.139.102)  31.946 ms *
 9  188.254.54.238 (188.254.54.238)  34.808 ms  37.724 ms  40.580 ms
10  213.85.208.245 (213.85.208.245)  43.720 ms  47.197 ms  50.110 ms
11  213.85.208.249 (213.85.208.249)  53.298 ms  55.203 ms  57.833 ms
12  213.85.208.173 (213.85.208.173)  113.448 ms  38.054 ms  38.246 ms
13  * * *
14  * * *
15  * * *
16  * * *
17  * * *
18  * * *
19  * * *
20  * * *
21  * * *
22  * * *
23  * * *
24  * * *
25  * * *
26  * * *
27  * * *
28  * * *
29  * * *
30  * * *
31  * * *
32  * * *
33  * * *
34  * * *
35  * * *
36  * * *
37  * * *
38  * * *
39  * * *
40  * * *
