traceroute to 95.30.21.89 (95.30.21.89), 40 hops max, 60 byte packets
 1  192.168.1.1 (192.168.1.1)  0.697 ms  0.833 ms  1.012 ms
 2  10.168.64.1 (10.168.64.1)  19.580 ms  19.810 ms  22.791 ms
 3  10.254.246.45 (10.254.246.45)  27.873 ms  30.885 ms  36.477 ms
 4  ss-crs-1-be12-51.msk.stream-internet.net (212.188.1.5)  36.777 ms  39.771 ms *
 5  m9-crs-1-be9.msk.stream-internet.net (195.34.59.250)  47.852 ms  51.070 ms  51.295 ms
 6  GoldenTelecom-m9.msk.stream-internet.net (195.34.36.122)  51.518 ms  29.138 ms  29.816 ms
 7  p4.Moscow.gldn.net (79.104.225.73)  33.110 ms  33.802 ms  37.224 ms
 8  cat26.Moscow.gldn.net (79.104.225.26)  37.800 ms  38.399 ms  41.729 ms
 9  * * *
10  * * *
11  * * *
12  * * *
13  * * *
14  * * *
15  * * *
16  * * *
17  * * *
18  * * *
19  * * *
20  * * *
21  * * *
22  * * *
23  * * *
24  * * *
25  * * *
26  * * *
27  * * *
28  * * *
29  * * *
30  * * *
31  * * *
32  * * *
33  * * *
34  * * *
35  * * *
36  * * *
37  * * *
38  * * *
39  * * *
40  * * *
