traceroute to 5.164.203.68 (5.164.203.68), 40 hops max, 60 byte packets
 1  192.168.1.1 (192.168.1.1)  259.186 ms  264.622 ms  267.056 ms
 2  10.168.64.1 (10.168.64.1)  303.927 ms  306.655 ms  308.028 ms
 3  10.254.246.45 (10.254.246.45)  310.773 ms  315.935 ms  316.060 ms
 4  ss-crs-1-be12-51.msk.stream-internet.net (212.188.1.5)  318.741 ms  318.885 ms  319.017 ms
 5  m9-crs-1-be9.msk.stream-internet.net (195.34.59.250)  322.867 ms  326.249 ms  326.514 ms
 6  m9-cr05-ae0.77.msk.stream-internet.net (212.188.42.58)  325.557 ms  23.967 ms  34.100 ms
 7  Rostelecom-m9.msk.stream-internet.net (212.188.22.70)  37.246 ms  37.639 ms  39.884 ms
 8  46.61.227.202 (46.61.227.202)  42.252 ms  42.658 ms  44.518 ms
 9  lag-3-438.bgw01.nn.ertelecom.ru (91.144.185.248)  51.113 ms  53.297 ms  54.533 ms
10  * lag-100-438.bsr02.nn.ertelecom.ru (91.144.185.249)  72.861 ms  74.753 ms
11  * * *
12  * * *
13  * * *
14  * * *
15  * * *
16  * * *
17  * * *
18  * * *
19  * * *
20  * * *
21  * * *
22  * * *
23  * * *
24  * * *
25  * * *
26  * * *
27  * * *
28  * * *
29  * * *
30  * * *
31  * * *
32  * * *
33  * * *
34  * * *
35  * * *
36  * * *
37  * * *
38  * * *
39  * * *
40  * * *
