traceroute to 213.109.3.204 (213.109.3.204), 40 hops max, 60 byte packets
 1  192.168.1.1 (192.168.1.1)  0.690 ms  0.828 ms  1.004 ms
 2  10.168.64.1 (10.168.64.1)  57.040 ms  60.014 ms  60.585 ms
 3  10.254.246.45 (10.254.246.45)  66.814 ms  67.289 ms  67.876 ms
 4  ss-crs-1-be12-51.msk.stream-internet.net (212.188.1.5)  71.093 ms  71.689 ms  74.946 ms
 5  a197-crs-1-be5.msk.stream-internet.net (195.34.59.106)  75.727 ms  76.238 ms  80.068 ms
 6  212.188.2.61 (212.188.2.61)  79.529 ms  19.936 ms  24.749 ms
 7  m9-cr01-po5-77.msk.stream-internet.net (195.34.53.85)  21.361 ms *  25.105 ms
 8  TTK-m9.msk.stream-internet.net (195.34.38.2)  29.246 ms  29.735 ms  40.419 ms
 9  mskn02.transtelecom.net (217.150.61.74)  40.922 ms  44.040 ms  47.237 ms
10  Anders-gw.transtelecom.net (217.150.61.73)  50.587 ms  54.108 ms  57.216 ms
11  * * *
12  87.251.152.146 (87.251.152.146)  139.223 ms  74.248 ms  77.841 ms
13  213.109.0.253 (213.109.0.253)  78.533 ms  81.691 ms  84.964 ms
14  * * *
15  * * *
16  * * *
17  * * *
18  * * *
19  * * *
20  * * *
21  * * *
22  * * *
23  * * *
24  * * *
25  * * *
26  * * *
27  * * *
28  * * *
29  * * *
30  * * *
31  * * *
32  * * *
33  * * *
34  * * *
35  * * *
36  * * *
37  * * *
38  * * *
39  * * *
40  * * *
