traceroute to 178.185.75.234 (178.185.75.234), 40 hops max, 60 byte packets
 1  192.168.1.1 (192.168.1.1)  2.315 ms  2.462 ms  2.603 ms
 2  10.168.64.1 (10.168.64.1)  69.827 ms  70.940 ms  73.215 ms
 3  10.254.246.45 (10.254.246.45)  78.821 ms  79.166 ms  79.494 ms
 4  ss-crs-1-be12-51.msk.stream-internet.net (212.188.1.5)  83.056 ms  83.449 ms  83.784 ms
 5  m9-crs-1-be9.msk.stream-internet.net (195.34.59.250)  86.659 ms  90.806 ms  91.263 ms
 6  195.34.53.185 (195.34.53.185)  90.078 ms  20.405 ms  21.808 ms
 7  Rostelecom-m9.msk.stream-internet.net (212.188.22.70)  19.327 ms  19.816 ms  22.774 ms
 8  95.167.93.14 (95.167.93.14)  80.741 ms 95.167.92.14 (95.167.92.14)  83.054 ms  85.548 ms
 9  customer-AS41440.xe-1-2-0.798.krsn-rgr4.sib.ip.rostelecom.ru (87.226.171.114)  90.315 ms customer-AS41440.xe-0-3-0.797.krsn-rgr4.sib.ip.rostelecom.ru (87.226.231.142)  91.828 ms customer-AS41440.xe-1-2-0.798.krsn-rgr4.sib.ip.rostelecom.ru (87.226.171.114)  95.070 ms
10  xe-9-1-0.ksk-dr2.ncc.sibirtelecom.ru (213.228.105.13)  102.491 ms xe-3-1-0.ksk-dr2.ncc.sibirtelecom.ru (213.228.105.9)  106.663 ms  108.461 ms
11  TE2-0-0.ksk-bbar2.ncc.sibirtelecom.ru (213.228.119.158)  114.423 ms  114.837 ms  117.415 ms
12  * * *
13  * * *
14  * * *
15  * * *
16  * * *
17  * * *
18  * * *
19  * * *
20  * * *
21  * * *
22  * * *
23  * * *
24  * * *
25  * * *
26  * * *
27  * * *
28  * * *
29  * * *
30  * * *
31  * * *
32  * * *
33  * * *
34  * * *
35  * * *
36  * * *
37  * * *
38  * * *
39  * * *
40  * * *
