traceroute to 37.229.226.156 (37.229.226.156), 40 hops max, 60 byte packets
 1  192.168.1.1 (192.168.1.1)  0.689 ms  0.831 ms  1.010 ms
 2  10.168.64.1 (10.168.64.1)  21.930 ms  22.371 ms  25.371 ms
 3  10.254.246.45 (10.254.246.45)  31.259 ms  31.593 ms  32.044 ms
 4  ss-crs-1-be12-51.msk.stream-internet.net (212.188.1.5)  37.711 ms  38.043 ms  41.092 ms
 5  m9-crs-1-be9.msk.stream-internet.net (195.34.59.250)  43.617 ms  47.227 ms  52.260 ms
 6  GoldenTelecom-m9.msk.stream-internet.net (195.34.36.18)  51.659 ms  56.441 ms  44.038 ms
 7  p3.Moscow.gldn.net (79.104.225.69)  47.700 ms * p4.Moscow.gldn.net (79.104.225.73)  51.723 ms
 8  p6.Moscow.gldn.net (79.104.231.74)  52.451 ms  53.073 ms  54.243 ms
 9  pe25.Moscow.gldn.net (79.104.235.182)  55.913 ms  58.382 ms  59.572 ms
10  79.104.8.38 (79.104.8.38)  79.171 ms  78.360 ms  79.782 ms
11  * * *
12  * * *
13  * * *
14  * * *
15  * * *
16  * * *
17  * * *
18  * * *
19  * * *
20  * * *
21  * * *
22  * * *
23  * * *
24  * * *
25  * * *
26  * * *
27  * * *
28  * * *
29  * * *
30  * * *
31  * * *
32  * * *
33  * * *
34  * * *
35  * * *
36  * * *
37  * * *
38  * * *
39  * * *
40  * * *
