traceroute to 176.210.58.59 (176.210.58.59), 40 hops max, 60 byte packets
 1  192.168.1.1 (192.168.1.1)  0.881 ms  1.053 ms  1.231 ms
 2  10.168.64.1 (10.168.64.1)  43.211 ms  45.045 ms *
 3  10.254.246.45 (10.254.246.45)  53.997 ms  54.239 ms  54.459 ms
 4  ss-crs-1-be12-51.msk.stream-internet.net (212.188.1.5)  55.854 ms  56.085 ms  59.884 ms
 5  m9-crs-1-be9.msk.stream-internet.net (195.34.59.250)  59.616 ms *  63.803 ms
 6  m9-cr05-ae0.77.msk.stream-internet.net (212.188.42.58)  64.027 ms  41.562 ms  19.318 ms
 7  Rostelecom-m9.msk.stream-internet.net (212.188.22.70)  19.941 ms  23.221 ms  26.538 ms
 8  95.167.93.18 (95.167.93.18)  74.172 ms  76.102 ms  78.513 ms
 9  ae-0.401.omsk-br2.sib.ip.rostelecom.ru (87.226.171.122)  82.736 ms 188.128.90.202 (188.128.90.202)  87.104 ms *
10  xe-0-1-0.osk-dr1.ncc.sibirtelecom.ru (213.228.119.1)  97.457 ms xe-8-1-0.osk-dr1.ncc.sibirtelecom.ru (213.228.118.37)  93.263 ms xe-0-1-0.osk-dr1.ncc.sibirtelecom.ru (213.228.119.1)  102.177 ms
11  * * *
12  * * *
13  * * *
14  * * *
15  * * *
16  * * *
17  * * *
18  * * *
19  * * *
20  * * *
21  * * *
22  * * *
23  * * *
24  * * *
25  * * *
26  * * *
27  * * *
28  * * *
29  * * *
30  * * *
31  * * *
32  * * *
33  * * *
34  * * *
35  * * *
36  * * *
37  * * *
38  * * *
39  * * *
40  * * *
