traceroute to 95.37.120.85 (95.37.120.85), 40 hops max, 60 byte packets
 1  192.168.1.1 (192.168.1.1)  0.678 ms  0.819 ms  0.998 ms
 2  10.168.64.1 (10.168.64.1)  47.204 ms  48.362 ms  50.062 ms
 3  10.254.246.45 (10.254.246.45)  54.367 ms  55.005 ms  58.170 ms
 4  ss-crs-1-be12-51.msk.stream-internet.net (212.188.1.5)  59.447 ms  59.953 ms  63.691 ms
 5  * m10-cr01-po7.msk.stream-internet.net (195.34.59.206)  64.253 ms  65.759 ms
 6  Rostelecom-m10.msk.stream-internet.net (212.188.41.58)  66.975 ms  38.719 ms  71.403 ms
 7  95.167.90.79 (95.167.90.79)  95.540 ms  99.247 ms *
 8  * 188.254.78.6 (188.254.78.6)  99.792 ms  100.366 ms
 9  ae0.nnov.dr2.vt.ru (79.126.126.5)  102.593 ms  105.624 ms  106.231 ms
10  79.126.125.14 (79.126.125.14)  108.258 ms  109.487 ms  111.482 ms
11  * * *
12  * * *
13  * * *
14  * * *
15  * * *
16  * * *
17  * * *
18  * * *
19  * * *
20  * * *
21  * * *
22  * * *
23  * * *
24  * * *
25  * * *
26  * * *
27  * * *
28  * * *
29  * * *
30  * * *
31  * * *
32  * * *
33  * * *
34  * * *
35  * * *
36  * * *
37  * * *
38  * * *
39  * * *
40  * * *
