traceroute to 77.75.11.133 (77.75.11.133), 40 hops max, 60 byte packets
 1  192.168.1.1 (192.168.1.1)  0.727 ms  0.864 ms  1.039 ms
 2  10.168.64.1 (10.168.64.1)  17.169 ms  20.273 ms  23.307 ms
 3  10.254.246.45 (10.254.246.45)  26.217 ms  31.692 ms  34.648 ms
 4  ss-crs-1-be12-51.msk.stream-internet.net (212.188.1.5)  34.964 ms  40.537 ms  43.750 ms
 5  m9-crs-1-be9.msk.stream-internet.net (195.34.59.250)  44.616 ms  50.688 ms  56.070 ms
 6  195.34.53.185 (195.34.53.185)  55.759 ms  42.026 ms  69.104 ms
 7  Rostelecom-m9.msk.stream-internet.net (212.188.22.70)  64.188 ms  64.843 ms  65.677 ms
 8  95.167.94.1 (95.167.94.1)  98.299 ms  98.879 ms  99.457 ms
 9  94.25.10.174 (94.25.10.174)  167.389 ms  168.058 ms  168.656 ms
10  c7206ce110.kmv.ru (217.13.213.54)  102.923 ms  103.664 ms  105.481 ms
11  * * *
12  * * *
13  * * *
14  * * *
15  * * *
16  * * *
17  * * *
18  * * *
19  * * *
20  * * *
21  * * *
22  * * *
23  * * *
24  * * *
25  * * *
26  * * *
27  * * *
28  * * *
29  * * *
30  * * *
31  * * *
32  * * *
33  * * *
34  * * *
35  * * *
36  * * *
37  * * *
38  * * *
39  * * *
40  * * *
