traceroute to 95.27.143.233 (95.27.143.233), 40 hops max, 60 byte packets
 1  192.168.1.1 (192.168.1.1)  0.990 ms  1.150 ms  1.638 ms
 2  10.168.64.1 (10.168.64.1)  27.493 ms  28.126 ms  32.167 ms
 3  * 10.254.246.45 (10.254.246.45)  47.075 ms  51.039 ms
 4  ss-crs-1-be12-51.msk.stream-internet.net (212.188.1.5)  62.888 ms  63.581 ms  70.216 ms
 5  m9-crs-1-be9.msk.stream-internet.net (195.34.59.250)  73.547 ms  82.933 ms  86.875 ms
 6  m9-bb-teng3-1.msk.corbina.net (195.14.32.29)  91.868 ms  40.989 ms  79.707 ms
 7  m9-crs-be6.corbina.net (195.14.54.78)  82.733 ms  85.837 ms  86.473 ms
 8  ko-crs-be1.corbina.net (195.14.54.211)  86.152 ms  92.288 ms  92.612 ms
 9  lesnor-bb-be1.corbina.net (195.14.54.185)  92.954 ms  93.291 ms  96.388 ms
10  korova-bb-po7.corbina.net (195.14.54.192)  96.691 ms  99.777 ms  100.141 ms
11  10.2.251.161 (10.2.251.161)  103.149 ms  103.427 ms  105.055 ms
12  * * *
13  * * *
14  * * *
15  * * *
16  * * *
17  * * *
18  * * *
19  * * *
20  * * *
21  * * *
22  * * *
23  * * *
24  * * *
25  * * *
26  * * *
27  * * *
28  * * *
29  * * *
30  * * *
31  * * *
32  * * *
33  * * *
34  * * *
35  * * *
36  * * *
37  * * *
38  * * *
39  * * *
40  * * *
