traceroute to 31.207.140.173 (31.207.140.173), 40 hops max, 60 byte packets
 1  192.168.1.1 (192.168.1.1)  0.678 ms  0.902 ms  1.102 ms
 2  10.168.64.1 (10.168.64.1)  42.245 ms  43.234 ms  44.999 ms
 3  10.254.246.45 (10.254.246.45)  51.609 ms  52.156 ms  52.649 ms
 4  ss-crs-1-be12-51.msk.stream-internet.net (212.188.1.5)  53.106 ms  56.762 ms  57.412 ms
 5  m9-crs-1-be9.msk.stream-internet.net (195.34.59.250)  68.014 ms  68.590 ms  71.169 ms
 6  195.34.53.17 (195.34.53.17)  69.885 ms  52.127 ms  27.044 ms
 7  bor-cr01-po21.spb.stream-internet.net (212.188.1.238)  68.600 ms  69.205 ms  69.502 ms
 8  TTK-bor.spb.stream-internet.net (195.34.38.6)  40.143 ms  43.180 ms  43.507 ms
 9  clk02.transtelecom.net (217.150.62.134)  68.927 ms  72.513 ms  76.445 ms
10  Uzhural-ttk-gw.transtelecom.net (217.150.62.133)  77.245 ms  80.562 ms  83.655 ms
11  * * *
12  * * *
13  * * *
14  * * *
15  * * *
16  * * *
17  * * *
18  * * *
19  * * *
20  * * *
21  * * *
22  * * *
23  * * *
24  * * *
25  * * *
26  * * *
27  * * *
28  * * *
29  * * *
30  * * *
31  * * *
32  * * *
33  * * *
34  * * *
35  * * *
36  * * *
37  * * *
38  * * *
39  * * *
40  * * *
