traceroute to 37.215.107.225 (37.215.107.225), 40 hops max, 60 byte packets
 1  192.168.1.1 (192.168.1.1)  10.668 ms  10.801 ms  10.979 ms
 2  10.168.64.1 (10.168.64.1)  61.999 ms  65.062 ms  65.359 ms
 3  10.254.246.45 (10.254.246.45)  68.682 ms  72.424 ms  72.753 ms
 4  ss-crs-1-be12-51.msk.stream-internet.net (212.188.1.5)  73.092 ms  78.611 ms  78.910 ms
 5  a197-crs-1-be5.msk.stream-internet.net (195.34.59.106)  79.212 ms  81.005 ms  81.311 ms
 6  Beltelecom.stream-internet.net (195.34.36.14)  93.810 ms  61.371 ms  61.870 ms
 7  ie2.net.belpak.by (93.85.80.105)  69.512 ms  69.683 ms  69.893 ms
 8  core2.net.belpak.by (93.85.80.53)  76.855 ms  81.000 ms  81.178 ms
 9  100ge.core.belpak.by (93.85.81.54)  73.735 ms  75.665 ms  77.405 ms
10  * * *
11  * * *
12  * * *
13  * * *
14  * * *
15  * * *
16  * * *
17  * * *
18  * * *
19  * * *
20  * * *
21  * * *
22  * * *
23  * * *
24  * * *
25  * * *
26  * * *
27  * * *
28  * * *
29  * * *
30  * * *
31  * * *
32  * * *
33  * * *
34  * * *
35  * * *
36  * * *
37  * * *
38  * * *
39  * * *
40  * * *
