traceroute to 78.43.127.182 (78.43.127.182), 40 hops max, 60 byte packets
 1  192.168.1.1 (192.168.1.1)  0.775 ms  1.324 ms  1.831 ms
 2  10.168.64.1 (10.168.64.1)  23.899 ms  30.215 ms  39.468 ms
 3  10.254.246.45 (10.254.246.45)  48.810 ms  57.423 ms  60.958 ms
 4  ss-crs-1-be12-51.msk.stream-internet.net (212.188.1.5)  64.320 ms  72.418 ms  72.796 ms
 5  m9-crs-1-be9.msk.stream-internet.net (195.34.59.250)  118.507 ms  122.613 ms  130.744 ms
 6  195.34.53.17 (195.34.53.17)  134.649 ms  101.286 ms  96.384 ms
 7  anc-cr01-be3.ff.stream-internet.net (195.34.53.102)  96.077 ms  96.882 ms  99.754 ms
 8  195.16.161.193 (195.16.161.193)  110.605 ms 195.16.161.189 (195.16.161.189)  113.755 ms 195.16.161.193 (195.16.161.193)  114.030 ms
 9  vlan60.csw1.Frankfurt1.Level3.net (4.69.154.62)  119.754 ms *  123.336 ms
10  * ae-81-81.ebr1.Frankfurt1.Level3.net (4.69.140.9)  129.970 ms *
11  ae-4-4.car1.Munich1.Level3.net (4.69.134.1)  133.579 ms  136.707 ms  139.655 ms
12  ae-11-11.car2.Munich1.Level3.net (4.69.133.254)  106.833 ms  82.054 ms *
13  KABEL-BADEN.car2.Munich1.Level3.net (62.140.25.66)  130.073 ms  131.012 ms  132.947 ms
14  HSI-KBW-078-042-040-032.hsi3.kabel-badenwuerttemberg.de (78.42.40.32)  138.909 ms  140.844 ms  142.301 ms
15  ae0.STR-M2.ip-bb.kabel-badenwuerttemberg.de (78.42.40.5)  143.755 ms  145.340 ms  146.670 ms
16  172.30.24.250 (172.30.24.250)  151.858 ms  72.519 ms  75.736 ms
17  * * *
18  * * *
19  * * *
20  * * *
21  * * *
22  * * *
23  * * *
24  * * *
25  * * *
26  * * *
27  * * *
28  * * *
29  * * *
30  * * *
31  * * *
32  * * *
33  * * *
34  * * *
35  * * *
36  * * *
37  * * *
38  * * *
39  * * *
40  * * *
