traceroute to 46.241.43.211 (46.241.43.211), 40 hops max, 60 byte packets
 1  192.168.1.1 (192.168.1.1)  0.710 ms  0.884 ms  1.056 ms
 2  10.168.64.1 (10.168.64.1)  40.626 ms  43.601 ms  43.969 ms
 3  10.254.246.45 (10.254.246.45)  50.126 ms  50.393 ms  54.099 ms
 4  ss-crs-1-be12-51.msk.stream-internet.net (212.188.1.5)  54.356 ms  54.640 ms  57.596 ms
 5  m9-crs-1-be9.msk.stream-internet.net (195.34.59.250)  66.983 ms  67.264 ms  67.581 ms
 6  195.34.53.17 (195.34.53.17)  67.952 ms  26.755 ms  38.031 ms
 7  bor-cr01-po21.spb.stream-internet.net (212.188.1.238)  41.088 ms  41.360 ms  41.649 ms
 8  TTK-bor.spb.stream-internet.net (195.34.38.6)  47.817 ms  48.319 ms  51.410 ms
 9  ZS-TTK-gw.transtelecom.net (217.150.40.25)  82.927 ms  83.562 ms  84.251 ms
10  ZS-TTK-gw.transtelecom.net (217.150.40.25)  87.511 ms  88.204 ms  91.525 ms
11  * * *
12  * * *
13  * * *
14  * * *
15  * * *
16  * * *
17  * * *
18  * * *
19  * * *
20  * * *
21  * * *
22  * * *
23  * * *
24  * * *
25  * * *
26  * * *
27  * * *
28  * * *
29  * * *
30  * * *
31  * * *
32  * * *
33  * * *
34  * * *
35  * * *
36  * * *
37  * * *
38  * * *
39  * * *
40  * * *
