traceroute to 128.69.114.45 (128.69.114.45), 40 hops max, 60 byte packets
 1  192.168.1.1 (192.168.1.1)  18.307 ms  18.609 ms  18.786 ms
 2  10.168.64.1 (10.168.64.1)  76.093 ms  77.322 ms  79.300 ms
 3  10.254.246.45 (10.254.246.45)  81.962 ms  86.395 ms  86.667 ms
 4  ss-crs-1-be12-51.msk.stream-internet.net (212.188.1.5)  89.298 ms  89.504 ms  93.126 ms
 5  m9-crs-1-be9.msk.stream-internet.net (195.34.59.250)  92.450 ms  96.363 ms  96.620 ms
 6  212.188.12.126 (212.188.12.126)  96.861 ms  17.538 ms  21.699 ms
 7  m9-crs-be4.corbina.net (78.107.184.42)  27.245 ms m9-crs-2-be4.corbina.net (195.14.62.48)  27.547 ms m9-crs-be4.corbina.net (78.107.184.42)  27.947 ms
 8  hq-crs-be4.msk.corbina.net (195.14.62.158)  30.988 ms mo-crs-be3.corbina.net (195.14.54.140)  34.418 ms hq-crs-be4.msk.corbina.net (195.14.62.158)  35.286 ms
 9  marino-bb-be1.corbina.net (195.14.54.251)  38.608 ms marino-bb-be2.msk.corbina.net (195.14.62.169)  41.561 ms  44.863 ms
10  10.2.247.131 (10.2.247.131)  47.778 ms  48.801 ms 10.2.247.129 (10.2.247.129)  54.634 ms
11  * * *
12  * * *
13  * * *
14  * * *
15  * * *
16  * * *
17  * * *
18  * * *
19  * * *
20  * * *
21  * * *
22  * * *
23  * * *
24  * * *
25  * * *
26  * * *
27  * * *
28  * * *
29  * * *
30  * * *
31  * * *
32  * * *
33  * * *
34  * * *
35  * * *
36  * * *
37  * * *
38  * * *
39  * * *
40  * * *
