traceroute to 95.221.75.130 (95.221.75.130), 40 hops max, 60 byte packets
 1  192.168.1.1 (192.168.1.1)  0.717 ms  0.857 ms  1.034 ms
 2  10.168.64.1 (10.168.64.1)  25.033 ms  28.063 ms  28.273 ms
 3  10.254.246.45 (10.254.246.45)  31.198 ms  36.626 ms  36.826 ms
 4  ss-crs-1-be12-51.msk.stream-internet.net (212.188.1.5)  39.806 ms  40.030 ms  42.271 ms
 5  a197-crs-1-be5.msk.stream-internet.net (195.34.59.106)  43.451 ms  47.163 ms  51.045 ms
 6  212.188.2.61 (212.188.2.61)  50.025 ms  17.630 ms  37.286 ms
 7  Megafon-m9.msk.stream-internet.net (212.188.16.134)  43.198 ms  47.311 ms  47.768 ms
 8  85.26.162.65 (85.26.162.65)  43.621 ms  46.820 ms  48.192 ms
 9  212.1.239.26 (212.1.239.26)  48.730 ms  52.349 ms 212.1.253.62 (212.1.253.62)  52.918 ms
10  212.1.239.74 (212.1.239.74)  53.490 ms  56.714 ms *
11  * * *
12  * * *
13  * * *
14  * * *
15  * * *
16  * * *
17  * * *
18  * * *
19  * * *
20  * * *
21  * * *
22  * * *
23  * * *
24  * * *
25  * * *
26  * * *
27  * * *
28  * * *
29  * * *
30  * * *
31  * * *
32  * * *
33  * * *
34  * * *
35  * * *
36  * * *
37  * * *
38  * * *
39  * * *
40  * * *
