traceroute to 213.57.176.189 (213.57.176.189), 40 hops max, 60 byte packets
 1  192.168.1.1 (192.168.1.1)  33.532 ms  33.667 ms  33.845 ms
 2  10.168.64.1 (10.168.64.1)  49.940 ms  52.756 ms  55.684 ms
 3  10.254.246.45 (10.254.246.45)  61.237 ms  64.657 ms  68.058 ms
 4  ss-crs-1-be12-51.msk.stream-internet.net (212.188.1.5)  71.495 ms  71.632 ms  75.694 ms
 5  m9-crs-1-be9.msk.stream-internet.net (195.34.59.250)  114.144 ms  117.860 ms  118.202 ms
 6  a197-crs-1-be4.msk.stream-internet.net (195.34.59.50)  143.137 ms  68.558 ms  67.583 ms
 7  decix2.tcr2.itx.fra.as8218.eu (80.81.193.13)  70.959 ms  74.359 ms  75.035 ms
 8  xe0-0-0.tcr1.itx.fra.as8218.eu (83.167.63.244)  78.494 ms  78.878 ms  79.663 ms
 9  83.167.63.150 (83.167.63.150)  89.080 ms  91.024 ms  92.709 ms
10  cr2.eliott-ness.com (83.167.52.146)  102.104 ms  99.840 ms  102.518 ms
11  xe4.3.0.pt.con.hotnet.net.il (213.57.0.185)  167.917 ms  168.300 ms  168.640 ms
12  core-213-57-0-182.ptr.hotnet.net.il (213.57.0.182)  168.258 ms core-213-57-0-170.ptr.hotnet.net.il (213.57.0.170)  178.382 ms core-213-57-0-158.ptr.hotnet.net.il (213.57.0.158)  148.492 ms
13  * * *
14  * * *
15  * * *
16  * * *
17  * * *
18  * * *
19  * * *
20  * * *
21  * * *
22  * * *
23  * * *
24  * * *
25  * * *
26  * * *
27  * * *
28  * * *
29  * * *
30  * * *
31  * * *
32  * * *
33  * * *
34  * * *
35  * * *
36  * * *
37  * * *
38  * * *
39  * * *
40  * * *
