traceroute to 89.178.156.66 (89.178.156.66), 40 hops max, 60 byte packets
 1  192.168.1.1 (192.168.1.1)  0.695 ms  0.934 ms  1.109 ms
 2  10.168.64.1 (10.168.64.1)  41.300 ms  45.869 ms  46.248 ms
 3  10.254.246.45 (10.254.246.45)  51.514 ms  51.904 ms  54.005 ms
 4  ss-crs-1-be12-51.msk.stream-internet.net (212.188.1.5)  54.751 ms  55.025 ms  58.637 ms
 5  m9-crs-1-be9.msk.stream-internet.net (195.34.59.250)  58.986 ms  62.715 ms  63.078 ms
 6  m9-bb-teng3-1.msk.corbina.net (195.14.32.29)  63.388 ms  36.359 ms  45.524 ms
 7  m9-crs-be6.corbina.net (195.14.54.78)  49.711 ms  49.853 ms  52.883 ms
 8  lom-bb-be1.corbina.net (195.14.54.83)  53.137 ms  53.553 ms  55.277 ms
 9  10.2.248.131 (10.2.248.131)  56.490 ms  58.200 ms  59.621 ms
10  89-178-156-66.broadband.corbina.ru (89.178.156.66)  64.124 ms  64.494 ms  66.060 ms
