traceroute to 31.42.166.78 (31.42.166.78), 40 hops max, 60 byte packets
 1  192.168.1.1 (192.168.1.1)  1.651 ms  1.762 ms  1.940 ms
 2  10.168.64.1 (10.168.64.1)  31.414 ms  32.024 ms  32.568 ms
 3  10.254.246.45 (10.254.246.45)  38.378 ms  38.969 ms  39.619 ms
 4  ss-crs-1-be12-51.msk.stream-internet.net (212.188.1.5)  40.216 ms  40.755 ms  46.503 ms
 5  m9-crs-1-be9.msk.stream-internet.net (195.34.59.250)  82.678 ms  90.539 ms  98.388 ms
 6  195.34.53.17 (195.34.53.17)  101.669 ms  89.333 ms  93.764 ms
 7  anc-cr01-be3.ff.stream-internet.net (195.34.53.102)  90.181 ms  93.574 ms  93.826 ms
 8  195.16.161.193 (195.16.161.193)  101.996 ms 195.16.161.189 (195.16.161.189)  103.895 ms 195.16.161.193 (195.16.161.193)  105.372 ms
 9  ae-3-80.edge3.Frankfurt1.Level3.net (4.69.154.135)  107.537 ms ae-2-70.edge3.Frankfurt1.Level3.net (4.69.154.71)  109.287 ms ae-4-90.edge3.Frankfurt1.Level3.net (4.69.154.199)  113.247 ms
10  dialup-212.162.19.74.frankfurt1.mik.net (212.162.19.74)  133.660 ms  137.291 ms  137.030 ms
11  194.44.212.253 (194.44.212.253)  115.153 ms  116.526 ms *
12  * * 194.44.88.114 (194.44.88.114)  107.283 ms
13  * * *
14  * * *
15  * * *
16  * * *
17  * * *
18  * * *
19  * * *
20  * * *
21  * * *
22  * * *
23  * * *
24  * * *
25  * * *
26  * * *
27  * * *
28  * * *
29  * * *
30  * * *
31  * * *
32  * * *
33  * * *
34  * * *
35  * * *
36  * * *
37  * * *
38  * * *
39  * * *
40  * * *
