traceroute to 178.66.250.248 (178.66.250.248), 40 hops max, 60 byte packets
 1  192.168.1.1 (192.168.1.1)  0.709 ms  0.850 ms  1.027 ms
 2  10.168.64.1 (10.168.64.1)  21.885 ms  25.277 ms *
 3  10.254.246.45 (10.254.246.45)  33.426 ms  36.441 ms  36.709 ms
 4  ss-crs-1-be12-51.msk.stream-internet.net (212.188.1.5)  44.804 ms  45.216 ms  48.124 ms
 5  a197-crs-1-be5.msk.stream-internet.net (195.34.59.106)  51.169 ms  54.099 ms  60.379 ms
 6  212.188.2.54 (212.188.2.54)  57.231 ms  20.081 ms  34.148 ms
 7  Rostelecom-m9.msk.stream-internet.net (212.188.22.70)  34.359 ms  37.218 ms  37.388 ms
 8  95.167.93.109 (95.167.93.109)  87.159 ms  55.535 ms  87.381 ms
 9  188.254.44.10 (188.254.44.10)  58.429 ms  61.400 ms  64.526 ms
10  ae3-30g.T1600-2-MMT.nwtelecom.ru (212.48.194.150)  65.335 ms  65.036 ms  68.305 ms
11  te11-0-0-10g.E320-1-588.nwtelecom.ru (212.48.198.154)  64.644 ms  73.931 ms  68.400 ms
12  * * *
13  * * *
14  * * *
15  * * *
16  * * *
17  * * *
18  * * *
19  * * *
20  * * *
21  * * *
22  * * *
23  * * *
24  * * *
25  * * *
26  * * *
27  * * *
28  * * *
29  * * *
30  * * *
31  * * *
32  * * *
33  * * *
34  * * *
35  * * *
36  * * *
37  * * *
38  * * *
39  * * *
40  * * *
