traceroute to 46.118.124.200 (46.118.124.200), 40 hops max, 60 byte packets
 1  192.168.1.1 (192.168.1.1)  76.346 ms  77.109 ms  77.310 ms
 2  10.168.64.1 (10.168.64.1)  93.635 ms  96.623 ms  100.464 ms
 3  10.254.246.45 (10.254.246.45)  106.397 ms  109.839 ms  110.189 ms
 4  ss-crs-1-be12-51.msk.stream-internet.net (212.188.1.5)  114.087 ms  118.207 ms  118.647 ms
 5  * m9-crs-1-be9.msk.stream-internet.net (195.34.59.250)  124.455 ms  127.576 ms
 6  GoldenTelecom-m9.msk.stream-internet.net (195.34.36.18)  127.936 ms  84.130 ms  102.359 ms
 7  194.67.23.146 (194.67.23.146)  131.377 ms  131.671 ms  134.710 ms
 8  * * *
 9  * * *
10  * * *
11  * * *
12  * * *
13  * * *
14  * * *
15  * * *
16  * * *
17  * * *
18  * * *
19  * * *
20  * * *
21  * * *
22  * * *
23  * * *
24  * * *
25  * * *
26  * * *
27  * * *
28  * * *
29  * * *
30  * * *
31  * * *
32  * * *
33  * * *
34  * * *
35  * * *
36  * * *
37  * * *
38  * * *
39  * * *
40  * * *
