traceroute to 77.37.172.82 (77.37.172.82), 40 hops max, 60 byte packets
 1  192.168.1.1 (192.168.1.1)  1.100 ms  1.237 ms  1.414 ms
 2  10.168.64.1 (10.168.64.1)  81.489 ms  82.746 ms  84.431 ms
 3  * * *
 4  bgw-1-te2-6-300.msk.ip.ncnet.ru (77.37.254.113)  93.456 ms  93.919 ms  95.207 ms
 5  m10-cr01-be2.msk.ip.ncnet.ru (77.37.254.210)  97.996 ms  99.704 ms  103.355 ms
 6  * * mtk-105-lag-91.msk.ip.ncnet.ru (77.37.254.198)  46.941 ms
 7  * * *
 8  * * *
 9  * * *
10  * * *
11  * * *
12  * * *
13  * * *
14  * * *
15  * * *
16  * * *
17  * * *
18  * * *
19  * * *
20  * * *
21  * * *
22  * * *
23  * * *
24  * * *
25  * * *
26  * * *
27  * * *
28  * * *
29  * * *
30  * * *
31  * * *
32  * * *
33  * * *
34  * * *
35  * * *
36  * * *
37  * * *
38  * * *
39  * * *
40  * * *
