traceroute to 194.1.233.159 (194.1.233.159), 40 hops max, 60 byte packets
 1  192.168.1.1 (192.168.1.1)  10.747 ms  10.885 ms  11.115 ms
 2  10.168.64.1 (10.168.64.1)  28.153 ms  31.577 ms  34.886 ms
 3  10.254.246.45 (10.254.246.45)  43.865 ms  44.440 ms  44.998 ms
 4  ss-crs-1-be12-51.msk.stream-internet.net (212.188.1.5)  50.634 ms  51.155 ms  54.459 ms
 5  m9-crs-1-be9.msk.stream-internet.net (195.34.59.250)  55.057 ms  66.884 ms  70.934 ms
 6  m9-cr05-ae0.77.msk.stream-internet.net (212.188.42.58)  71.898 ms  50.524 ms  33.380 ms
 7  Rostelecom-m9.msk.stream-internet.net (212.188.22.70)  36.254 ms  37.038 ms  37.153 ms
 8  * 95.167.95.221 (95.167.95.221)  40.615 ms ae-8.m7-ar4.msk.ip.rostelecom.ru (87.226.133.178)  43.487 ms
 9  95.167.13.6 (95.167.13.6)  56.438 ms 95.167.13.22 (95.167.13.22)  59.824 ms 95.167.13.18 (95.167.13.18)  60.392 ms
10  ae3-20g.T1600-1-MMT.nwtelecom.ru (212.48.194.114)  73.291 ms  73.427 ms  73.553 ms
11  ae0-30g.MX960-1-VLGD.nwtelecom.ru (212.48.195.181)  92.165 ms  94.123 ms  98.262 ms
12  ppp-58.215-adsl.spbnit.ru (212.48.215.58)  69.672 ms  59.092 ms  61.876 ms
13  * * *
14  * * *
15  * * *
16  * * *
17  * * *
18  * * *
19  * * *
20  * * *
21  * * *
22  * * *
23  * * *
24  * * *
25  * * *
26  * * *
27  * * *
28  * * *
29  * * *
30  * * *
31  * * *
32  * * *
33  * * *
34  * * *
35  * * *
36  * * *
37  * * *
38  * * *
39  * * *
40  * * *
