traceroute to 5.166.221.14 (5.166.221.14), 40 hops max, 60 byte packets
 1  192.168.1.1 (192.168.1.1)  0.689 ms  0.819 ms  0.985 ms
 2  10.168.64.1 (10.168.64.1)  32.104 ms  34.965 ms  34.970 ms
 3  10.254.246.45 (10.254.246.45)  37.915 ms  43.457 ms  43.613 ms
 4  ss-crs-1-be12-51.msk.stream-internet.net (212.188.1.5)  43.743 ms  46.504 ms  46.645 ms
 5  m9-crs-1-be9.msk.stream-internet.net (195.34.59.250)  49.631 ms  49.847 ms  53.331 ms
 6  195.34.53.185 (195.34.53.185)  51.501 ms  20.749 ms *
 7  * * *
 8  * * 46.61.227.202 (46.61.227.202)  72.528 ms
 9  * * *
10  * * lag-100-438.bsr02.nn.ertelecom.ru (91.144.185.249)  93.087 ms
11  * * *
12  * * *
13  * * *
14  * * *
15  * * *
16  * * *
17  * * *
18  * * *
19  * * *
20  * * *
21  * * *
22  * * *
23  * * *
24  * * *
25  * * *
26  * * *
27  * * *
28  * * *
29  * * *
30  * * *
31  * * *
32  * * *
33  * * *
34  * * *
35  * * *
36  * * *
37  * * *
38  * * *
39  * * *
40  * * *
