traceroute to 95.24.114.116 (95.24.114.116), 40 hops max, 60 byte packets
 1  192.168.1.1 (192.168.1.1)  0.652 ms  0.792 ms  1.092 ms
 2  10.168.64.1 (10.168.64.1)  66.781 ms  68.410 ms  69.912 ms
 3  10.254.246.45 (10.254.246.45)  74.179 ms  77.714 ms  78.327 ms
 4  ss-crs-1-be12-51.msk.stream-internet.net (212.188.1.5)  77.016 ms  80.997 ms  81.546 ms
 5  m9-crs-1-be9.msk.stream-internet.net (195.34.59.250)  96.619 ms  97.301 ms  97.929 ms
 6  m9-bb-teng3-1.msk.corbina.net (195.14.32.29)  87.910 ms  29.566 ms  32.499 ms
 7  m9-crs-be6.corbina.net (195.14.54.78)  33.069 ms m9-crs-2-be6.corbina.net (195.14.62.84)  36.635 ms m9-crs-be6.corbina.net (195.14.54.78)  39.870 ms
 8  ko-crs-be1.corbina.net (195.14.54.211)  43.326 ms  43.889 ms ko-crs-be15.corbina.net (195.14.62.47)  45.021 ms
 9  dolg-bb-po1.corbina.net (195.14.54.227)  44.392 ms  45.650 ms  46.242 ms
10  10.2.248.117 (10.2.248.117)  46.804 ms  50.081 ms  50.821 ms
11  * * *
12  * * *
13  * * *
14  * * *
15  * * *
16  * * *
17  * * *
18  * * *
19  * * *
20  * * *
21  * * *
22  * * *
23  * * *
24  * * *
25  * * *
26  * * *
27  * * *
28  * * *
29  * * *
30  * * *
31  * * *
32  * * *
33  * * *
34  * * *
35  * * *
36  * * *
37  * * *
38  * * *
39  * * *
40  * * *
