traceroute to 94.179.42.2 (94.179.42.2), 40 hops max, 60 byte packets
 1  192.168.1.1 (192.168.1.1)  0.682 ms  0.820 ms  0.997 ms
 2  10.168.64.1 (10.168.64.1)  24.570 ms  27.535 ms  27.785 ms
 3  10.254.246.45 (10.254.246.45)  33.245 ms  33.452 ms  33.651 ms
 4  ss-crs-1-be12-51.msk.stream-internet.net (212.188.1.5)  39.860 ms  40.093 ms  41.337 ms
 5  m9-crs-1-be9.msk.stream-internet.net (195.34.59.250)  63.492 ms  67.404 ms  67.615 ms
 6  pbd-cr01-be15.kiev.stream-internet.net (212.188.54.202)  70.085 ms  76.010 ms  69.877 ms
 7  leo-cr01-po16.kiev.stream-internet.net (212.188.54.206)  73.054 ms  73.520 ms  74.148 ms
 8  53-249-179-213.ip.ukrtel.net (213.179.249.53)  77.500 ms  78.596 ms  84.923 ms
 9  2-42-179-94.pool.ukrtel.net (94.179.42.2)  135.018 ms  139.200 ms  140.393 ms
