traceroute to 82.239.206.96 (82.239.206.96), 40 hops max, 60 byte packets
 1  192.168.1.1 (192.168.1.1)  0.667 ms  0.831 ms  1.081 ms
 2  10.168.64.1 (10.168.64.1)  17.334 ms  20.581 ms  23.661 ms
 3  10.254.246.45 (10.254.246.45)  32.092 ms  32.595 ms  33.174 ms
 4  ss-crs-1-be12-51.msk.stream-internet.net (212.188.1.5)  36.241 ms  39.413 ms  43.472 ms
 5  a197-crs-1-be5.msk.stream-internet.net (195.34.59.106)  97.609 ms  101.438 ms  105.514 ms
 6  212.188.2.37 (212.188.2.37)  106.808 ms  72.302 ms  89.709 ms
 7  212.188.2.93 (212.188.2.93)  93.134 ms  96.732 ms  98.154 ms
 8  tct-cr01-po4.ams.stream-internet.net (195.34.53.138)  101.078 ms  103.284 ms  105.483 ms
 9  amsix-6k-1.routers.proxad.net (195.69.144.251)  107.936 ms * *
10  londres-6k-1-po100.intf.routers.proxad.net (212.27.56.41)  124.186 ms * *
11  bzn-crs16-1-be1102.intf.routers.proxad.net (212.27.51.185)  140.241 ms  142.711 ms  148.233 ms
12  velizy-6k-1-po3.intf.routers.proxad.net (212.27.57.98)  114.883 ms  125.850 ms  108.311 ms
13  massy-6k-1-po2.intf.routers.proxad.net (212.27.50.198)  112.643 ms * *
14  * * *
15  * * *
16  * * *
17  * * *
18  * * *
19  * * *
20  * * *
21  * * *
22  * * *
23  * * *
24  * * *
25  * * *
26  * * *
27  * * *
28  * * *
29  * * *
30  * * *
31  * * *
32  * * *
33  * * *
34  * * *
35  * * *
36  * * *
37  * * *
38  * * *
39  * * *
40  * * *
