traceroute to 178.94.83.225 (178.94.83.225), 40 hops max, 60 byte packets
 1  192.168.1.1 (192.168.1.1)  0.716 ms  0.885 ms  1.062 ms
 2  10.168.64.1 (10.168.64.1)  31.579 ms  34.846 ms  35.309 ms
 3  10.254.246.45 (10.254.246.45)  41.078 ms  41.574 ms  44.773 ms
 4  ss-crs-1-be12-51.msk.stream-internet.net (212.188.1.5)  45.358 ms  45.921 ms  49.295 ms
 5  m9-crs-1-be9.msk.stream-internet.net (195.34.59.250)  69.958 ms  70.678 ms  72.941 ms
 6  pbd-cr01-be15.kiev.stream-internet.net (212.188.54.202)  71.159 ms  39.227 ms  49.299 ms
 7  leo-cr01-po16.kiev.stream-internet.net (212.188.54.206)  52.861 ms  53.654 ms  54.223 ms
 8  53-249-179-213.ip.ukrtel.net (213.179.249.53)  92.913 ms  93.461 ms  94.041 ms
 9  * * *
10  * * *
11  * * *
12  * * *
13  * * *
14  * * *
15  * * *
16  * * *
17  * * *
18  * * *
19  * * *
20  * * *
21  * * *
22  * * *
23  * * *
24  * * *
25  * * *
26  * * *
27  * * *
28  * * *
29  * * *
30  * * *
31  * * *
32  * * *
33  * * *
34  * * *
35  * * *
36  * * *
37  * * *
38  * * *
39  * * *
40  * * *
