traceroute to 213.242.60.73 (213.242.60.73), 40 hops max, 60 byte packets
 1  192.168.1.1 (192.168.1.1)  0.673 ms  0.821 ms  1.004 ms
 2  10.168.64.1 (10.168.64.1)  54.026 ms  55.464 ms  57.033 ms
 3  10.254.246.45 (10.254.246.45)  59.623 ms  64.353 ms  64.762 ms
 4  ss-crs-1-be12-51.msk.stream-internet.net (212.188.1.5)  67.225 ms  67.623 ms  71.338 ms
 5  m9-crs-1-be9.msk.stream-internet.net (195.34.59.250)  72.876 ms  73.309 ms  76.140 ms
 6  m9-cr05-ae0.77.msk.stream-internet.net (212.188.42.58)  74.345 ms  18.522 ms  18.293 ms
 7  Rostelecom-m9.msk.stream-internet.net (212.188.22.70)  21.639 ms  25.088 ms  25.701 ms
 8  95.167.95.106 (95.167.95.106)  30.777 ms  32.992 ms  36.263 ms
 9  customer-AS44237.ae-7.626.m7-cr1-a.msk.ip.rostelecom.ru (188.254.36.98)  42.259 ms *  46.101 ms
10  77.51.252.247 (77.51.252.247)  60.058 ms  60.655 ms  61.304 ms
11  IVN-CRS2-VLD-CRS1.ip.center.rt.ru (77.51.253.215)  72.345 ms  75.755 ms  76.336 ms
12  77.51.252.217 (77.51.252.217)  85.167 ms  65.497 ms  35.437 ms
13  172.31.192.198 (172.31.192.198)  34.861 ms  35.150 ms  38.291 ms
14  172.31.192.121 (172.31.192.121)  41.316 ms 172.31.192.117 (172.31.192.117)  44.261 ms  47.257 ms
15  * * *
16  * * *
17  * * *
18  * * *
19  * * *
20  * * *
21  * * *
22  * * *
23  * * *
24  * * *
25  * * *
26  * * *
27  * * *
28  * * *
29  * * *
30  * * *
31  * * *
32  * * *
33  * * *
34  * * *
35  * * *
36  * * *
37  * * *
38  * * *
39  * * *
40  * * *
