traceroute to 37.147.223.161 (37.147.223.161), 40 hops max, 60 byte packets
 1  192.168.1.1 (192.168.1.1)  0.713 ms  0.851 ms  1.218 ms
 2  10.168.64.1 (10.168.64.1)  19.173 ms  19.364 ms  22.153 ms
 3  10.254.246.45 (10.254.246.45)  27.463 ms  30.270 ms  35.803 ms
 4  ss-crs-1-be12-51.msk.stream-internet.net (212.188.1.5)  38.856 ms  38.996 ms  40.292 ms
 5  m9-crs-1-be9.msk.stream-internet.net (195.34.59.250)  44.235 ms  44.360 ms  49.637 ms
 6  212.188.12.231 (212.188.12.231)  50.994 ms  60.361 ms  31.897 ms
 7  p4.Moscow.gldn.net (79.104.225.73)  32.488 ms  32.990 ms  36.122 ms
 8  p2.Rostov.gldn.net (79.104.227.182)  65.311 ms p2.Volgograd.gldn.net (79.104.231.138)  64.781 ms  65.782 ms
 9  p2.Krasnodar.gldn.net (79.104.227.85)  68.568 ms  71.223 ms  71.692 ms
10  79.104.238.242 (79.104.238.242)  88.001 ms  88.479 ms  88.967 ms
11  pe01.Sochi.gldn.net (195.222.173.58)  81.358 ms  89.469 ms  93.338 ms
12  * vpn2-a198.Togliatti.golden.ru (212.46.239.198)  51.320 ms  77.240 ms
13  77.106.200.124 (77.106.200.124)  72.334 ms  78.942 ms  81.400 ms
14  * * *
15  * * *
16  * * *
17  * * *
18  * * *
19  * * *
20  * * *
21  * * *
22  * * *
23  * * *
24  * * *
25  * * *
26  * * *
27  * * *
28  * * *
29  * * *
30  * * *
31  * * *
32  * * *
33  * * *
34  * * *
35  * * *
36  * * *
37  * * *
38  * * *
39  * * *
40  * * *
