traceroute to 178.234.166.244 (178.234.166.244), 40 hops max, 60 byte packets
 1  192.168.1.1 (192.168.1.1)  0.734 ms  0.876 ms  1.055 ms
 2  10.168.64.1 (10.168.64.1)  32.805 ms  33.021 ms  38.535 ms
 3  10.254.246.45 (10.254.246.45)  41.836 ms  42.109 ms  45.068 ms
 4  ss-crs-1-be12-51.msk.stream-internet.net (212.188.1.5)  45.394 ms  45.762 ms  46.067 ms
 5  a197-crs-1-be5.msk.stream-internet.net (195.34.59.106)  49.907 ms  50.262 ms  53.265 ms
 6  212.188.2.54 (212.188.2.54)  51.678 ms  19.992 ms  50.965 ms
 7  Rostelecom-m9.msk.stream-internet.net (212.188.22.70)  54.514 ms  55.040 ms  55.521 ms
 8  95.167.95.224 (95.167.95.224)  59.014 ms  67.847 ms  68.386 ms
 9  customer-AS44237.ae-5.626.m7-cr1-b.msk.ip.rostelecom.ru (188.254.36.102)  62.985 ms  64.389 ms  66.154 ms
10  77.51.252.247 (77.51.252.247)  78.993 ms  79.698 ms  79.958 ms
11  LPE-CRS1-MSK-CRS1.ip.center.rt.ru (77.51.253.87)  89.855 ms  90.172 ms  90.562 ms
12  77.51.254.154 (77.51.254.154)  78.752 ms  111.331 ms  105.641 ms
13  172.31.72.106 (172.31.72.106)  102.153 ms  102.428 ms  102.680 ms
14  X101.bbn07-000.lipetsk.ru (178.234.0.101)  98.754 ms * *
15  * * *
16  * * *
17  * * *
18  * * *
19  * * *
20  * * *
21  * * *
22  * * *
23  * * *
24  * * *
25  * * *
26  * * *
27  * * *
28  * * *
29  * * *
30  * * *
31  * * *
32  * * *
33  * * *
34  * * *
35  * * *
36  * * *
37  * * *
38  * * *
39  * * *
40  * * *
