traceroute to 92.46.152.215 (92.46.152.215), 40 hops max, 60 byte packets
 1  192.168.1.1 (192.168.1.1)  0.704 ms  0.858 ms  1.040 ms
 2  10.168.64.1 (10.168.64.1)  21.637 ms  24.719 ms  24.960 ms
 3  10.254.246.45 (10.254.246.45)  30.495 ms *  34.341 ms
 4  ss-crs-1-be12-51.msk.stream-internet.net (212.188.1.5)  34.030 ms  39.953 ms  41.806 ms
 5  a197-crs-1-be5.msk.stream-internet.net (195.34.59.106)  46.163 ms  46.577 ms  49.580 ms
 6  212.188.2.54 (212.188.2.54)  86.042 ms  65.461 ms  71.673 ms
 7  Megafon-m9.msk.stream-internet.net (212.188.16.134)  74.681 ms  80.433 ms  83.498 ms
 8  10.222.163.9 (10.222.163.9)  100.837 ms  100.090 ms  101.159 ms
 9  78.25.80.194 (78.25.80.194)  127.236 ms  127.567 ms *
10  akta-agr-1.online.kz (92.47.151.58)  167.067 ms  167.485 ms  170.257 ms
11  alma-core-l1-6.online.kz (92.47.145.1)  155.256 ms  158.716 ms *
12  kara-core-l2-1-2.online.kz (92.47.145.217)  141.038 ms  109.407 ms  85.971 ms
13  kara-mx-1.online.kz (95.59.170.93)  97.585 ms  100.765 ms  102.108 ms
14  82.200.249.49 (82.200.249.49)  105.298 ms  108.403 ms  111.474 ms
15  92.46.142.1 (92.46.142.1)  114.626 ms  117.786 ms *
16  92.46.152.215.megaline.telecom.kz (92.46.152.215)  152.584 ms  160.962 ms  153.831 ms
