traceroute to 95.72.71.116 (95.72.71.116), 40 hops max, 60 byte packets
 1  192.168.1.1 (192.168.1.1)  35.263 ms  35.405 ms  35.676 ms
 2  * 10.168.64.1 (10.168.64.1)  52.167 ms  55.198 ms
 3  10.254.246.45 (10.254.246.45)  61.579 ms  64.955 ms  70.326 ms
 4  ss-crs-1-be12-51.msk.stream-internet.net (212.188.1.5)  70.513 ms  73.345 ms  76.374 ms
 5  m9-crs-1-be9.msk.stream-internet.net (195.34.59.250)  81.909 ms  87.434 ms  87.644 ms
 6  m9-cr05-ae0.77.msk.stream-internet.net (212.188.42.58)  87.774 ms  46.525 ms  58.321 ms
 7  Rostelecom-m9.msk.stream-internet.net (212.188.22.70)  58.810 ms  64.668 ms  65.229 ms
 8  95.167.95.33 (95.167.95.33)  68.621 ms 95.167.95.106 (95.167.95.106)  71.794 ms 95.167.95.33 (95.167.95.33)  107.159 ms
 9  customer-AS25515.ae-9.133.m7-cr1-a.msk.ip.rostelecom.ru (188.254.36.230)  77.436 ms customer-AS25515.ae-13.134.m7-cr2-b.msk.ip.rostelecom.ru (188.254.36.234)  80.736 ms *
10  * * *
11  * * *
12  * * *
13  * * *
14  * * *
15  * * *
16  * * *
17  * * *
18  * * *
19  * * *
20  * * *
21  * * *
22  * * *
23  * * *
24  * * *
25  * * *
26  * * *
27  * * *
28  * * *
29  * * *
30  * * *
31  * * *
32  * * *
33  * * *
34  * * *
35  * * *
36  * * *
37  * * *
38  * * *
39  * * *
40  * * *
