traceroute to plkz.yotelecom.ru (67.215.65.132), 40 hops max, 60 byte packets
 1  192.168.1.1 (192.168.1.1)  0.661 ms  0.821 ms  1.017 ms
 2  10.168.64.1 (10.168.64.1)  15.950 ms  19.529 ms  20.123 ms
 3  10.254.246.45 (10.254.246.45)  24.044 ms  27.056 ms  27.273 ms
 4  ss-crs-1-be12-51.msk.stream-internet.net (212.188.1.5)  27.469 ms  31.389 ms  31.633 ms
 5  m9-crs-1-be9.msk.stream-internet.net (195.34.59.250)  68.869 ms  72.826 ms  73.029 ms
 6  * * a197-crs-1-be4.msk.stream-internet.net (195.34.59.50)  52.736 ms
 7  xe-0.de-cix.frnkge03.de.bb.gin.ntt.net (80.81.192.46)  74.214 ms  75.587 ms  76.660 ms
 8  ae-1.r02.frnkge03.de.bb.gin.ntt.net (129.250.4.163)  80.464 ms  82.853 ms  84.949 ms
 9  xe-3-1.r02.frnkge02.de.bb.gin.ntt.net (129.250.2.122)  67.190 ms  70.210 ms  73.044 ms
10  * * *
11  * * *
12  * * *
13  * * *
14  * * *
15  * * *
16  * * *
17  * * *
18  * * *
19  * * *
20  * * *
21  * * *
22  * * *
23  * * *
24  * * *
25  * * *
26  * * *
27  * * *
28  * * *
29  * * *
30  * * *
31  * * *
32  * * *
33  * * *
34  * * *
35  * * *
36  * *