traceroute to ppp31-192-131-44.tis-dialog.ru (31.192.131.44), 40 hops max, 60 byte packets
 1  192.168.1.1 (192.168.1.1)  172.944 ms  173.570 ms  173.741 ms
 2  10.168.64.1 (10.168.64.1)  193.110 ms  194.208 ms  197.093 ms
 3  10.254.246.45 (10.254.246.45)  201.549 ms  201.746 ms  204.668 ms
 4  ss-crs-1-be12-51.msk.stream-internet.net (212.188.1.5)  207.679 ms  207.836 ms  208.079 ms
 5  m9-crs-1-be9.msk.stream-internet.net (195.34.59.250)  246.479 ms  251.465 ms  251.865 ms
 6  195.34.53.17 (195.34.53.17)  255.323 ms  60.840 ms  259.856 ms
 7  anc-cr01-be3.ff.stream-internet.net (195.34.53.102)  259.305 ms  262.492 ms  265.090 ms
 8  frt01.transtelecom.net (80.81.194.117)  268.040 ms  271.524 ms  295.000 ms
 9  kgd01.kgd27.transtelecom.net (217.150.40.222)  283.479 ms  283.921 ms  286.479 ms
10  TIS-Dialog-gw.transtelecom.net (217.150.40.221)  289.099 ms TISDialog-gw.transtelecom.net (217.150.61.13)  289.581 ms TIS-Dialog-gw.transtelecom.net (217.150.40.221)  292.364 ms
11  * * *
12  * * *
13  * * *
14  * * *
15  * * *
16  * * *
17  * * *
18  * * *
19  * * *
20  * * *
21  * * *
22  * * *
23  * * *
24  * * *
25  * * *
26  * * *
27  * * *
28  * * *
29  * * *
30  * * *
31  * * *
32  *