traceroute to 37-229-52-190-broadband.kyivstar.net (67.215.65.132), 40 hops max, 60 byte packets
 1  192.168.1.1 (192.168.1.1)  0.650 ms  0.853 ms  1.048 ms
 2  10.168.64.1 (10.168.64.1)  19.410 ms  19.846 ms  22.819 ms
 3  10.254.246.45 (10.254.246.45)  31.890 ms  32.208 ms  35.227 ms
 4  ss-crs-1-be12-51.msk.stream-internet.net (212.188.1.5)  35.659 ms  38.610 ms  42.041 ms
 5  m9-crs-1-be9.msk.stream-internet.net (195.34.59.250)  80.593 ms  84.100 ms  87.815 ms
 6  * a197-crs-1-be4.msk.stream-internet.net (195.34.59.50)  52.992 ms  53.661 ms
 7  xe-0.de-cix.frnkge03.de.bb.gin.ntt.net (80.81.192.46)  57.060 ms  59.693 ms  61.901 ms
 8  ae-1.r02.frnkge03.de.bb.gin.ntt.net (129.250.4.163)  65.412 ms  68.587 ms  70.360 ms
 9  xe-3-1.r02.frnkge02.de.bb.gin.ntt.net (129.250.2.122)  71.738 ms  73.734 ms  76.120 ms
10  * * *
11  * * *
12  * * *
13  * * *
14  * * *
15  * * *
16  * * *
17  * * *
18  * * *
19  * * *
20  * * *
21  * * *
22  * * *
23  * * *
24  * * *
25  * * *
26  * * *
27  * * *
28  * * *
29  * * *
30  * * *
31  * * *
32  * * *
33  * * *
34  * * *
35  * * *
36  * * *
37  * * *
38  * * *
39  * * *
40  * * *
