traceroute to 178.163.38.27 (178.163.38.27), 40 hops max, 60 byte packets
 1  192.168.1.1 (192.168.1.1)  0.688 ms  0.832 ms  1.011 ms
 2  10.168.64.1 (10.168.64.1)  19.461 ms  19.767 ms  22.885 ms
 3  10.254.246.45 (10.254.246.45)  31.033 ms  31.356 ms  34.546 ms
 4  ss-crs-1-be12-51.msk.stream-internet.net (212.188.1.5)  34.872 ms  40.414 ms  42.433 ms
 5  m9-crs-1-be9.msk.stream-internet.net (195.34.59.250)  44.384 ms  48.700 ms  52.535 ms
 6  212.188.12.229 (212.188.12.229)  51.739 ms  17.386 ms  18.659 ms
 7  p4.Moscow.gldn.net (79.104.225.73)  22.058 ms  25.530 ms  26.163 ms
 8  p6.Moscow.gldn.net (79.104.231.74)  29.478 ms  32.804 ms  36.125 ms
 9  p2.Samara.gldn.net (79.104.231.142)  54.460 ms p1.Samara.gldn.net (79.104.230.142)  66.192 ms  70.426 ms
10  p1.Togliatti.gldn.net (79.104.230.2)  75.696 ms  86.804 ms  90.822 ms
11  pe-l.Togliatti.gldn.net (79.104.237.2)  76.311 ms  78.348 ms  80.596 ms
12  212.46.219.2 (212.46.219.2)  72.700 ms  42.396 ms  52.304 ms
13  zz217-113-112-14.tlt.ru (217.113.112.14)  64.133 ms  60.689 ms  68.449 ms
14  * * *
15  * * *
16  * * *
17  * * *
18  * * *
19  * * *
20  * * *
21  * * *
22  * * *
23  * * *
24  * * *
25  * * *
26  * * *
27  * * *
28  * * *
29  * * *
30  * * *
31  * * *
32  * * *
33  * * *
34  * * *
35  * * *
36  * * *
37  * * *
38  * * *
39  * * *
40  * * *
